

================================================================
== Vitis HLS Report for 'bz_detector_1_32_57'
================================================================
* Date:           Wed May  4 23:48:32 2022

* Version:        2020.2 (Build 3064766 on Wed Nov 18 09:12:47 MST 2020)
* Project:        betterloglog_prj
* Solution:       solution1 (Vitis Kernel Flow Target)
* Product family: virtexuplus
* Target device:  xcvu9p-flgb2104-2-i


================================================================
== Performance Estimates
================================================================
+ Timing: 
    * Summary: 
    +--------+---------+----------+------------+
    |  Clock |  Target | Estimated| Uncertainty|
    +--------+---------+----------+------------+
    |ap_clk  |  2.50 ns|  0.913 ns|     0.68 ns|
    +--------+---------+----------+------------+

+ Latency: 
    * Summary: 
    +---------+---------+----------+----------+-----+-----+---------+
    |  Latency (cycles) |  Latency (absolute) |  Interval | Pipeline|
    |   min   |   max   |    min   |    max   | min | max |   Type  |
    +---------+---------+----------+----------+-----+-----+---------+
    |        1|        1|  2.500 ns|  2.500 ns|    1|    1|      yes|
    +---------+---------+----------+----------+-----+-----+---------+

    + Detail: 
        * Instance: 
        N/A

        * Loop: 
        N/A



================================================================
== Utilization Estimates
================================================================
* Summary: 
+---------------------+---------+------+---------+---------+-----+
|         Name        | BRAM_18K|  DSP |    FF   |   LUT   | URAM|
+---------------------+---------+------+---------+---------+-----+
|DSP                  |        -|     -|        -|        -|    -|
|Expression           |        -|     -|        0|       10|    -|
|FIFO                 |        -|     -|        -|        -|    -|
|Instance             |        -|     -|        -|        -|    -|
|Memory               |        -|     -|        -|        -|    -|
|Multiplexer          |        -|     -|        -|       36|    -|
|Register             |        -|     -|       28|        -|    -|
+---------------------+---------+------+---------+---------+-----+
|Total                |        0|     0|       28|       46|    0|
+---------------------+---------+------+---------+---------+-----+
|Available SLR        |     1440|  2280|   788160|   394080|  320|
+---------------------+---------+------+---------+---------+-----+
|Utilization SLR (%)  |        0|     0|       ~0|       ~0|    0|
+---------------------+---------+------+---------+---------+-----+
|Available            |     4320|  6840|  2364480|  1182240|  960|
+---------------------+---------+------+---------+---------+-----+
|Utilization (%)      |        0|     0|       ~0|       ~0|    0|
+---------------------+---------+------+---------+---------+-----+

+ Detail: 
    * Instance: 
    N/A

    * DSP: 
    N/A

    * Memory: 
    N/A

    * FIFO: 
    N/A

    * Expression: 
    +----------------------------------+----------+----+---+----+------------+------------+
    |           Variable Name          | Operation| DSP| FF| LUT| Bitwidth P0| Bitwidth P1|
    +----------------------------------+----------+----+---+----+------------+------------+
    |ap_block_state2_pp0_stage0_iter1  |       and|   0|  0|   2|           1|           1|
    |tmp_nbreadreq_fu_52_p3            |       and|   0|  0|   2|           1|           0|
    |ap_block_pp0_stage0_01001         |        or|   0|  0|   2|           1|           1|
    |ap_block_state1_pp0_stage0_iter0  |        or|   0|  0|   2|           1|           1|
    |ap_enable_pp0                     |       xor|   0|  0|   2|           1|           2|
    +----------------------------------+----------+----+---+----+------------+------------+
    |Total                             |          |   0|  0|  10|           5|           5|
    +----------------------------------+----------+----+---+----+------------+------------+

    * Multiplexer: 
    +-------------------------+----+-----------+-----+-----------+
    |           Name          | LUT| Input Size| Bits| Total Bits|
    +-------------------------+----+-----------+-----+-----------+
    |ap_done                  |   9|          2|    1|          2|
    |bucketMetaFifo_10_blk_n  |   9|          2|    1|          2|
    |hashFifo_10_blk_n        |   9|          2|    1|          2|
    |real_start               |   9|          2|    1|          2|
    +-------------------------+----+-----------+-----+-----------+
    |Total                    |  36|          8|    4|          8|
    +-------------------------+----+-----------+-----+-----------+

    * Register: 
    +-------------------------+----+----+-----+-----------+
    |           Name          | FF | LUT| Bits| Const Bits|
    +-------------------------+----+----+-----+-----------+
    |ap_CS_fsm                |   1|   0|    1|          0|
    |ap_done_reg              |   1|   0|    1|          0|
    |ap_enable_reg_pp0_iter1  |   1|   0|    1|          0|
    |start_once_reg           |   1|   0|    1|          0|
    |tmp_22_reg_148           |   1|   0|    1|          0|
    |tmp_23_reg_163           |   1|   0|    1|          0|
    |tmp_reg_144              |   1|   0|    1|          0|
    |trunc_ln174_reg_158      |   5|   0|    5|          0|
    |trunc_ln_reg_153         |  16|   0|   16|          0|
    +-------------------------+----+----+-----+-----------+
    |Total                    |  28|   0|   28|          0|
    +-------------------------+----+----+-----+-----------+



================================================================
== Interface
================================================================
* Summary: 
+--------------------------+-----+-----+------------+----------------------+--------------+
|         RTL Ports        | Dir | Bits|  Protocol  |     Source Object    |    C Type    |
+--------------------------+-----+-----+------------+----------------------+--------------+
|ap_clk                    |   in|    1|  ap_ctrl_hs|  bz_detector<1, 32>57|  return value|
|ap_rst                    |   in|    1|  ap_ctrl_hs|  bz_detector<1, 32>57|  return value|
|ap_start                  |   in|    1|  ap_ctrl_hs|  bz_detector<1, 32>57|  return value|
|start_full_n              |   in|    1|  ap_ctrl_hs|  bz_detector<1, 32>57|  return value|
|ap_done                   |  out|    1|  ap_ctrl_hs|  bz_detector<1, 32>57|  return value|
|ap_continue               |   in|    1|  ap_ctrl_hs|  bz_detector<1, 32>57|  return value|
|ap_idle                   |  out|    1|  ap_ctrl_hs|  bz_detector<1, 32>57|  return value|
|ap_ready                  |  out|    1|  ap_ctrl_hs|  bz_detector<1, 32>57|  return value|
|start_out                 |  out|    1|  ap_ctrl_hs|  bz_detector<1, 32>57|  return value|
|start_write               |  out|    1|  ap_ctrl_hs|  bz_detector<1, 32>57|  return value|
|hashFifo_10_dout          |   in|   64|     ap_fifo|           hashFifo_10|       pointer|
|hashFifo_10_empty_n       |   in|    1|     ap_fifo|           hashFifo_10|       pointer|
|hashFifo_10_read          |  out|    1|     ap_fifo|           hashFifo_10|       pointer|
|bucketMetaFifo_10_din     |  out|   48|     ap_fifo|     bucketMetaFifo_10|       pointer|
|bucketMetaFifo_10_full_n  |   in|    1|     ap_fifo|     bucketMetaFifo_10|       pointer|
|bucketMetaFifo_10_write   |  out|    1|     ap_fifo|     bucketMetaFifo_10|       pointer|
+--------------------------+-----+-----+------------+----------------------+--------------+

