

================================================================
== Vitis HLS Report for 'fill_bucket_1_7_s'
================================================================
* Date:           Wed May  4 23:48:34 2022

* Version:        2020.2 (Build 3064766 on Wed Nov 18 09:12:47 MST 2020)
* Project:        betterloglog_prj
* Solution:       solution1 (Vitis Kernel Flow Target)
* Product family: virtexuplus
* Target device:  xcvu9p-flgb2104-2-i


================================================================
== Performance Estimates
================================================================
+ Timing: 
    * Summary: 
    +--------+---------+----------+------------+
    |  Clock |  Target | Estimated| Uncertainty|
    +--------+---------+----------+------------+
    |ap_clk  |  2.50 ns|  1.987 ns|     0.68 ns|
    +--------+---------+----------+------------+

+ Latency: 
    * Summary: 
    +---------+---------+-----------+-----------+-----+-----+---------+
    |  Latency (cycles) |   Latency (absolute)  |  Interval | Pipeline|
    |   min   |   max   |    min    |    max    | min | max |   Type  |
    +---------+---------+-----------+-----------+-----+-----+---------+
    |        5|        5|  12.500 ns|  12.500 ns|    1|    1|      yes|
    +---------+---------+-----------+-----------+-----+-----+---------+

    + Detail: 
        * Instance: 
        N/A

        * Loop: 
        N/A



================================================================
== Utilization Estimates
================================================================
* Summary: 
+---------------------+---------+------+---------+---------+-----+
|         Name        | BRAM_18K|  DSP |    FF   |   LUT   | URAM|
+---------------------+---------+------+---------+---------+-----+
|DSP                  |        -|     -|        -|        -|    -|
|Expression           |        -|     -|        0|      178|    -|
|FIFO                 |        -|     -|        -|        -|    -|
|Instance             |        -|     -|        -|        -|    -|
|Memory               |        4|     -|        0|        0|    -|
|Multiplexer          |        -|     -|        -|       97|    -|
|Register             |        -|     -|      755|      288|    -|
+---------------------+---------+------+---------+---------+-----+
|Total                |        4|     0|      755|      563|    0|
+---------------------+---------+------+---------+---------+-----+
|Available SLR        |     1440|  2280|   788160|   394080|  320|
+---------------------+---------+------+---------+---------+-----+
|Utilization SLR (%)  |       ~0|     0|       ~0|       ~0|    0|
+---------------------+---------+------+---------+---------+-----+
|Available            |     4320|  6840|  2364480|  1182240|  960|
+---------------------+---------+------+---------+---------+-----+
|Utilization (%)      |       ~0|     0|       ~0|       ~0|    0|
+---------------------+---------+------+---------+---------+-----+

+ Detail: 
    * Instance: 
    N/A

    * DSP: 
    N/A

    * Memory: 
    +---------------+-------------------------------+---------+---+----+-----+-------+-----+------+-------------+
    |     Memory    |             Module            | BRAM_18K| FF| LUT| URAM| Words | Bits| Banks| W*Bits*Banks|
    +---------------+-------------------------------+---------+---+----+-----+-------+-----+------+-------------+
    |buckets_V_2_U  |fill_bucket_1_0_s_buckets_V_8  |        4|  0|   0|    0|  65536|    5|     1|       327680|
    +---------------+-------------------------------+---------+---+----+-----+-------+-----+------+-------------+
    |Total          |                               |        4|  0|   0|    0|  65536|    5|     1|       327680|
    +---------------+-------------------------------+---------+---+----+-----+-------+-----+------+-------------+

    * FIFO: 
    N/A

    * Expression: 
    +-----------------------------------+----------+----+---+----+------------+------------+
    |           Variable Name           | Operation| DSP| FF| LUT| Bitwidth P0| Bitwidth P1|
    +-----------------------------------+----------+----+---+----+------------+------------+
    |add_ln691_fu_279_p2                |         +|   0|  0|  24|          17|           1|
    |rank_V_fu_302_p2                   |         +|   0|  0|  12|           5|           1|
    |and_ln870_5_fu_348_p2              |       and|   0|  0|   2|           1|           1|
    |and_ln870_6_fu_359_p2              |       and|   0|  0|   2|           1|           1|
    |and_ln870_fu_338_p2                |       and|   0|  0|   2|           1|           1|
    |ap_block_pp0                       |       and|   0|  0|   2|           1|           1|
    |ap_block_state2_pp0_stage0_iter1   |       and|   0|  0|   2|           1|           1|
    |ap_block_state5_pp0_stage0_iter4   |       and|   0|  0|   2|           1|           1|
    |ap_condition_298                   |       and|   0|  0|   2|           1|           1|
    |ap_condition_311                   |       and|   0|  0|   2|           1|           1|
    |ap_enable_state3_pp0_iter2_stage0  |       and|   0|  0|   2|           1|           1|
    |ap_enable_state4_pp0_iter3_stage0  |       and|   0|  0|   2|           1|           1|
    |ap_enable_state6_pp0_iter5_stage0  |       and|   0|  0|   2|           1|           1|
    |ap_predicate_op18_read_state2      |       and|   0|  0|   2|           1|           1|
    |ap_predicate_op54_load_state4      |       and|   0|  0|   2|           1|           1|
    |tmp_i_nbreadreq_fu_78_p3           |       and|   0|  0|   2|           1|           0|
    |icmp_ln870_10_fu_218_p2            |      icmp|   0|  0|  13|          16|          16|
    |icmp_ln870_11_fu_224_p2            |      icmp|   0|  0|  13|          16|          16|
    |icmp_ln870_12_fu_234_p2            |      icmp|   0|  0|  13|          16|          16|
    |icmp_ln870_9_fu_204_p2             |      icmp|   0|  0|  13|          16|          16|
    |icmp_ln870_fu_286_p2               |      icmp|   0|  0|  13|          17|          18|
    |icmp_ln886_fu_430_p2               |      icmp|   0|  0|   9|           5|           5|
    |ap_block_pp0_stage0_01001          |        or|   0|  0|   2|           1|           1|
    |or_ln870_10_fu_372_p2              |        or|   0|  0|   2|           1|           1|
    |or_ln870_11_fu_385_p2              |        or|   0|  0|   2|           1|           1|
    |or_ln870_12_fu_398_p2              |        or|   0|  0|   2|           1|           1|
    |or_ln870_9_fu_327_p2               |        or|   0|  0|   2|           1|           1|
    |or_ln870_fu_323_p2                 |        or|   0|  0|   2|           1|           1|
    |current_rank_V_15_fu_404_p3        |    select|   0|  0|   5|           1|           5|
    |select_ln870_7_fu_378_p3           |    select|   0|  0|   5|           1|           5|
    |select_ln870_8_fu_390_p3           |    select|   0|  0|   5|           1|           5|
    |select_ln870_fu_364_p3             |    select|   0|  0|   5|           1|           5|
    |ap_enable_pp0                      |       xor|   0|  0|   2|           1|           2|
    |xor_ln870_5_fu_343_p2              |       xor|   0|  0|   2|           1|           2|
    |xor_ln870_6_fu_353_p2              |       xor|   0|  0|   2|           1|           2|
    |xor_ln870_fu_332_p2                |       xor|   0|  0|   2|           1|           2|
    +-----------------------------------+----------+----+---+----+------------+------------+
    |Total                              |          |   0|  0| 178|         136|         136|
    +-----------------------------------+----------+----+---+----+------------+------------+

    * Multiplexer: 
    +-------------------------------------------+----+-----------+-----+-----------+
    |                    Name                   | LUT| Input Size| Bits| Total Bits|
    +-------------------------------------------+----+-----------+-----+-----------+
    |ap_done                                    |   9|          2|    1|          2|
    |ap_phi_mux_i_V_22_flag_0_i_phi_fu_127_p10  |  14|          3|    1|          3|
    |ap_phi_mux_i_V_22_new_0_i_phi_fu_147_p10   |  14|          3|   17|         51|
    |bucketMetaFifo_2_blk_n                     |   9|          2|    1|          2|
    |bucket_fifo_V_V_7_blk_n                    |   9|          2|    1|          2|
    |buckets_V_2_address0                       |  14|          3|   16|         48|
    |buckets_V_2_address1                       |  14|          3|   16|         48|
    |buckets_V_2_d0                             |  14|          3|    5|         15|
    +-------------------------------------------+----+-----------+-----+-----------+
    |Total                                      |  97|         21|   58|        171|
    +-------------------------------------------+----+-----------+-----+-----------+

    * Register: 
    +-----------------------------------+----+----+-----+-----------+
    |                Name               | FF | LUT| Bits| Const Bits|
    +-----------------------------------+----+----+-----+-----------+
    |ap_CS_fsm                          |   1|   0|    1|          0|
    |ap_done_reg                        |   1|   0|    1|          0|
    |ap_enable_reg_pp0_iter1            |   1|   0|    1|          0|
    |ap_enable_reg_pp0_iter2            |   1|   0|    1|          0|
    |ap_enable_reg_pp0_iter3            |   1|   0|    1|          0|
    |ap_enable_reg_pp0_iter4            |   1|   0|    1|          0|
    |ap_enable_reg_pp0_iter5            |   1|   0|    1|          0|
    |buckets_V_2_addr_1_reg_497         |  16|   0|   16|          0|
    |buckets_V_2_addr_reg_488           |  16|   0|   16|          0|
    |i_V_2                              |  17|   0|   17|          0|
    |icmp_ln870_10_reg_471              |   1|   0|    1|          0|
    |icmp_ln870_11_reg_477              |   1|   0|    1|          0|
    |icmp_ln870_12_reg_483              |   1|   0|    1|          0|
    |icmp_ln870_9_reg_463               |   1|   0|    1|          0|
    |icmp_ln886_reg_508                 |   1|   0|    1|          0|
    |prev_bucketNum_V_2                 |  16|   0|   16|          0|
    |prev_prev_bucketNum_V_2            |  16|   0|   16|          0|
    |prev_prev_prev_bucketNum_V_2       |  16|   0|   16|          0|
    |prev_prev_prev_prev_bucketNum_V_2  |  16|   0|   16|          0|
    |prev_prev_prev_prev_rank_V_2       |   5|   0|    5|          0|
    |prev_prev_prev_rank_V_2            |   5|   0|    5|          0|
    |prev_prev_rank_V_2                 |   5|   0|    5|          0|
    |prev_rank_V_2                      |   5|   0|    5|          0|
    |rank_V_reg_503                     |   5|   0|    5|          0|
    |reg_169                            |   5|   0|    5|          0|
    |state_2                            |   1|   0|    1|          0|
    |state_2_load_reg_442               |   1|   0|    1|          0|
    |tmp_bucketNum_V_reg_450            |  16|   0|   16|          0|
    |tmp_i_reg_446                      |   1|   0|    1|          0|
    |tmp_numZeros_V_reg_455             |   5|   0|    5|          0|
    |buckets_V_2_addr_1_reg_497         |  64|  32|   16|          0|
    |buckets_V_2_addr_reg_488           |  64|  32|   16|          0|
    |icmp_ln870_10_reg_471              |  64|  32|    1|          0|
    |icmp_ln870_11_reg_477              |  64|  32|    1|          0|
    |icmp_ln870_12_reg_483              |  64|  32|    1|          0|
    |icmp_ln870_9_reg_463               |  64|  32|    1|          0|
    |state_2_load_reg_442               |  64|  32|    1|          0|
    |tmp_i_reg_446                      |  64|  32|    1|          0|
    |tmp_numZeros_V_reg_455             |  64|  32|    5|          0|
    +-----------------------------------+----+----+-----+-----------+
    |Total                              | 755| 288|  222|          0|
    +-----------------------------------+----+----+-----+-----------+



================================================================
== Interface
================================================================
* Summary: 
+--------------------------+-----+-----+------------+-------------------+--------------+
|         RTL Ports        | Dir | Bits|  Protocol  |   Source Object   |    C Type    |
+--------------------------+-----+-----+------------+-------------------+--------------+
|ap_clk                    |   in|    1|  ap_ctrl_hs|  fill_bucket<1, 7>|  return value|
|ap_rst                    |   in|    1|  ap_ctrl_hs|  fill_bucket<1, 7>|  return value|
|ap_start                  |   in|    1|  ap_ctrl_hs|  fill_bucket<1, 7>|  return value|
|ap_done                   |  out|    1|  ap_ctrl_hs|  fill_bucket<1, 7>|  return value|
|ap_continue               |   in|    1|  ap_ctrl_hs|  fill_bucket<1, 7>|  return value|
|ap_idle                   |  out|    1|  ap_ctrl_hs|  fill_bucket<1, 7>|  return value|
|ap_ready                  |  out|    1|  ap_ctrl_hs|  fill_bucket<1, 7>|  return value|
|bucketMetaFifo_2_dout     |   in|   48|     ap_fifo|   bucketMetaFifo_2|       pointer|
|bucketMetaFifo_2_empty_n  |   in|    1|     ap_fifo|   bucketMetaFifo_2|       pointer|
|bucketMetaFifo_2_read     |  out|    1|     ap_fifo|   bucketMetaFifo_2|       pointer|
|bucket_fifo_V_V_7_din     |  out|    5|     ap_fifo|  bucket_fifo_V_V_7|       pointer|
|bucket_fifo_V_V_7_full_n  |   in|    1|     ap_fifo|  bucket_fifo_V_V_7|       pointer|
|bucket_fifo_V_V_7_write   |  out|    1|     ap_fifo|  bucket_fifo_V_V_7|       pointer|
+--------------------------+-----+-----+------------+-------------------+--------------+

