

================================================================
== Vitis HLS Report for 'murmur3_1_64'
================================================================
* Date:           Wed May  4 23:48:38 2022

* Version:        2020.2 (Build 3064766 on Wed Nov 18 09:12:47 MST 2020)
* Project:        betterloglog_prj
* Solution:       solution1 (Vitis Kernel Flow Target)
* Product family: virtexuplus
* Target device:  xcvu9p-flgb2104-2-i


================================================================
== Performance Estimates
================================================================
+ Timing: 
    * Summary: 
    +--------+---------+----------+------------+
    |  Clock |  Target | Estimated| Uncertainty|
    +--------+---------+----------+------------+
    |ap_clk  |  2.50 ns|  1.809 ns|     0.68 ns|
    +--------+---------+----------+------------+

+ Latency: 
    * Summary: 
    +---------+---------+-----------+-----------+-----+-----+---------+
    |  Latency (cycles) |   Latency (absolute)  |  Interval | Pipeline|
    |   min   |   max   |    min    |    max    | min | max |   Type  |
    +---------+---------+-----------+-----------+-----+-----+---------+
    |       22|       22|  55.000 ns|  55.000 ns|    1|    1|      yes|
    +---------+---------+-----------+-----------+-----+-----+---------+

    + Detail: 
        * Instance: 
        N/A

        * Loop: 
        N/A



================================================================
== Utilization Estimates
================================================================
* Summary: 
+---------------------+---------+------+---------+---------+-----+
|         Name        | BRAM_18K|  DSP |    FF   |   LUT   | URAM|
+---------------------+---------+------+---------+---------+-----+
|DSP                  |        -|     -|        -|        -|    -|
|Expression           |        -|     -|        0|      234|    -|
|FIFO                 |        -|     -|        -|        -|    -|
|Instance             |        -|     0|     1290|        6|    -|
|Memory               |        -|     -|        -|        -|    -|
|Multiplexer          |        -|     -|        -|       54|    -|
|Register             |        -|     -|      412|       96|    -|
+---------------------+---------+------+---------+---------+-----+
|Total                |        0|     0|     1702|      390|    0|
+---------------------+---------+------+---------+---------+-----+
|Available SLR        |     1440|  2280|   788160|   394080|  320|
+---------------------+---------+------+---------+---------+-----+
|Utilization SLR (%)  |        0|     0|       ~0|       ~0|    0|
+---------------------+---------+------+---------+---------+-----+
|Available            |     4320|  6840|  2364480|  1182240|  960|
+---------------------+---------+------+---------+---------+-----+
|Utilization (%)      |        0|     0|       ~0|       ~0|    0|
+---------------------+---------+------+---------+---------+-----+

+ Detail: 
    * Instance: 
    +--------------------------+---------------------+---------+----+-----+----+-----+
    |         Instance         |        Module       | BRAM_18K| DSP|  FF | LUT| URAM|
    +--------------------------+---------------------+---------+----+-----+----+-----+
    |mul_32s_30ns_32_5_1_U202  |mul_32s_30ns_32_5_1  |        0|   0|  215|   1|    0|
    |mul_32s_30ns_32_5_1_U203  |mul_32s_30ns_32_5_1  |        0|   0|  215|   1|    0|
    |mul_32s_30s_32_5_1_U204   |mul_32s_30s_32_5_1   |        0|   0|  215|   1|    0|
    |mul_32s_31s_32_5_1_U201   |mul_32s_31s_32_5_1   |        0|   0|  215|   1|    0|
    |mul_32s_31s_32_5_1_U206   |mul_32s_31s_32_5_1   |        0|   0|  215|   1|    0|
    |mul_32s_32s_32_5_1_U205   |mul_32s_32s_32_5_1   |        0|   0|  215|   1|    0|
    +--------------------------+---------------------+---------+----+-----+----+-----+
    |Total                     |                     |        0|   0| 1290|   6|    0|
    +--------------------------+---------------------+---------+----+-----+----+-----+

    * DSP: 
    N/A

    * Memory: 
    N/A

    * FIFO: 
    N/A

    * Expression: 
    +------------------------------------+----------+----+---+----+------------+------------+
    |            Variable Name           | Operation| DSP| FF| LUT| Bitwidth P0| Bitwidth P1|
    +------------------------------------+----------+----+---+----+------------+------------+
    |add_ln213_fu_207_p2                 |         +|   0|  0|  32|          32|          30|
    |h1_V_36_fu_213_p2                   |         +|   0|  0|  32|          32|          32|
    |ap_block_state23_pp0_stage0_iter22  |       and|   0|  0|   2|           1|           1|
    |io_acc_block_signal_op31            |       and|   0|  0|   2|           1|           1|
    |ap_block_pp0_stage0_01001           |        or|   0|  0|   2|           1|           1|
    |ap_block_state1_pp0_stage0_iter0    |        or|   0|  0|   2|           1|           1|
    |ap_enable_pp0                       |       xor|   0|  0|   2|           1|           2|
    |h1_V_37_fu_219_p2                   |       xor|   0|  0|  32|          32|           3|
    |h1_V_38_fu_239_p2                   |       xor|   0|  0|  32|          32|          32|
    |h1_V_40_fu_264_p2                   |       xor|   0|  0|  32|          32|          32|
    |h1_V_42_fu_289_p2                   |       xor|   0|  0|  32|          32|          32|
    |ret_6_fu_195_p2                     |       xor|   0|  0|  32|          32|          19|
    +------------------------------------+----------+----+---+----+------------+------------+
    |Total                               |          |   0|  0| 234|         229|         186|
    +------------------------------------+----------+----+---+----+------------+------------+

    * Multiplexer: 
    +-----------------------------+----+-----------+-----+-----------+
    |             Name            | LUT| Input Size| Bits| Total Bits|
    +-----------------------------+----+-----------+-----+-----------+
    |ap_done                      |   9|          2|    1|          2|
    |dataFifo_V_data_V_10_blk_n   |   9|          2|    1|          2|
    |dataFifo_V_last_V_10_blk_n   |   9|          2|    1|          2|
    |dataFifo_V_valid_V_10_blk_n  |   9|          2|    1|          2|
    |hashFifo_7_blk_n             |   9|          2|    1|          2|
    |real_start                   |   9|          2|    1|          2|
    +-----------------------------+----+-----------+-----+-----------+
    |Total                        |  54|         12|    6|         12|
    +-----------------------------+----+-----------+-----+-----------+

    * Register: 
    +--------------------------+----+----+-----+-----------+
    |           Name           | FF | LUT| Bits| Const Bits|
    +--------------------------+----+----+-----+-----------+
    |ap_CS_fsm                 |   1|   0|    1|          0|
    |ap_done_reg               |   1|   0|    1|          0|
    |ap_enable_reg_pp0_iter1   |   1|   0|    1|          0|
    |ap_enable_reg_pp0_iter10  |   1|   0|    1|          0|
    |ap_enable_reg_pp0_iter11  |   1|   0|    1|          0|
    |ap_enable_reg_pp0_iter12  |   1|   0|    1|          0|
    |ap_enable_reg_pp0_iter13  |   1|   0|    1|          0|
    |ap_enable_reg_pp0_iter14  |   1|   0|    1|          0|
    |ap_enable_reg_pp0_iter15  |   1|   0|    1|          0|
    |ap_enable_reg_pp0_iter16  |   1|   0|    1|          0|
    |ap_enable_reg_pp0_iter17  |   1|   0|    1|          0|
    |ap_enable_reg_pp0_iter18  |   1|   0|    1|          0|
    |ap_enable_reg_pp0_iter19  |   1|   0|    1|          0|
    |ap_enable_reg_pp0_iter2   |   1|   0|    1|          0|
    |ap_enable_reg_pp0_iter20  |   1|   0|    1|          0|
    |ap_enable_reg_pp0_iter21  |   1|   0|    1|          0|
    |ap_enable_reg_pp0_iter22  |   1|   0|    1|          0|
    |ap_enable_reg_pp0_iter3   |   1|   0|    1|          0|
    |ap_enable_reg_pp0_iter4   |   1|   0|    1|          0|
    |ap_enable_reg_pp0_iter5   |   1|   0|    1|          0|
    |ap_enable_reg_pp0_iter6   |   1|   0|    1|          0|
    |ap_enable_reg_pp0_iter7   |   1|   0|    1|          0|
    |ap_enable_reg_pp0_iter8   |   1|   0|    1|          0|
    |ap_enable_reg_pp0_iter9   |   1|   0|    1|          0|
    |h1_V_38_reg_355           |  32|   0|   32|          0|
    |h1_V_40_reg_360           |  32|   0|   32|          0|
    |h1_V_42_reg_365           |  32|   0|   32|          0|
    |p_1_i_reg_319             |   1|   0|    1|          0|
    |p_2_i_reg_324             |   1|   0|    1|          0|
    |r_4_reg_345               |  13|   0|   13|          0|
    |r_s_reg_329               |  15|   0|   15|          0|
    |start_once_reg            |   1|   0|    1|          0|
    |tmp_4_reg_350             |  19|   0|   19|          0|
    |tmp_data_V_reg_313        |  32|   0|   32|          0|
    |tmp_i_reg_309             |   1|   0|    1|          0|
    |tmp_s_reg_334             |  17|   0|   17|          0|
    |p_1_i_reg_319             |  64|  32|    1|          0|
    |p_2_i_reg_324             |  64|  32|    1|          0|
    |tmp_i_reg_309             |  64|  32|    1|          0|
    +--------------------------+----+----+-----+-----------+
    |Total                     | 412|  96|  223|          0|
    +--------------------------+----+----+-----+-----------+



================================================================
== Interface
================================================================
* Summary: 
+-------------------------------+-----+-----+------------+-----------------------+--------------+
|           RTL Ports           | Dir | Bits|  Protocol  |     Source Object     |    C Type    |
+-------------------------------+-----+-----+------------+-----------------------+--------------+
|ap_clk                         |   in|    1|  ap_ctrl_hs|           murmur3<1>64|  return value|
|ap_rst                         |   in|    1|  ap_ctrl_hs|           murmur3<1>64|  return value|
|ap_start                       |   in|    1|  ap_ctrl_hs|           murmur3<1>64|  return value|
|start_full_n                   |   in|    1|  ap_ctrl_hs|           murmur3<1>64|  return value|
|ap_done                        |  out|    1|  ap_ctrl_hs|           murmur3<1>64|  return value|
|ap_continue                    |   in|    1|  ap_ctrl_hs|           murmur3<1>64|  return value|
|ap_idle                        |  out|    1|  ap_ctrl_hs|           murmur3<1>64|  return value|
|ap_ready                       |  out|    1|  ap_ctrl_hs|           murmur3<1>64|  return value|
|start_out                      |  out|    1|  ap_ctrl_hs|           murmur3<1>64|  return value|
|start_write                    |  out|    1|  ap_ctrl_hs|           murmur3<1>64|  return value|
|dataFifo_V_data_V_10_dout      |   in|   32|     ap_fifo|   dataFifo_V_data_V_10|       pointer|
|dataFifo_V_data_V_10_empty_n   |   in|    1|     ap_fifo|   dataFifo_V_data_V_10|       pointer|
|dataFifo_V_data_V_10_read      |  out|    1|     ap_fifo|   dataFifo_V_data_V_10|       pointer|
|dataFifo_V_valid_V_10_dout     |   in|    1|     ap_fifo|  dataFifo_V_valid_V_10|       pointer|
|dataFifo_V_valid_V_10_empty_n  |   in|    1|     ap_fifo|  dataFifo_V_valid_V_10|       pointer|
|dataFifo_V_valid_V_10_read     |  out|    1|     ap_fifo|  dataFifo_V_valid_V_10|       pointer|
|dataFifo_V_last_V_10_dout      |   in|    1|     ap_fifo|   dataFifo_V_last_V_10|       pointer|
|dataFifo_V_last_V_10_empty_n   |   in|    1|     ap_fifo|   dataFifo_V_last_V_10|       pointer|
|dataFifo_V_last_V_10_read      |  out|    1|     ap_fifo|   dataFifo_V_last_V_10|       pointer|
|hashFifo_7_din                 |  out|   64|     ap_fifo|             hashFifo_7|       pointer|
|hashFifo_7_full_n              |   in|    1|     ap_fifo|             hashFifo_7|       pointer|
|hashFifo_7_write               |  out|    1|     ap_fifo|             hashFifo_7|       pointer|
+-------------------------------+-----+-----+------------+-----------------------+--------------+

