

================================================================
== Synthesis Summary Report of 'triangle'
================================================================
+ General Information: 
    * Date:           Fri May  6 18:16:13 2022
    * Version:        2020.2 (Build 3064766 on Wed Nov 18 09:12:47 MST 2020)
    * Project:        triangle_prj
    * Solution:       solution1 (Vitis Kernel Flow Target)
    * Product family: virtexuplus
    * Target device:  xcvu9p-flga2104-1-e
    

+ Performance & Resource Estimates: 
    
    PS: '+' for module; 'o' for loop; '*' for dataflow
    +------------------------+--------+-------+---------+--------+----------+---------+------+----------+----------+----+------------+-------------+-----+
    |         Modules        |  Issue |       | Latency | Latency| Iteration|         | Trip |          |          |    |            |             |     |
    |         & Loops        |  Type  | Slack | (cycles)|  (ns)  |  Latency | Interval| Count| Pipelined|   BRAM   | DSP|     FF     |     LUT     | URAM|
    +------------------------+--------+-------+---------+--------+----------+---------+------+----------+----------+----+------------+-------------+-----+
    |+ triangle              |  Timing|   0.00|        -|       -|         -|        -|     -|        no|  387 (8%)|   -|  9611 (~0%)|  10572 (~0%)|    -|
    | o VITIS_LOOP_21_1      |       -|  -2.92|        -|       -|         -|        -|     -|        no|         -|   -|           -|            -|    -|
    |  o VITIS_LOOP_24_2     |       -|  -2.92|        -|       -|         -|        -|     -|        no|         -|   -|           -|            -|    -|
    |   o VITIS_LOOP_37_3    |       -|  -2.92|        -|       -|         -|        -|     -|        no|         -|   -|           -|            -|    -|
    |    o VITIS_LOOP_42_4   |       -|  -2.92|        -|       -|         -|        -|     -|        no|         -|   -|           -|            -|    -|
    |     o VITIS_LOOP_53_5  |       -|  -2.92|        -|       -|         3|        1|     -|       yes|         -|   -|           -|            -|    -|
    +------------------------+--------+-------+---------+--------+----------+---------+------+----------+----------+----+------------+-------------+-----+

