

================================================================
== Vitis HLS Report for 'bz_detector_1_32_73'
================================================================
* Date:           Wed May  4 23:47:56 2022

* Version:        2020.2 (Build 3064766 on Wed Nov 18 09:12:47 MST 2020)
* Project:        betterloglog_prj
* Solution:       solution1 (Vitis Kernel Flow Target)
* Product family: virtexuplus
* Target device:  xcvu9p-flgb2104-2-i


================================================================
== Performance Estimates
================================================================
+ Timing: 
    * Summary: 
    +--------+---------+----------+------------+
    |  Clock |  Target | Estimated| Uncertainty|
    +--------+---------+----------+------------+
    |ap_clk  |  2.50 ns|  0.913 ns|     0.68 ns|
    +--------+---------+----------+------------+

+ Latency: 
    * Summary: 
    +---------+---------+----------+----------+-----+-----+---------+
    |  Latency (cycles) |  Latency (absolute) |  Interval | Pipeline|
    |   min   |   max   |    min   |    max   | min | max |   Type  |
    +---------+---------+----------+----------+-----+-----+---------+
    |        1|        1|  2.500 ns|  2.500 ns|    1|    1|      yes|
    +---------+---------+----------+----------+-----+-----+---------+

    + Detail: 
        * Instance: 
        N/A

        * Loop: 
        N/A

============================================================
+ Verbose Summary: Synthesis Manager
============================================================
InlineROM: 1
ExposeGlobal: 0
============================================================
+ Verbose Summary: CDFG Model
============================================================
IsTopModel: 0
ResetActiveHigh: 1
IsCombinational: 2
IsDatapathOnly: 0
HasWiredReturn: 1
HasMFsm: 2
HasVarLatency: 0
IsPipeline: 1
IsRtlPipelined: 1
IsInstanceOverlapped: 0
IsDontTouch: 0
HasImplIP: 0
IsGatedGlobalClock: 0

+ Individual pipeline summary: 
  * Pipeline-0: initiation interval (II) = 1, depth = 2


============================================================
+ Verbose Summary: Schedule
============================================================
* Number of FSM states : 2
* Pipeline : 1
  Pipeline-0 : II = 1, D = 2, States = { 1 2 }
* Dataflow Pipeline: 0

* FSM state transitions: 
1 --> 2 
2 --> 

* FSM state operations: 

State 1 <SV = 0> <Delay = 0.91>
ST_1 : Operation 3 [1/1] (0.00ns)   --->   "%specinterface_ln0 = specinterface void @_ssdm_op_SpecInterface, i48 %bucketMetaFifo_3, void @empty_4, i32 0, i32 0, void @empty_2, i32 0, i32 0, void @empty_2, void @empty_2, void @empty_2, i32 0, i32 0, i32 0, i32 0, void @empty_2, void @empty_2"   --->   Operation 3 'specinterface' 'specinterface_ln0' <Predicate = true> <Delay = 0.00>
ST_1 : Operation 4 [1/1] (0.00ns)   --->   "%specinterface_ln0 = specinterface void @_ssdm_op_SpecInterface, i64 %hashFifo_3, void @empty_4, i32 0, i32 0, void @empty_2, i32 0, i32 0, void @empty_2, void @empty_2, void @empty_2, i32 0, i32 0, i32 0, i32 0, void @empty_2, void @empty_2"   --->   Operation 4 'specinterface' 'specinterface_ln0' <Predicate = true> <Delay = 0.00>
ST_1 : Operation 5 [1/1] (0.00ns)   --->   "%specpipeline_ln34 = specpipeline void @_ssdm_op_SpecPipeline, i32 1, i32 0, i32 0, i32 0, void @empty_2" [betterloglog/src/bucket_num_zero_detector.hpp:34]   --->   Operation 5 'specpipeline' 'specpipeline_ln34' <Predicate = true> <Delay = 0.00>
ST_1 : Operation 6 [1/1] (0.00ns)   --->   "%tmp = nbreadreq i1 @_ssdm_op_NbReadReq.ap_fifo.i64P0A, i64 %hashFifo_3, i32 1" [/opt/Xilinx/Vitis_HLS/2020.2/common/technology/autopilot/hls_stream_39.h:136]   --->   Operation 6 'nbreadreq' 'tmp' <Predicate = true> <Delay = 0.00> <CoreInst = "FIFO">   --->   Core 78 'FIFO' <Latency = 0> <II = 1> <Delay = 1.19> <Storage> <Opcode : 'read' 'write' 'nbread' 'nbwrite'> <Ports = 0> <Width = 64> <Depth = 256> <FIFO>
ST_1 : Operation 7 [1/1] (0.00ns)   --->   "%br_ln41 = br i1 %tmp, void %._crit_edge, void" [betterloglog/src/bucket_num_zero_detector.hpp:41]   --->   Operation 7 'br' 'br_ln41' <Predicate = true> <Delay = 0.00>
ST_1 : Operation 8 [1/1] (0.91ns)   --->   "%hashFifo_3_read = read i64 @_ssdm_op_Read.ap_fifo.volatile.i64P0A, i64 %hashFifo_3" [/opt/Xilinx/Vitis_HLS/2020.2/common/technology/autopilot/hls_stream_39.h:145]   --->   Operation 8 'read' 'hashFifo_3_read' <Predicate = (tmp)> <Delay = 0.91> <CoreInst = "FIFO">   --->   Core 78 'FIFO' <Latency = 0> <II = 1> <Delay = 1.19> <Storage> <Opcode : 'read' 'write' 'nbread' 'nbwrite'> <Ports = 0> <Width = 64> <Depth = 256> <FIFO>
ST_1 : Operation 9 [1/1] (0.00ns)   --->   "%tmp_6 = bitselect i1 @_ssdm_op_BitSelect.i1.i64.i32, i64 %hashFifo_3_read, i32 40" [/opt/Xilinx/Vitis_HLS/2020.2/common/technology/autopilot/hls_stream_39.h:145]   --->   Operation 9 'bitselect' 'tmp_6' <Predicate = (tmp)> <Delay = 0.00>
ST_1 : Operation 10 [1/1] (0.00ns)   --->   "%trunc_ln = partselect i16 @_ssdm_op_PartSelect.i16.i64.i32.i32, i64 %hashFifo_3_read, i32 16, i32 31"   --->   Operation 10 'partselect' 'trunc_ln' <Predicate = (tmp)> <Delay = 0.00>
ST_1 : Operation 11 [1/1] (0.00ns)   --->   "%p_Result_s = partselect i16 @_ssdm_op_PartSelect.i16.i64.i32.i32, i64 %hashFifo_3_read, i32 15, i32 0"   --->   Operation 11 'partselect' 'p_Result_s' <Predicate = (tmp)> <Delay = 0.00>
ST_1 : Operation 12 [1/1] (0.00ns)   --->   "%p_Result_2 = bitconcatenate i32 @_ssdm_op_BitConcatenate.i32.i16.i16, i16 65535, i16 %p_Result_s"   --->   Operation 12 'bitconcatenate' 'p_Result_2' <Predicate = (tmp)> <Delay = 0.00>
ST_1 : Operation 13 [1/1] (0.00ns)   --->   "%op_assign = cttz i32 @llvm.cttz.i32, i32 %p_Result_2, i1 1"   --->   Operation 13 'cttz' 'op_assign' <Predicate = (tmp)> <Delay = 0.00>
ST_1 : Operation 14 [1/1] (0.00ns)   --->   "%trunc_ln174 = trunc i32 %op_assign" [/opt/Xilinx/Vitis_HLS/2020.2/common/technology/autopilot/hls_stream_39.h:174]   --->   Operation 14 'trunc' 'trunc_ln174' <Predicate = (tmp)> <Delay = 0.00>
ST_1 : Operation 15 [1/1] (0.00ns)   --->   "%tmp_7 = bitselect i1 @_ssdm_op_BitSelect.i1.i64.i32, i64 %hashFifo_3_read, i32 32" [/opt/Xilinx/Vitis_HLS/2020.2/common/technology/autopilot/hls_stream_39.h:174]   --->   Operation 15 'bitselect' 'tmp_7' <Predicate = (tmp)> <Delay = 0.00>

State 2 <SV = 1> <Delay = 0.91>
ST_2 : Operation 16 [1/1] (0.00ns)   --->   "%p_0 = bitconcatenate i48 @_ssdm_op_BitConcatenate.i48.i15.i1.i7.i1.i3.i5.i16, i15 0, i1 %tmp_6, i7 0, i1 %tmp_7, i3 0, i5 %trunc_ln174, i16 %trunc_ln" [/opt/Xilinx/Vitis_HLS/2020.2/common/technology/autopilot/hls_stream_39.h:174]   --->   Operation 16 'bitconcatenate' 'p_0' <Predicate = (tmp)> <Delay = 0.00>
ST_2 : Operation 17 [1/1] (0.91ns)   --->   "%write_ln174 = write void @_ssdm_op_Write.ap_fifo.volatile.i48P0A, i48 %bucketMetaFifo_3, i48 %p_0" [/opt/Xilinx/Vitis_HLS/2020.2/common/technology/autopilot/hls_stream_39.h:174]   --->   Operation 17 'write' 'write_ln174' <Predicate = (tmp)> <Delay = 0.91> <CoreInst = "FIFO">   --->   Core 78 'FIFO' <Latency = 0> <II = 1> <Delay = 1.19> <Storage> <Opcode : 'read' 'write' 'nbread' 'nbwrite'> <Ports = 0> <Width = 48> <Depth = 256> <FIFO>
ST_2 : Operation 18 [1/1] (0.00ns)   --->   "%br_ln49 = br void %._crit_edge" [betterloglog/src/bucket_num_zero_detector.hpp:49]   --->   Operation 18 'br' 'br_ln49' <Predicate = (tmp)> <Delay = 0.00>
ST_2 : Operation 19 [1/1] (0.00ns)   --->   "%ret_ln50 = ret" [betterloglog/src/bucket_num_zero_detector.hpp:50]   --->   Operation 19 'ret' 'ret_ln50' <Predicate = true> <Delay = 0.00>


============================================================
+ Verbose Summary: Timing violations
============================================================
Target clock period: 2.5ns, clock uncertainty: 0.675ns.

 <State 1>: 0.913ns
The critical path consists of the following:
	fifo read on port 'hashFifo_3' (/opt/Xilinx/Vitis_HLS/2020.2/common/technology/autopilot/hls_stream_39.h:145) [11]  (0.913 ns)

 <State 2>: 0.913ns
The critical path consists of the following:
	fifo write on port 'bucketMetaFifo_3' (/opt/Xilinx/Vitis_HLS/2020.2/common/technology/autopilot/hls_stream_39.h:174) [20]  (0.913 ns)


============================================================
+ Verbose Summary: Binding
============================================================
N/A
* FSMD analyzer results:
  - Output states:
 - Input state : 
  - Chain level:
	State 1
	State 2


============================================================
+ Verbose Summary: Datapath Resource usage 
============================================================
N/A
