

================================================================
== Vitis HLS Report for 'fill_bucket_1_12_s'
================================================================
* Date:           Wed May  4 23:48:42 2022

* Version:        2020.2 (Build 3064766 on Wed Nov 18 09:12:47 MST 2020)
* Project:        betterloglog_prj
* Solution:       solution1 (Vitis Kernel Flow Target)
* Product family: virtexuplus
* Target device:  xcvu9p-flgb2104-2-i


================================================================
== Performance Estimates
================================================================
+ Timing: 
    * Summary: 
    +--------+---------+----------+------------+
    |  Clock |  Target | Estimated| Uncertainty|
    +--------+---------+----------+------------+
    |ap_clk  |  2.50 ns|  1.987 ns|     0.68 ns|
    +--------+---------+----------+------------+

+ Latency: 
    * Summary: 
    +---------+---------+-----------+-----------+-----+-----+---------+
    |  Latency (cycles) |   Latency (absolute)  |  Interval | Pipeline|
    |   min   |   max   |    min    |    max    | min | max |   Type  |
    +---------+---------+-----------+-----------+-----+-----+---------+
    |        5|        5|  12.500 ns|  12.500 ns|    1|    1|      yes|
    +---------+---------+-----------+-----------+-----+-----+---------+

    + Detail: 
        * Instance: 
        N/A

        * Loop: 
        N/A



================================================================
== Utilization Estimates
================================================================
* Summary: 
+---------------------+---------+------+---------+---------+-----+
|         Name        | BRAM_18K|  DSP |    FF   |   LUT   | URAM|
+---------------------+---------+------+---------+---------+-----+
|DSP                  |        -|     -|        -|        -|    -|
|Expression           |        -|     -|        0|      178|    -|
|FIFO                 |        -|     -|        -|        -|    -|
|Instance             |        -|     -|        -|        -|    -|
|Memory               |        4|     -|        0|        0|    -|
|Multiplexer          |        -|     -|        -|       97|    -|
|Register             |        -|     -|      755|      288|    -|
+---------------------+---------+------+---------+---------+-----+
|Total                |        4|     0|      755|      563|    0|
+---------------------+---------+------+---------+---------+-----+
|Available SLR        |     1440|  2280|   788160|   394080|  320|
+---------------------+---------+------+---------+---------+-----+
|Utilization SLR (%)  |       ~0|     0|       ~0|       ~0|    0|
+---------------------+---------+------+---------+---------+-----+
|Available            |     4320|  6840|  2364480|  1182240|  960|
+---------------------+---------+------+---------+---------+-----+
|Utilization (%)      |       ~0|     0|       ~0|       ~0|    0|
+---------------------+---------+------+---------+---------+-----+

+ Detail: 
    * Instance: 
    N/A

    * DSP: 
    N/A

    * Memory: 
    +---------------+-------------------------------+---------+---+----+-----+-------+-----+------+-------------+
    |     Memory    |             Module            | BRAM_18K| FF| LUT| URAM| Words | Bits| Banks| W*Bits*Banks|
    +---------------+-------------------------------+---------+---+----+-----+-------+-----+------+-------------+
    |buckets_V_5_U  |fill_bucket_1_0_s_buckets_V_8  |        4|  0|   0|    0|  65536|    5|     1|       327680|
    +---------------+-------------------------------+---------+---+----+-----+-------+-----+------+-------------+
    |Total          |                               |        4|  0|   0|    0|  65536|    5|     1|       327680|
    +---------------+-------------------------------+---------+---+----+-----+-------+-----+------+-------------+

    * FIFO: 
    N/A

    * Expression: 
    +-----------------------------------+----------+----+---+----+------------+------------+
    |           Variable Name           | Operation| DSP| FF| LUT| Bitwidth P0| Bitwidth P1|
    +-----------------------------------+----------+----+---+----+------------+------------+
    |add_ln691_fu_279_p2                |         +|   0|  0|  24|          17|           1|
    |rank_V_fu_302_p2                   |         +|   0|  0|  12|           5|           1|
    |and_ln870_25_fu_348_p2             |       and|   0|  0|   2|           1|           1|
    |and_ln870_26_fu_359_p2             |       and|   0|  0|   2|           1|           1|
    |and_ln870_fu_338_p2                |       and|   0|  0|   2|           1|           1|
    |ap_block_pp0                       |       and|   0|  0|   2|           1|           1|
    |ap_block_state2_pp0_stage0_iter1   |       and|   0|  0|   2|           1|           1|
    |ap_block_state5_pp0_stage0_iter4   |       and|   0|  0|   2|           1|           1|
    |ap_condition_298                   |       and|   0|  0|   2|           1|           1|
    |ap_condition_311                   |       and|   0|  0|   2|           1|           1|
    |ap_enable_state3_pp0_iter2_stage0  |       and|   0|  0|   2|           1|           1|
    |ap_enable_state4_pp0_iter3_stage0  |       and|   0|  0|   2|           1|           1|
    |ap_enable_state6_pp0_iter5_stage0  |       and|   0|  0|   2|           1|           1|
    |ap_predicate_op18_read_state2      |       and|   0|  0|   2|           1|           1|
    |ap_predicate_op54_load_state4      |       and|   0|  0|   2|           1|           1|
    |tmp_i_nbreadreq_fu_78_p3           |       and|   0|  0|   2|           1|           0|
    |icmp_ln870_49_fu_204_p2            |      icmp|   0|  0|  13|          16|          16|
    |icmp_ln870_50_fu_218_p2            |      icmp|   0|  0|  13|          16|          16|
    |icmp_ln870_51_fu_224_p2            |      icmp|   0|  0|  13|          16|          16|
    |icmp_ln870_52_fu_234_p2            |      icmp|   0|  0|  13|          16|          16|
    |icmp_ln870_fu_286_p2               |      icmp|   0|  0|  13|          17|          18|
    |icmp_ln886_fu_430_p2               |      icmp|   0|  0|   9|           5|           5|
    |ap_block_pp0_stage0_01001          |        or|   0|  0|   2|           1|           1|
    |or_ln870_49_fu_327_p2              |        or|   0|  0|   2|           1|           1|
    |or_ln870_50_fu_372_p2              |        or|   0|  0|   2|           1|           1|
    |or_ln870_51_fu_385_p2              |        or|   0|  0|   2|           1|           1|
    |or_ln870_52_fu_398_p2              |        or|   0|  0|   2|           1|           1|
    |or_ln870_fu_323_p2                 |        or|   0|  0|   2|           1|           1|
    |current_rank_V_65_fu_404_p3        |    select|   0|  0|   5|           1|           5|
    |select_ln870_37_fu_378_p3          |    select|   0|  0|   5|           1|           5|
    |select_ln870_38_fu_390_p3          |    select|   0|  0|   5|           1|           5|
    |select_ln870_fu_364_p3             |    select|   0|  0|   5|           1|           5|
    |ap_enable_pp0                      |       xor|   0|  0|   2|           1|           2|
    |xor_ln870_25_fu_343_p2             |       xor|   0|  0|   2|           1|           2|
    |xor_ln870_26_fu_353_p2             |       xor|   0|  0|   2|           1|           2|
    |xor_ln870_fu_332_p2                |       xor|   0|  0|   2|           1|           2|
    +-----------------------------------+----------+----+---+----+------------+------------+
    |Total                              |          |   0|  0| 178|         136|         136|
    +-----------------------------------+----------+----+---+----+------------+------------+

    * Multiplexer: 
    +-------------------------------------------+----+-----------+-----+-----------+
    |                    Name                   | LUT| Input Size| Bits| Total Bits|
    +-------------------------------------------+----+-----------+-----+-----------+
    |ap_done                                    |   9|          2|    1|          2|
    |ap_phi_mux_i_V_26_flag_0_i_phi_fu_127_p10  |  14|          3|    1|          3|
    |ap_phi_mux_i_V_26_new_0_i_phi_fu_147_p10   |  14|          3|   17|         51|
    |bucketMetaFifo_5_blk_n                     |   9|          2|    1|          2|
    |bucket_fifo_V_V_12_blk_n                   |   9|          2|    1|          2|
    |buckets_V_5_address0                       |  14|          3|   16|         48|
    |buckets_V_5_address1                       |  14|          3|   16|         48|
    |buckets_V_5_d0                             |  14|          3|    5|         15|
    +-------------------------------------------+----+-----------+-----+-----------+
    |Total                                      |  97|         21|   58|        171|
    +-------------------------------------------+----+-----------+-----+-----------+

    * Register: 
    +-----------------------------------+----+----+-----+-----------+
    |                Name               | FF | LUT| Bits| Const Bits|
    +-----------------------------------+----+----+-----+-----------+
    |ap_CS_fsm                          |   1|   0|    1|          0|
    |ap_done_reg                        |   1|   0|    1|          0|
    |ap_enable_reg_pp0_iter1            |   1|   0|    1|          0|
    |ap_enable_reg_pp0_iter2            |   1|   0|    1|          0|
    |ap_enable_reg_pp0_iter3            |   1|   0|    1|          0|
    |ap_enable_reg_pp0_iter4            |   1|   0|    1|          0|
    |ap_enable_reg_pp0_iter5            |   1|   0|    1|          0|
    |buckets_V_5_addr_1_reg_497         |  16|   0|   16|          0|
    |buckets_V_5_addr_reg_488           |  16|   0|   16|          0|
    |i_V_5                              |  17|   0|   17|          0|
    |icmp_ln870_49_reg_463              |   1|   0|    1|          0|
    |icmp_ln870_50_reg_471              |   1|   0|    1|          0|
    |icmp_ln870_51_reg_477              |   1|   0|    1|          0|
    |icmp_ln870_52_reg_483              |   1|   0|    1|          0|
    |icmp_ln886_reg_508                 |   1|   0|    1|          0|
    |prev_bucketNum_V_5                 |  16|   0|   16|          0|
    |prev_prev_bucketNum_V_5            |  16|   0|   16|          0|
    |prev_prev_prev_bucketNum_V_5       |  16|   0|   16|          0|
    |prev_prev_prev_prev_bucketNum_V_5  |  16|   0|   16|          0|
    |prev_prev_prev_prev_rank_V_5       |   5|   0|    5|          0|
    |prev_prev_prev_rank_V_5            |   5|   0|    5|          0|
    |prev_prev_rank_V_5                 |   5|   0|    5|          0|
    |prev_rank_V_5                      |   5|   0|    5|          0|
    |rank_V_reg_503                     |   5|   0|    5|          0|
    |reg_169                            |   5|   0|    5|          0|
    |state_5                            |   1|   0|    1|          0|
    |state_5_load_reg_442               |   1|   0|    1|          0|
    |tmp_bucketNum_V_reg_450            |  16|   0|   16|          0|
    |tmp_i_reg_446                      |   1|   0|    1|          0|
    |tmp_numZeros_V_reg_455             |   5|   0|    5|          0|
    |buckets_V_5_addr_1_reg_497         |  64|  32|   16|          0|
    |buckets_V_5_addr_reg_488           |  64|  32|   16|          0|
    |icmp_ln870_49_reg_463              |  64|  32|    1|          0|
    |icmp_ln870_50_reg_471              |  64|  32|    1|          0|
    |icmp_ln870_51_reg_477              |  64|  32|    1|          0|
    |icmp_ln870_52_reg_483              |  64|  32|    1|          0|
    |state_5_load_reg_442               |  64|  32|    1|          0|
    |tmp_i_reg_446                      |  64|  32|    1|          0|
    |tmp_numZeros_V_reg_455             |  64|  32|    5|          0|
    +-----------------------------------+----+----+-----+-----------+
    |Total                              | 755| 288|  222|          0|
    +-----------------------------------+----+----+-----+-----------+



================================================================
== Interface
================================================================
* Summary: 
+---------------------------+-----+-----+------------+--------------------+--------------+
|         RTL Ports         | Dir | Bits|  Protocol  |    Source Object   |    C Type    |
+---------------------------+-----+-----+------------+--------------------+--------------+
|ap_clk                     |   in|    1|  ap_ctrl_hs|  fill_bucket<1, 12>|  return value|
|ap_rst                     |   in|    1|  ap_ctrl_hs|  fill_bucket<1, 12>|  return value|
|ap_start                   |   in|    1|  ap_ctrl_hs|  fill_bucket<1, 12>|  return value|
|ap_done                    |  out|    1|  ap_ctrl_hs|  fill_bucket<1, 12>|  return value|
|ap_continue                |   in|    1|  ap_ctrl_hs|  fill_bucket<1, 12>|  return value|
|ap_idle                    |  out|    1|  ap_ctrl_hs|  fill_bucket<1, 12>|  return value|
|ap_ready                   |  out|    1|  ap_ctrl_hs|  fill_bucket<1, 12>|  return value|
|bucketMetaFifo_5_dout      |   in|   48|     ap_fifo|    bucketMetaFifo_5|       pointer|
|bucketMetaFifo_5_empty_n   |   in|    1|     ap_fifo|    bucketMetaFifo_5|       pointer|
|bucketMetaFifo_5_read      |  out|    1|     ap_fifo|    bucketMetaFifo_5|       pointer|
|bucket_fifo_V_V_12_din     |  out|    5|     ap_fifo|  bucket_fifo_V_V_12|       pointer|
|bucket_fifo_V_V_12_full_n  |   in|    1|     ap_fifo|  bucket_fifo_V_V_12|       pointer|
|bucket_fifo_V_V_12_write   |  out|    1|     ap_fifo|  bucket_fifo_V_V_12|       pointer|
+---------------------------+-----+-----+------------+--------------------+--------------+

============================================================
+ Verbose Summary: Synthesis Manager
============================================================
InlineROM: 1
ExposeGlobal: 0
============================================================
+ Verbose Summary: CDFG Model
============================================================
IsTopModel: 0
ResetActiveHigh: 1
IsCombinational: 2
IsDatapathOnly: 0
HasWiredReturn: 1
HasMFsm: 2
HasVarLatency: 0
IsPipeline: 1
IsRtlPipelined: 1
IsInstanceOverlapped: 0
IsDontTouch: 0
HasImplIP: 0
IsGatedGlobalClock: 0

+ Individual pipeline summary: 
  * Pipeline-0: initiation interval (II) = 1, depth = 6


============================================================
+ Verbose Summary: Schedule
============================================================
* Number of FSM states : 6
* Pipeline : 1
  Pipeline-0 : II = 1, D = 6, States = { 1 2 3 4 5 6 }
* Dataflow Pipeline: 0

* FSM state transitions: 
1 --> 2 
2 --> 3 
3 --> 4 
4 --> 5 
5 --> 6 
6 --> 

* FSM state operations: 

State 1 <SV = 0> <Delay = 0.00>

State 2 <SV = 1> <Delay = 1.98>
ST_2 : Operation 7 [1/1] (0.00ns)   --->   "%specinterface_ln0 = specinterface void @_ssdm_op_SpecInterface, i48 %bucketMetaFifo_5, void @empty_4, i32 0, i32 0, void @empty_2, i32 0, i32 0, void @empty_2, void @empty_2, void @empty_2, i32 0, i32 0, i32 0, i32 0, void @empty_2, void @empty_2"   --->   Operation 7 'specinterface' 'specinterface_ln0' <Predicate = true> <Delay = 0.00>
ST_2 : Operation 8 [1/1] (0.00ns)   --->   "%specinterface_ln0 = specinterface void @_ssdm_op_SpecInterface, i48 %bucketMetaFifo_5, void @empty_4, i32 0, i32 0, void @empty_2, i32 0, i32 0, void @empty_2, void @empty_2, void @empty_2, i32 0, i32 0, i32 0, i32 0, void @empty_2, void @empty_2"   --->   Operation 8 'specinterface' 'specinterface_ln0' <Predicate = true> <Delay = 0.00>
ST_2 : Operation 9 [1/1] (0.00ns)   --->   "%specinterface_ln0 = specinterface void @_ssdm_op_SpecInterface, i5 %bucket_fifo_V_V_12, void @ap_fifo_str, i32 0, i32 0, void @p_str, i32 0, i32 0, void @p_str, void @p_str, void @p_str, i32 2, i32 2, i32 16, i32 16, void @p_str, void @p_str"   --->   Operation 9 'specinterface' 'specinterface_ln0' <Predicate = true> <Delay = 0.00>
ST_2 : Operation 10 [1/1] (0.00ns)   --->   "%specinterface_ln0 = specinterface void @_ssdm_op_SpecInterface, i48 %bucketMetaFifo_5, void @empty_4, i32 0, i32 0, void @empty_2, i32 0, i32 0, void @empty_2, void @empty_2, void @empty_2, i32 0, i32 0, i32 0, i32 0, void @empty_2, void @empty_2"   --->   Operation 10 'specinterface' 'specinterface_ln0' <Predicate = true> <Delay = 0.00>
ST_2 : Operation 11 [1/1] (0.00ns)   --->   "%specpipeline_ln32 = specpipeline void @_ssdm_op_SpecPipeline, i32 1, i32 0, i32 0, i32 0, void @empty_2" [betterloglog/src/fill_bucket.hpp:32]   --->   Operation 11 'specpipeline' 'specpipeline_ln32' <Predicate = true> <Delay = 0.00>
ST_2 : Operation 12 [1/1] (0.00ns)   --->   "%state_5_load = load i1 %state_5" [betterloglog/src/fill_bucket.hpp:64]   --->   Operation 12 'load' 'state_5_load' <Predicate = true> <Delay = 0.00>
ST_2 : Operation 13 [1/1] (0.00ns)   --->   "%br_ln64 = br i1 %state_5_load, void, void" [betterloglog/src/fill_bucket.hpp:64]   --->   Operation 13 'br' 'br_ln64' <Predicate = true> <Delay = 0.00>
ST_2 : Operation 14 [1/1] (0.00ns)   --->   "%tmp_i = nbreadreq i1 @_ssdm_op_NbReadReq.ap_fifo.i48P0A, i48 %bucketMetaFifo_5, i32 1" [/opt/Xilinx/Vitis_HLS/2020.2/common/technology/autopilot/hls_stream_39.h:136]   --->   Operation 14 'nbreadreq' 'tmp_i' <Predicate = (!state_5_load)> <Delay = 0.00> <CoreInst = "FIFO">   --->   Core 78 'FIFO' <Latency = 0> <II = 1> <Delay = 1.19> <Storage> <Opcode : 'read' 'write' 'nbread' 'nbwrite'> <Ports = 0> <Width = 48> <Depth = 256> <FIFO>
ST_2 : Operation 15 [1/1] (0.00ns)   --->   "%br_ln66 = br i1 %tmp_i, void, void %_ifconv" [betterloglog/src/fill_bucket.hpp:66]   --->   Operation 15 'br' 'br_ln66' <Predicate = (!state_5_load)> <Delay = 0.00>
ST_2 : Operation 16 [1/1] (0.38ns)   --->   "%store_ln112 = store i1 0, i1 %state_5" [betterloglog/src/fill_bucket.hpp:112]   --->   Operation 16 'store' 'store_ln112' <Predicate = (!state_5_load & !tmp_i)> <Delay = 0.38>
ST_2 : Operation 17 [1/1] (0.38ns)   --->   "%br_ln0 = br void %._crit_edge10.i"   --->   Operation 17 'br' 'br_ln0' <Predicate = (!state_5_load & !tmp_i)> <Delay = 0.38>
ST_2 : Operation 18 [1/1] (0.91ns)   --->   "%bucketMetaFifo_5_read = read i48 @_ssdm_op_Read.ap_fifo.volatile.i48P0A, i48 %bucketMetaFifo_5" [/opt/Xilinx/Vitis_HLS/2020.2/common/technology/autopilot/hls_stream_39.h:145]   --->   Operation 18 'read' 'bucketMetaFifo_5_read' <Predicate = (!state_5_load & tmp_i)> <Delay = 0.91> <CoreInst = "FIFO">   --->   Core 78 'FIFO' <Latency = 0> <II = 1> <Delay = 1.19> <Storage> <Opcode : 'read' 'write' 'nbread' 'nbwrite'> <Ports = 0> <Width = 48> <Depth = 256> <FIFO>
ST_2 : Operation 19 [1/1] (0.00ns)   --->   "%tmp_bucketNum_V = trunc i48 %bucketMetaFifo_5_read" [/opt/Xilinx/Vitis_HLS/2020.2/common/technology/autopilot/hls_stream_39.h:145]   --->   Operation 19 'trunc' 'tmp_bucketNum_V' <Predicate = (!state_5_load & tmp_i)> <Delay = 0.00>
ST_2 : Operation 20 [1/1] (0.00ns)   --->   "%tmp_numZeros_V = partselect i5 @_ssdm_op_PartSelect.i5.i48.i32.i32, i48 %bucketMetaFifo_5_read, i32 16, i32 20" [/opt/Xilinx/Vitis_HLS/2020.2/common/technology/autopilot/hls_stream_39.h:145]   --->   Operation 20 'partselect' 'tmp_numZeros_V' <Predicate = (!state_5_load & tmp_i)> <Delay = 0.00>
ST_2 : Operation 21 [1/1] (0.00ns)   --->   "%tmp_last_V = bitselect i1 @_ssdm_op_BitSelect.i1.i48.i32, i48 %bucketMetaFifo_5_read, i32 32" [/opt/Xilinx/Vitis_HLS/2020.2/common/technology/autopilot/hls_stream_39.h:145]   --->   Operation 21 'bitselect' 'tmp_last_V' <Predicate = (!state_5_load & tmp_i)> <Delay = 0.00>
ST_2 : Operation 22 [1/1] (0.00ns)   --->   "%prev_bucketNum_V_5_load = load i16 %prev_bucketNum_V_5"   --->   Operation 22 'load' 'prev_bucketNum_V_5_load' <Predicate = (!state_5_load & tmp_i)> <Delay = 0.00>
ST_2 : Operation 23 [1/1] (0.67ns)   --->   "%icmp_ln870_49 = icmp_eq  i16 %tmp_bucketNum_V, i16 %prev_bucketNum_V_5_load"   --->   Operation 23 'icmp' 'icmp_ln870_49' <Predicate = (!state_5_load & tmp_i)> <Delay = 0.67> <CoreInst = "Cmp">   --->   Core 9 'Cmp' <Latency = 0> <II = 1> <Delay = 0.63> <FuncUnit> <Opcode : 'icmp'> <InPorts = 2> <OutPorts = 1>
ST_2 : Operation 24 [1/1] (0.00ns)   --->   "%prev_prev_bucketNum_V_5_load = load i16 %prev_prev_bucketNum_V_5"   --->   Operation 24 'load' 'prev_prev_bucketNum_V_5_load' <Predicate = (!state_5_load & tmp_i)> <Delay = 0.00>
ST_2 : Operation 25 [1/1] (0.00ns)   --->   "%prev_prev_prev_bucketNum_V_5_load = load i16 %prev_prev_prev_bucketNum_V_5"   --->   Operation 25 'load' 'prev_prev_prev_bucketNum_V_5_load' <Predicate = (!state_5_load & tmp_i)> <Delay = 0.00>
ST_2 : Operation 26 [1/1] (0.67ns)   --->   "%icmp_ln870_50 = icmp_eq  i16 %tmp_bucketNum_V, i16 %prev_prev_bucketNum_V_5_load"   --->   Operation 26 'icmp' 'icmp_ln870_50' <Predicate = (!state_5_load & tmp_i)> <Delay = 0.67> <CoreInst = "Cmp">   --->   Core 9 'Cmp' <Latency = 0> <II = 1> <Delay = 0.63> <FuncUnit> <Opcode : 'icmp'> <InPorts = 2> <OutPorts = 1>
ST_2 : Operation 27 [1/1] (0.67ns)   --->   "%icmp_ln870_51 = icmp_eq  i16 %tmp_bucketNum_V, i16 %prev_prev_prev_bucketNum_V_5_load"   --->   Operation 27 'icmp' 'icmp_ln870_51' <Predicate = (!state_5_load & tmp_i)> <Delay = 0.67> <CoreInst = "Cmp">   --->   Core 9 'Cmp' <Latency = 0> <II = 1> <Delay = 0.63> <FuncUnit> <Opcode : 'icmp'> <InPorts = 2> <OutPorts = 1>
ST_2 : Operation 28 [1/1] (0.00ns)   --->   "%prev_prev_prev_prev_bucketNum_V_5_load = load i16 %prev_prev_prev_prev_bucketNum_V_5"   --->   Operation 28 'load' 'prev_prev_prev_prev_bucketNum_V_5_load' <Predicate = (!state_5_load & tmp_i)> <Delay = 0.00>
ST_2 : Operation 29 [1/1] (0.67ns)   --->   "%icmp_ln870_52 = icmp_eq  i16 %tmp_bucketNum_V, i16 %prev_prev_prev_prev_bucketNum_V_5_load"   --->   Operation 29 'icmp' 'icmp_ln870_52' <Predicate = (!state_5_load & tmp_i)> <Delay = 0.67> <CoreInst = "Cmp">   --->   Core 9 'Cmp' <Latency = 0> <II = 1> <Delay = 0.63> <FuncUnit> <Opcode : 'icmp'> <InPorts = 2> <OutPorts = 1>
ST_2 : Operation 30 [1/1] (0.00ns)   --->   "%store_ln101 = store i16 %prev_prev_prev_bucketNum_V_5_load, i16 %prev_prev_prev_prev_bucketNum_V_5" [betterloglog/src/fill_bucket.hpp:101]   --->   Operation 30 'store' 'store_ln101' <Predicate = (!state_5_load & tmp_i)> <Delay = 0.00>
ST_2 : Operation 31 [1/1] (0.00ns)   --->   "%store_ln102 = store i16 %prev_prev_bucketNum_V_5_load, i16 %prev_prev_prev_bucketNum_V_5" [betterloglog/src/fill_bucket.hpp:102]   --->   Operation 31 'store' 'store_ln102' <Predicate = (!state_5_load & tmp_i)> <Delay = 0.00>
ST_2 : Operation 32 [1/1] (0.00ns)   --->   "%store_ln103 = store i16 %prev_bucketNum_V_5_load, i16 %prev_prev_bucketNum_V_5" [betterloglog/src/fill_bucket.hpp:103]   --->   Operation 32 'store' 'store_ln103' <Predicate = (!state_5_load & tmp_i)> <Delay = 0.00>
ST_2 : Operation 33 [1/1] (0.00ns)   --->   "%store_ln104 = store i16 %tmp_bucketNum_V, i16 %prev_bucketNum_V_5" [betterloglog/src/fill_bucket.hpp:104]   --->   Operation 33 'store' 'store_ln104' <Predicate = (!state_5_load & tmp_i)> <Delay = 0.00>
ST_2 : Operation 34 [1/1] (0.38ns)   --->   "%br_ln107 = br i1 %tmp_last_V, void %._crit_edge10.i, void" [betterloglog/src/fill_bucket.hpp:107]   --->   Operation 34 'br' 'br_ln107' <Predicate = (!state_5_load & tmp_i)> <Delay = 0.38>
ST_2 : Operation 35 [1/1] (0.38ns)   --->   "%store_ln108 = store i1 1, i1 %state_5" [betterloglog/src/fill_bucket.hpp:108]   --->   Operation 35 'store' 'store_ln108' <Predicate = (!state_5_load & tmp_i & tmp_last_V)> <Delay = 0.38>
ST_2 : Operation 36 [1/1] (0.38ns)   --->   "%br_ln109 = br void %._crit_edge10.i" [betterloglog/src/fill_bucket.hpp:109]   --->   Operation 36 'br' 'br_ln109' <Predicate = (!state_5_load & tmp_i & tmp_last_V)> <Delay = 0.38>
ST_2 : Operation 37 [1/1] (0.00ns)   --->   "%i_V_5_load = load i17 %i_V_5"   --->   Operation 37 'load' 'i_V_5_load' <Predicate = (state_5_load)> <Delay = 0.00>
ST_2 : Operation 38 [1/1] (0.00ns)   --->   "%zext_ln534 = zext i17 %i_V_5_load"   --->   Operation 38 'zext' 'zext_ln534' <Predicate = (state_5_load)> <Delay = 0.00>
ST_2 : Operation 39 [1/1] (0.00ns)   --->   "%buckets_V_5_addr = getelementptr i5 %buckets_V_5, i64 0, i64 %zext_ln534" [betterloglog/src/fill_bucket.hpp:141]   --->   Operation 39 'getelementptr' 'buckets_V_5_addr' <Predicate = (state_5_load)> <Delay = 0.00>
ST_2 : Operation 40 [1/1] (0.79ns)   --->   "%add_ln691 = add i17 %i_V_5_load, i17 1"   --->   Operation 40 'add' 'add_ln691' <Predicate = (state_5_load)> <Delay = 0.79> <CoreInst = "Adder">   --->   Core 1 'Adder' <Latency = 0> <II = 1> <Delay = 0.70> <FuncUnit> <Opcode : 'add' 'sub'> <InPorts = 2> <OutPorts = 1>
ST_2 : Operation 41 [1/1] (0.68ns)   --->   "%icmp_ln870 = icmp_eq  i17 %add_ln691, i17 65536"   --->   Operation 41 'icmp' 'icmp_ln870' <Predicate = (state_5_load)> <Delay = 0.68> <CoreInst = "Cmp">   --->   Core 9 'Cmp' <Latency = 0> <II = 1> <Delay = 0.63> <FuncUnit> <Opcode : 'icmp'> <InPorts = 2> <OutPorts = 1>
ST_2 : Operation 42 [1/1] (0.38ns)   --->   "%br_ln145 = br i1 %icmp_ln870, void %._crit_edge10.i, void" [betterloglog/src/fill_bucket.hpp:145]   --->   Operation 42 'br' 'br_ln145' <Predicate = (state_5_load)> <Delay = 0.38>
ST_2 : Operation 43 [1/1] (0.38ns)   --->   "%store_ln147 = store i1 0, i1 %state_5" [betterloglog/src/fill_bucket.hpp:147]   --->   Operation 43 'store' 'store_ln147' <Predicate = (state_5_load & icmp_ln870)> <Delay = 0.38>
ST_2 : Operation 44 [1/1] (0.38ns)   --->   "%br_ln148 = br void %._crit_edge10.i" [betterloglog/src/fill_bucket.hpp:148]   --->   Operation 44 'br' 'br_ln148' <Predicate = (state_5_load & icmp_ln870)> <Delay = 0.38>
ST_2 : Operation 45 [1/1] (0.00ns)   --->   "%i_V_26_flag_0_i = phi i1 1, void, i1 1, void, i1 0, void, i1 0, void %._crit_edge11.i, i1 0, void"   --->   Operation 45 'phi' 'i_V_26_flag_0_i' <Predicate = true> <Delay = 0.00>
ST_2 : Operation 46 [1/1] (0.00ns)   --->   "%i_V_26_new_0_i = phi i17 0, void, i17 %add_ln691, void, i17 0, void, i17 0, void %._crit_edge11.i, i17 0, void"   --->   Operation 46 'phi' 'i_V_26_new_0_i' <Predicate = true> <Delay = 0.00>
ST_2 : Operation 47 [1/1] (0.00ns)   --->   "%br_ln0 = br i1 %i_V_26_flag_0_i, void %fill_bucket<1, 12>.exit, void %mergeST.i"   --->   Operation 47 'br' 'br_ln0' <Predicate = true> <Delay = 0.00>
ST_2 : Operation 48 [1/1] (0.00ns)   --->   "%store_ln691 = store i17 %i_V_26_new_0_i, i17 %i_V_5"   --->   Operation 48 'store' 'store_ln691' <Predicate = (i_V_26_flag_0_i)> <Delay = 0.00>
ST_2 : Operation 49 [1/1] (0.00ns)   --->   "%br_ln0 = br void %fill_bucket<1, 12>.exit"   --->   Operation 49 'br' 'br_ln0' <Predicate = (i_V_26_flag_0_i)> <Delay = 0.00>

State 3 <SV = 2> <Delay = 1.24>
ST_3 : Operation 50 [1/1] (0.00ns)   --->   "%zext_ln534_13 = zext i16 %tmp_bucketNum_V"   --->   Operation 50 'zext' 'zext_ln534_13' <Predicate = (!state_5_load & tmp_i)> <Delay = 0.00>
ST_3 : Operation 51 [1/1] (0.00ns)   --->   "%buckets_V_5_addr_1 = getelementptr i5 %buckets_V_5, i64 0, i64 %zext_ln534_13" [betterloglog/src/fill_bucket.hpp:89]   --->   Operation 51 'getelementptr' 'buckets_V_5_addr_1' <Predicate = (!state_5_load & tmp_i)> <Delay = 0.00>
ST_3 : Operation 52 [2/2] (1.24ns)   --->   "%current_rank_V_64 = load i16 %buckets_V_5_addr_1" [betterloglog/src/fill_bucket.hpp:89]   --->   Operation 52 'load' 'current_rank_V_64' <Predicate = (!state_5_load & tmp_i & !icmp_ln870_49 & !icmp_ln870_51 & !icmp_ln870_50 & !icmp_ln870_52)> <Delay = 1.24> <CoreInst = "RAM">   --->   Core 83 'RAM' <Latency = 1> <II = 1> <Delay = 1.24> <Storage> <Opcode : 'load' 'store'> <Ports = 2> <Width = 5> <Depth = 65536> <RAM>
ST_3 : Operation 53 [2/2] (1.24ns)   --->   "%buckets_V_5_load = load i16 %buckets_V_5_addr" [betterloglog/src/fill_bucket.hpp:141]   --->   Operation 53 'load' 'buckets_V_5_load' <Predicate = (state_5_load)> <Delay = 1.24> <CoreInst = "RAM">   --->   Core 83 'RAM' <Latency = 1> <II = 1> <Delay = 1.24> <Storage> <Opcode : 'load' 'store'> <Ports = 2> <Width = 5> <Depth = 65536> <RAM>

State 4 <SV = 3> <Delay = 1.24>
ST_4 : Operation 54 [1/2] (1.24ns)   --->   "%current_rank_V_64 = load i16 %buckets_V_5_addr_1" [betterloglog/src/fill_bucket.hpp:89]   --->   Operation 54 'load' 'current_rank_V_64' <Predicate = (!state_5_load & tmp_i & !icmp_ln870_49 & !icmp_ln870_51 & !icmp_ln870_50 & !icmp_ln870_52)> <Delay = 1.24> <CoreInst = "RAM">   --->   Core 83 'RAM' <Latency = 1> <II = 1> <Delay = 1.24> <Storage> <Opcode : 'load' 'store'> <Ports = 2> <Width = 5> <Depth = 65536> <RAM>
ST_4 : Operation 55 [1/2] (1.24ns)   --->   "%buckets_V_5_load = load i16 %buckets_V_5_addr" [betterloglog/src/fill_bucket.hpp:141]   --->   Operation 55 'load' 'buckets_V_5_load' <Predicate = (state_5_load)> <Delay = 1.24> <CoreInst = "RAM">   --->   Core 83 'RAM' <Latency = 1> <II = 1> <Delay = 1.24> <Storage> <Opcode : 'load' 'store'> <Ports = 2> <Width = 5> <Depth = 65536> <RAM>

State 5 <SV = 4> <Delay = 1.34>
ST_5 : Operation 56 [1/1] (0.70ns)   --->   "%rank_V = add i5 %tmp_numZeros_V, i5 1"   --->   Operation 56 'add' 'rank_V' <Predicate = (!state_5_load & tmp_i)> <Delay = 0.70> <CoreInst = "Adder">   --->   Core 1 'Adder' <Latency = 0> <II = 1> <Delay = 0.70> <FuncUnit> <Opcode : 'add' 'sub'> <InPorts = 2> <OutPorts = 1>
ST_5 : Operation 57 [1/1] (0.00ns)   --->   "%current_rank_V = load i5 %prev_rank_V_5" [betterloglog/src/fill_bucket.hpp:74]   --->   Operation 57 'load' 'current_rank_V' <Predicate = (!state_5_load & tmp_i)> <Delay = 0.00>
ST_5 : Operation 58 [1/1] (0.00ns)   --->   "%current_rank_V_61 = load i5 %prev_prev_rank_V_5" [betterloglog/src/fill_bucket.hpp:77]   --->   Operation 58 'load' 'current_rank_V_61' <Predicate = (!state_5_load & tmp_i)> <Delay = 0.00>
ST_5 : Operation 59 [1/1] (0.00ns)   --->   "%current_rank_V_62 = load i5 %prev_prev_prev_rank_V_5" [betterloglog/src/fill_bucket.hpp:80]   --->   Operation 59 'load' 'current_rank_V_62' <Predicate = (!state_5_load & tmp_i)> <Delay = 0.00>
ST_5 : Operation 60 [1/1] (0.00ns)   --->   "%current_rank_V_63 = load i5 %prev_prev_prev_prev_rank_V_5" [betterloglog/src/fill_bucket.hpp:83]   --->   Operation 60 'load' 'current_rank_V_63' <Predicate = (!state_5_load & tmp_i & !icmp_ln870_49)> <Delay = 0.00>
ST_5 : Operation 61 [1/1] (0.12ns)   --->   "%or_ln870 = or i1 %icmp_ln870_49, i1 %icmp_ln870_50"   --->   Operation 61 'or' 'or_ln870' <Predicate = (!state_5_load & tmp_i)> <Delay = 0.12> <CoreInst = "LogicGate">   --->   Core 74 'LogicGate' <Latency = 0> <II = 1> <Delay = 0.12> <FuncUnit> <Opcode : 'and' 'or' 'xor'> <InPorts = 2> <OutPorts = 1>
ST_5 : Operation 62 [1/1] (0.00ns) (grouped into LUT with out node or_ln870_52)   --->   "%or_ln870_49 = or i1 %or_ln870, i1 %icmp_ln870_51"   --->   Operation 62 'or' 'or_ln870_49' <Predicate = (!state_5_load & tmp_i)> <Delay = 0.00> <CoreInst = "LogicGate">   --->   Core 74 'LogicGate' <Latency = 0> <II = 1> <Delay = 0.12> <FuncUnit> <Opcode : 'and' 'or' 'xor'> <InPorts = 2> <OutPorts = 1>
ST_5 : Operation 63 [1/1] (0.00ns) (grouped into LUT with out node or_ln870_52)   --->   "%xor_ln870 = xor i1 %or_ln870_49, i1 1"   --->   Operation 63 'xor' 'xor_ln870' <Predicate = (!state_5_load & tmp_i)> <Delay = 0.00> <CoreInst = "LogicGate">   --->   Core 74 'LogicGate' <Latency = 0> <II = 1> <Delay = 0.12> <FuncUnit> <Opcode : 'and' 'or' 'xor'> <InPorts = 2> <OutPorts = 1>
ST_5 : Operation 64 [1/1] (0.00ns) (grouped into LUT with out node or_ln870_52)   --->   "%and_ln870 = and i1 %icmp_ln870_52, i1 %xor_ln870"   --->   Operation 64 'and' 'and_ln870' <Predicate = (!state_5_load & tmp_i)> <Delay = 0.00> <CoreInst = "LogicGate">   --->   Core 74 'LogicGate' <Latency = 0> <II = 1> <Delay = 0.12> <FuncUnit> <Opcode : 'and' 'or' 'xor'> <InPorts = 2> <OutPorts = 1>
ST_5 : Operation 65 [1/1] (0.00ns) (grouped into LUT with out node or_ln870_50)   --->   "%xor_ln870_25 = xor i1 %icmp_ln870_49, i1 1"   --->   Operation 65 'xor' 'xor_ln870_25' <Predicate = (!state_5_load & tmp_i)> <Delay = 0.00> <CoreInst = "LogicGate">   --->   Core 74 'LogicGate' <Latency = 0> <II = 1> <Delay = 0.12> <FuncUnit> <Opcode : 'and' 'or' 'xor'> <InPorts = 2> <OutPorts = 1>
ST_5 : Operation 66 [1/1] (0.00ns) (grouped into LUT with out node or_ln870_50)   --->   "%and_ln870_25 = and i1 %icmp_ln870_50, i1 %xor_ln870_25"   --->   Operation 66 'and' 'and_ln870_25' <Predicate = (!state_5_load & tmp_i)> <Delay = 0.00> <CoreInst = "LogicGate">   --->   Core 74 'LogicGate' <Latency = 0> <II = 1> <Delay = 0.12> <FuncUnit> <Opcode : 'and' 'or' 'xor'> <InPorts = 2> <OutPorts = 1>
ST_5 : Operation 67 [1/1] (0.00ns) (grouped into LUT with out node and_ln870_26)   --->   "%xor_ln870_26 = xor i1 %or_ln870, i1 1"   --->   Operation 67 'xor' 'xor_ln870_26' <Predicate = (!state_5_load & tmp_i)> <Delay = 0.00> <CoreInst = "LogicGate">   --->   Core 74 'LogicGate' <Latency = 0> <II = 1> <Delay = 0.12> <FuncUnit> <Opcode : 'and' 'or' 'xor'> <InPorts = 2> <OutPorts = 1>
ST_5 : Operation 68 [1/1] (0.12ns) (out node of the LUT)   --->   "%and_ln870_26 = and i1 %icmp_ln870_51, i1 %xor_ln870_26"   --->   Operation 68 'and' 'and_ln870_26' <Predicate = (!state_5_load & tmp_i)> <Delay = 0.12> <CoreInst = "LogicGate">   --->   Core 74 'LogicGate' <Latency = 0> <II = 1> <Delay = 0.12> <FuncUnit> <Opcode : 'and' 'or' 'xor'> <InPorts = 2> <OutPorts = 1>
ST_5 : Operation 69 [1/1] (0.00ns) (grouped into LUT with out node select_ln870_38)   --->   "%select_ln870 = select i1 %and_ln870_26, i5 %current_rank_V_62, i5 %current_rank_V_61"   --->   Operation 69 'select' 'select_ln870' <Predicate = (!state_5_load & tmp_i)> <Delay = 0.00> <CoreInst = "Sel">   --->   Core 73 'Sel' <Latency = 0> <II = 1> <Delay = 0.27> <FuncUnit> <Opcode : 'select'> <InPorts = 3> <OutPorts = 1>
ST_5 : Operation 70 [1/1] (0.12ns) (out node of the LUT)   --->   "%or_ln870_50 = or i1 %and_ln870_26, i1 %and_ln870_25"   --->   Operation 70 'or' 'or_ln870_50' <Predicate = (!state_5_load & tmp_i)> <Delay = 0.12> <CoreInst = "LogicGate">   --->   Core 74 'LogicGate' <Latency = 0> <II = 1> <Delay = 0.12> <FuncUnit> <Opcode : 'and' 'or' 'xor'> <InPorts = 2> <OutPorts = 1>
ST_5 : Operation 71 [1/1] (0.27ns) (out node of the LUT)   --->   "%select_ln870_37 = select i1 %icmp_ln870_49, i5 %current_rank_V, i5 %current_rank_V_63"   --->   Operation 71 'select' 'select_ln870_37' <Predicate = (!state_5_load & tmp_i)> <Delay = 0.27> <CoreInst = "Sel">   --->   Core 73 'Sel' <Latency = 0> <II = 1> <Delay = 0.27> <FuncUnit> <Opcode : 'select'> <InPorts = 3> <OutPorts = 1>
ST_5 : Operation 72 [1/1] (0.00ns) (grouped into LUT with out node or_ln870_52)   --->   "%or_ln870_51 = or i1 %icmp_ln870_49, i1 %and_ln870"   --->   Operation 72 'or' 'or_ln870_51' <Predicate = (!state_5_load & tmp_i)> <Delay = 0.00> <CoreInst = "LogicGate">   --->   Core 74 'LogicGate' <Latency = 0> <II = 1> <Delay = 0.12> <FuncUnit> <Opcode : 'and' 'or' 'xor'> <InPorts = 2> <OutPorts = 1>
ST_5 : Operation 73 [1/1] (0.27ns) (out node of the LUT)   --->   "%select_ln870_38 = select i1 %or_ln870_50, i5 %select_ln870, i5 %select_ln870_37"   --->   Operation 73 'select' 'select_ln870_38' <Predicate = (!state_5_load & tmp_i)> <Delay = 0.27> <CoreInst = "Sel">   --->   Core 73 'Sel' <Latency = 0> <II = 1> <Delay = 0.27> <FuncUnit> <Opcode : 'select'> <InPorts = 3> <OutPorts = 1>
ST_5 : Operation 74 [1/1] (0.12ns) (out node of the LUT)   --->   "%or_ln870_52 = or i1 %or_ln870_50, i1 %or_ln870_51"   --->   Operation 74 'or' 'or_ln870_52' <Predicate = (!state_5_load & tmp_i)> <Delay = 0.12> <CoreInst = "LogicGate">   --->   Core 74 'LogicGate' <Latency = 0> <II = 1> <Delay = 0.12> <FuncUnit> <Opcode : 'and' 'or' 'xor'> <InPorts = 2> <OutPorts = 1>
ST_5 : Operation 75 [1/1] (0.00ns) (grouped into LUT with out node icmp_ln886)   --->   "%current_rank_V_65 = select i1 %or_ln870_52, i5 %select_ln870_38, i5 %current_rank_V_64"   --->   Operation 75 'select' 'current_rank_V_65' <Predicate = (!state_5_load & tmp_i)> <Delay = 0.00> <CoreInst = "Sel">   --->   Core 73 'Sel' <Latency = 0> <II = 1> <Delay = 0.27> <FuncUnit> <Opcode : 'select'> <InPorts = 3> <OutPorts = 1>
ST_5 : Operation 76 [1/1] (0.00ns)   --->   "%store_ln92 = store i5 %current_rank_V_62, i5 %prev_prev_prev_prev_rank_V_5" [betterloglog/src/fill_bucket.hpp:92]   --->   Operation 76 'store' 'store_ln92' <Predicate = (!state_5_load & tmp_i)> <Delay = 0.00>
ST_5 : Operation 77 [1/1] (0.00ns)   --->   "%store_ln93 = store i5 %current_rank_V_61, i5 %prev_prev_prev_rank_V_5" [betterloglog/src/fill_bucket.hpp:93]   --->   Operation 77 'store' 'store_ln93' <Predicate = (!state_5_load & tmp_i)> <Delay = 0.00>
ST_5 : Operation 78 [1/1] (0.00ns)   --->   "%store_ln94 = store i5 %current_rank_V, i5 %prev_prev_rank_V_5" [betterloglog/src/fill_bucket.hpp:94]   --->   Operation 78 'store' 'store_ln94' <Predicate = (!state_5_load & tmp_i)> <Delay = 0.00>
ST_5 : Operation 79 [1/1] (0.63ns) (out node of the LUT)   --->   "%icmp_ln886 = icmp_ugt  i5 %rank_V, i5 %current_rank_V_65"   --->   Operation 79 'icmp' 'icmp_ln886' <Predicate = (!state_5_load & tmp_i)> <Delay = 0.63> <CoreInst = "Cmp">   --->   Core 9 'Cmp' <Latency = 0> <II = 1> <Delay = 0.63> <FuncUnit> <Opcode : 'icmp'> <InPorts = 2> <OutPorts = 1>
ST_5 : Operation 80 [1/1] (0.00ns)   --->   "%br_ln96 = br i1 %icmp_ln886, void %._crit_edge11.i, void" [betterloglog/src/fill_bucket.hpp:96]   --->   Operation 80 'br' 'br_ln96' <Predicate = (!state_5_load & tmp_i)> <Delay = 0.00>
ST_5 : Operation 81 [1/1] (0.00ns)   --->   "%store_ln98 = store i5 %rank_V, i5 %prev_rank_V_5" [betterloglog/src/fill_bucket.hpp:98]   --->   Operation 81 'store' 'store_ln98' <Predicate = (!state_5_load & tmp_i & icmp_ln886)> <Delay = 0.00>
ST_5 : Operation 82 [1/1] (0.91ns)   --->   "%write_ln174 = write void @_ssdm_op_Write.ap_fifo.volatile.i5P0A, i5 %bucket_fifo_V_V_12, i5 %buckets_V_5_load" [/opt/Xilinx/Vitis_HLS/2020.2/common/technology/autopilot/hls_stream_39.h:174]   --->   Operation 82 'write' 'write_ln174' <Predicate = (state_5_load)> <Delay = 0.91> <CoreInst = "FIFO">   --->   Core 78 'FIFO' <Latency = 0> <II = 1> <Delay = 1.16> <Storage> <Opcode : 'read' 'write' 'nbread' 'nbwrite'> <Ports = 0> <Width = 5> <Depth = 256> <FIFO>

State 6 <SV = 5> <Delay = 1.24>
ST_6 : Operation 83 [1/1] (1.24ns)   --->   "%store_ln97 = store i5 %rank_V, i16 %buckets_V_5_addr_1" [betterloglog/src/fill_bucket.hpp:97]   --->   Operation 83 'store' 'store_ln97' <Predicate = (!state_5_load & tmp_i & icmp_ln886)> <Delay = 1.24> <CoreInst = "RAM">   --->   Core 83 'RAM' <Latency = 1> <II = 1> <Delay = 1.24> <Storage> <Opcode : 'load' 'store'> <Ports = 2> <Width = 5> <Depth = 65536> <RAM>
ST_6 : Operation 84 [1/1] (0.00ns)   --->   "%br_ln99 = br void %._crit_edge11.i" [betterloglog/src/fill_bucket.hpp:99]   --->   Operation 84 'br' 'br_ln99' <Predicate = (!state_5_load & tmp_i & icmp_ln886)> <Delay = 0.00>
ST_6 : Operation 85 [1/1] (1.24ns)   --->   "%store_ln143 = store i5 0, i16 %buckets_V_5_addr" [betterloglog/src/fill_bucket.hpp:143]   --->   Operation 85 'store' 'store_ln143' <Predicate = (state_5_load)> <Delay = 1.24> <CoreInst = "RAM">   --->   Core 83 'RAM' <Latency = 1> <II = 1> <Delay = 1.24> <Storage> <Opcode : 'load' 'store'> <Ports = 2> <Width = 5> <Depth = 65536> <RAM>
ST_6 : Operation 86 [1/1] (0.00ns)   --->   "%ret_ln0 = ret"   --->   Operation 86 'ret' 'ret_ln0' <Predicate = true> <Delay = 0.00>


============================================================
+ Verbose Summary: Binding
============================================================
STG Binding: 
---------------- STG Properties BEGIN ----------------
- Is combinational: 0
- Is one-state seq: 0
- Is datapath-only: 0
- Is pipelined: 1
- Is top level: 0
Port [ Return ] is wired: 1; IO mode=ap_ctrl_hs:ce=0
Port [ state_5]:  wired=0; compound=0; hidden=1; nouse=0; global=1; static=1; extern=0; dir=2; type=0; pingpong=0; private_global=1; IO mode=ap_ovld:ce=0
Port [ bucketMetaFifo_5]:  wired=1; compound=1; hidden=0; nouse=0; global=1; static=1; extern=0; dir=0; type=3; pingpong=0; private_global=0; IO mode=ap_fifo:ce=0
Port [ prev_bucketNum_V_5]:  wired=0; compound=0; hidden=1; nouse=0; global=1; static=1; extern=0; dir=2; type=0; pingpong=0; private_global=1; IO mode=ap_ovld:ce=0
Port [ prev_rank_V_5]:  wired=0; compound=0; hidden=1; nouse=0; global=1; static=1; extern=0; dir=2; type=0; pingpong=0; private_global=1; IO mode=ap_ovld:ce=0
Port [ prev_prev_bucketNum_V_5]:  wired=0; compound=0; hidden=1; nouse=0; global=1; static=1; extern=0; dir=2; type=0; pingpong=0; private_global=1; IO mode=ap_ovld:ce=0
Port [ prev_prev_rank_V_5]:  wired=0; compound=0; hidden=1; nouse=0; global=1; static=1; extern=0; dir=2; type=0; pingpong=0; private_global=1; IO mode=ap_ovld:ce=0
Port [ prev_prev_prev_bucketNum_V_5]:  wired=0; compound=0; hidden=1; nouse=0; global=1; static=1; extern=0; dir=2; type=0; pingpong=0; private_global=1; IO mode=ap_ovld:ce=0
Port [ prev_prev_prev_rank_V_5]:  wired=0; compound=0; hidden=1; nouse=0; global=1; static=1; extern=0; dir=2; type=0; pingpong=0; private_global=1; IO mode=ap_ovld:ce=0
Port [ prev_prev_prev_prev_bucketNum_V_5]:  wired=0; compound=0; hidden=1; nouse=0; global=1; static=1; extern=0; dir=2; type=0; pingpong=0; private_global=1; IO mode=ap_ovld:ce=0
Port [ prev_prev_prev_prev_rank_V_5]:  wired=0; compound=0; hidden=1; nouse=0; global=1; static=1; extern=0; dir=2; type=0; pingpong=0; private_global=1; IO mode=ap_ovld:ce=0
Port [ buckets_V_5]:  wired=0; compound=1; hidden=1; nouse=0; global=1; static=1; extern=0; dir=2; type=1; pingpong=0; private_global=1; MemPort=[01]; IO mode=ap_memory:ce=0
Port [ i_V_5]:  wired=0; compound=0; hidden=1; nouse=0; global=1; static=1; extern=0; dir=2; type=0; pingpong=0; private_global=1; IO mode=ap_ovld:ce=0
Port [ bucket_fifo_V_V_12]:  wired=1; compound=1; hidden=0; nouse=0; global=1; static=1; extern=0; dir=1; type=3; pingpong=0; private_global=0; IO mode=ap_fifo:ce=0
---------------- STG Properties END ------------------

---------------- Datapath Model BEGIN ----------------

<LifeTime>
<method=bitvector/>
specinterface_ln0                      (specinterface) [ 0000000]
specinterface_ln0                      (specinterface) [ 0000000]
specinterface_ln0                      (specinterface) [ 0000000]
specinterface_ln0                      (specinterface) [ 0000000]
specpipeline_ln32                      (specpipeline ) [ 0000000]
state_5_load                           (load         ) [ 0111111]
br_ln64                                (br           ) [ 0000000]
tmp_i                                  (nbreadreq    ) [ 0111111]
br_ln66                                (br           ) [ 0000000]
store_ln112                            (store        ) [ 0000000]
br_ln0                                 (br           ) [ 0000000]
bucketMetaFifo_5_read                  (read         ) [ 0000000]
tmp_bucketNum_V                        (trunc        ) [ 0101000]
tmp_numZeros_V                         (partselect   ) [ 0101110]
tmp_last_V                             (bitselect    ) [ 0110000]
prev_bucketNum_V_5_load                (load         ) [ 0000000]
icmp_ln870_49                          (icmp         ) [ 0101110]
prev_prev_bucketNum_V_5_load           (load         ) [ 0000000]
prev_prev_prev_bucketNum_V_5_load      (load         ) [ 0000000]
icmp_ln870_50                          (icmp         ) [ 0101110]
icmp_ln870_51                          (icmp         ) [ 0101110]
prev_prev_prev_prev_bucketNum_V_5_load (load         ) [ 0000000]
icmp_ln870_52                          (icmp         ) [ 0101110]
store_ln101                            (store        ) [ 0000000]
store_ln102                            (store        ) [ 0000000]
store_ln103                            (store        ) [ 0000000]
store_ln104                            (store        ) [ 0000000]
br_ln107                               (br           ) [ 0000000]
store_ln108                            (store        ) [ 0000000]
br_ln109                               (br           ) [ 0000000]
i_V_5_load                             (load         ) [ 0000000]
zext_ln534                             (zext         ) [ 0000000]
buckets_V_5_addr                       (getelementptr) [ 0101111]
add_ln691                              (add          ) [ 0000000]
icmp_ln870                             (icmp         ) [ 0110000]
br_ln145                               (br           ) [ 0000000]
store_ln147                            (store        ) [ 0000000]
br_ln148                               (br           ) [ 0000000]
i_V_26_flag_0_i                        (phi          ) [ 0110000]
i_V_26_new_0_i                         (phi          ) [ 0000000]
br_ln0                                 (br           ) [ 0000000]
store_ln691                            (store        ) [ 0000000]
br_ln0                                 (br           ) [ 0000000]
zext_ln534_13                          (zext         ) [ 0000000]
buckets_V_5_addr_1                     (getelementptr) [ 0100111]
current_rank_V_64                      (load         ) [ 0100010]
buckets_V_5_load                       (load         ) [ 0100010]
rank_V                                 (add          ) [ 0100001]
current_rank_V                         (load         ) [ 0000000]
current_rank_V_61                      (load         ) [ 0000000]
current_rank_V_62                      (load         ) [ 0000000]
current_rank_V_63                      (load         ) [ 0000000]
or_ln870                               (or           ) [ 0000000]
or_ln870_49                            (or           ) [ 0000000]
xor_ln870                              (xor          ) [ 0000000]
and_ln870                              (and          ) [ 0000000]
xor_ln870_25                           (xor          ) [ 0000000]
and_ln870_25                           (and          ) [ 0000000]
xor_ln870_26                           (xor          ) [ 0000000]
and_ln870_26                           (and          ) [ 0000000]
select_ln870                           (select       ) [ 0000000]
or_ln870_50                            (or           ) [ 0000000]
select_ln870_37                        (select       ) [ 0000000]
or_ln870_51                            (or           ) [ 0000000]
select_ln870_38                        (select       ) [ 0000000]
or_ln870_52                            (or           ) [ 0000000]
current_rank_V_65                      (select       ) [ 0000000]
store_ln92                             (store        ) [ 0000000]
store_ln93                             (store        ) [ 0000000]
store_ln94                             (store        ) [ 0000000]
icmp_ln886                             (icmp         ) [ 0100011]
br_ln96                                (br           ) [ 0000000]
store_ln98                             (store        ) [ 0000000]
write_ln174                            (write        ) [ 0000000]
store_ln97                             (store        ) [ 0000000]
br_ln99                                (br           ) [ 0000000]
store_ln143                            (store        ) [ 0000000]
ret_ln0                                (ret          ) [ 0000000]
</LifeTime>

<model>

<comp_list>
<comp id="0" class="1000" name="state_5">
<pin_list>
<pin id="1" dir="1" index="0" bw="1" slack="0"/>
</pin_list>
<bind>
<StgValue><ssdm name="state_5"/></StgValue>
</bind>
</comp>

<comp id="2" class="1000" name="bucketMetaFifo_5">
<pin_list>
<pin id="3" dir="1" index="0" bw="1" slack="0"/>
</pin_list>
<bind>
<StgValue><ssdm name="bucketMetaFifo_5"/></StgValue>
</bind>
</comp>

<comp id="4" class="1000" name="prev_bucketNum_V_5">
<pin_list>
<pin id="5" dir="1" index="0" bw="1" slack="0"/>
</pin_list>
<bind>
<StgValue><ssdm name="prev_bucketNum_V_5"/></StgValue>
</bind>
</comp>

<comp id="6" class="1000" name="prev_rank_V_5">
<pin_list>
<pin id="7" dir="1" index="0" bw="1" slack="0"/>
</pin_list>
<bind>
<StgValue><ssdm name="prev_rank_V_5"/></StgValue>
</bind>
</comp>

<comp id="8" class="1000" name="prev_prev_bucketNum_V_5">
<pin_list>
<pin id="9" dir="1" index="0" bw="1" slack="0"/>
</pin_list>
<bind>
<StgValue><ssdm name="prev_prev_bucketNum_V_5"/></StgValue>
</bind>
</comp>

<comp id="10" class="1000" name="prev_prev_rank_V_5">
<pin_list>
<pin id="11" dir="1" index="0" bw="1" slack="0"/>
</pin_list>
<bind>
<StgValue><ssdm name="prev_prev_rank_V_5"/></StgValue>
</bind>
</comp>

<comp id="12" class="1000" name="prev_prev_prev_bucketNum_V_5">
<pin_list>
<pin id="13" dir="1" index="0" bw="1" slack="0"/>
</pin_list>
<bind>
<StgValue><ssdm name="prev_prev_prev_bucketNum_V_5"/></StgValue>
</bind>
</comp>

<comp id="14" class="1000" name="prev_prev_prev_rank_V_5">
<pin_list>
<pin id="15" dir="1" index="0" bw="1" slack="0"/>
</pin_list>
<bind>
<StgValue><ssdm name="prev_prev_prev_rank_V_5"/></StgValue>
</bind>
</comp>

<comp id="16" class="1000" name="prev_prev_prev_prev_bucketNum_V_5">
<pin_list>
<pin id="17" dir="1" index="0" bw="1" slack="0"/>
</pin_list>
<bind>
<StgValue><ssdm name="prev_prev_prev_prev_bucketNum_V_5"/></StgValue>
</bind>
</comp>

<comp id="18" class="1000" name="prev_prev_prev_prev_rank_V_5">
<pin_list>
<pin id="19" dir="1" index="0" bw="1" slack="0"/>
</pin_list>
<bind>
<StgValue><ssdm name="prev_prev_prev_prev_rank_V_5"/></StgValue>
</bind>
</comp>

<comp id="20" class="1000" name="buckets_V_5">
<pin_list>
<pin id="21" dir="1" index="0" bw="1" slack="0"/>
</pin_list>
<bind>
<StgValue><ssdm name="buckets_V_5"/><MemPortTyVec>0 1 </MemPortTyVec>
</StgValue>
</bind>
</comp>

<comp id="22" class="1000" name="i_V_5">
<pin_list>
<pin id="23" dir="1" index="0" bw="1" slack="0"/>
</pin_list>
<bind>
<StgValue><ssdm name="i_V_5"/></StgValue>
</bind>
</comp>

<comp id="24" class="1000" name="bucket_fifo_V_V_12">
<pin_list>
<pin id="25" dir="1" index="0" bw="1" slack="0"/>
</pin_list>
<bind>
<StgValue><ssdm name="bucket_fifo_V_V_12"/></StgValue>
</bind>
</comp>

<comp id="26" class="1001" name="const_26">
<pin_list>
<pin id="27" dir="1" index="0" bw="1" slack="2147483647"/>
</pin_list>
<bind>
<StgValue><ssdm name="_ssdm_op_SpecInterface"/></StgValue>
</bind>
</comp>

<comp id="28" class="1001" name="const_28">
<pin_list>
<pin id="29" dir="1" index="0" bw="1" slack="2147483647"/>
</pin_list>
<bind>
<StgValue><ssdm name="empty_4"/></StgValue>
</bind>
</comp>

<comp id="30" class="1001" name="const_30">
<pin_list>
<pin id="31" dir="1" index="0" bw="1" slack="2147483647"/>
</pin_list>
<bind>
<StgValue><ssdm name=""/></StgValue>
</bind>
</comp>

<comp id="32" class="1001" name="const_32">
<pin_list>
<pin id="33" dir="1" index="0" bw="1" slack="2147483647"/>
</pin_list>
<bind>
<StgValue><ssdm name="empty_2"/></StgValue>
</bind>
</comp>

<comp id="34" class="1001" name="const_34">
<pin_list>
<pin id="35" dir="1" index="0" bw="1" slack="2147483647"/>
</pin_list>
<bind>
<StgValue><ssdm name="ap_fifo_str"/></StgValue>
</bind>
</comp>

<comp id="36" class="1001" name="const_36">
<pin_list>
<pin id="37" dir="1" index="0" bw="1" slack="2147483647"/>
</pin_list>
<bind>
<StgValue><ssdm name="p_str"/></StgValue>
</bind>
</comp>

<comp id="38" class="1001" name="const_38">
<pin_list>
<pin id="39" dir="1" index="0" bw="1" slack="2147483647"/>
</pin_list>
<bind>
<StgValue><ssdm name=""/></StgValue>
</bind>
</comp>

<comp id="40" class="1001" name="const_40">
<pin_list>
<pin id="41" dir="1" index="0" bw="1" slack="0"/>
</pin_list>
<bind>
<StgValue><ssdm name=""/></StgValue>
</bind>
</comp>

<comp id="42" class="1001" name="const_42">
<pin_list>
<pin id="43" dir="1" index="0" bw="1" slack="2147483647"/>
</pin_list>
<bind>
<StgValue><ssdm name="_ssdm_op_SpecPipeline"/></StgValue>
</bind>
</comp>

<comp id="44" class="1001" name="const_44">
<pin_list>
<pin id="45" dir="1" index="0" bw="1" slack="0"/>
</pin_list>
<bind>
<StgValue><ssdm name=""/></StgValue>
</bind>
</comp>

<comp id="46" class="1001" name="const_46">
<pin_list>
<pin id="47" dir="1" index="0" bw="1" slack="0"/>
</pin_list>
<bind>
<StgValue><ssdm name="_ssdm_op_NbReadReq.ap_fifo.i48P0A"/></StgValue>
</bind>
</comp>

<comp id="48" class="1001" name="const_48">
<pin_list>
<pin id="49" dir="1" index="0" bw="1" slack="0"/>
</pin_list>
<bind>
<StgValue><ssdm name=""/></StgValue>
</bind>
</comp>

<comp id="50" class="1001" name="const_50">
<pin_list>
<pin id="51" dir="1" index="0" bw="1" slack="0"/>
</pin_list>
<bind>
<StgValue><ssdm name="_ssdm_op_Read.ap_fifo.volatile.i48P0A"/></StgValue>
</bind>
</comp>

<comp id="52" class="1001" name="const_52">
<pin_list>
<pin id="53" dir="1" index="0" bw="1" slack="0"/>
</pin_list>
<bind>
<StgValue><ssdm name="_ssdm_op_PartSelect.i5.i48.i32.i32"/></StgValue>
</bind>
</comp>

<comp id="54" class="1001" name="const_54">
<pin_list>
<pin id="55" dir="1" index="0" bw="1" slack="0"/>
</pin_list>
<bind>
<StgValue><ssdm name=""/></StgValue>
</bind>
</comp>

<comp id="56" class="1001" name="const_56">
<pin_list>
<pin id="57" dir="1" index="0" bw="1" slack="0"/>
</pin_list>
<bind>
<StgValue><ssdm name="_ssdm_op_BitSelect.i1.i48.i32"/></StgValue>
</bind>
</comp>

<comp id="58" class="1001" name="const_58">
<pin_list>
<pin id="59" dir="1" index="0" bw="1" slack="0"/>
</pin_list>
<bind>
<StgValue><ssdm name=""/></StgValue>
</bind>
</comp>

<comp id="60" class="1001" name="const_60">
<pin_list>
<pin id="61" dir="1" index="0" bw="1" slack="0"/>
</pin_list>
<bind>
<StgValue><ssdm name=""/></StgValue>
</bind>
</comp>

<comp id="62" class="1001" name="const_62">
<pin_list>
<pin id="63" dir="1" index="0" bw="1" slack="0"/>
</pin_list>
<bind>
<StgValue><ssdm name=""/></StgValue>
</bind>
</comp>

<comp id="64" class="1001" name="const_64">
<pin_list>
<pin id="65" dir="1" index="0" bw="1" slack="0"/>
</pin_list>
<bind>
<StgValue><ssdm name=""/></StgValue>
</bind>
</comp>

<comp id="66" class="1001" name="const_66">
<pin_list>
<pin id="67" dir="1" index="0" bw="1" slack="0"/>
</pin_list>
<bind>
<StgValue><ssdm name=""/></StgValue>
</bind>
</comp>

<comp id="68" class="1001" name="const_68">
<pin_list>
<pin id="69" dir="1" index="0" bw="1" slack="0"/>
</pin_list>
<bind>
<StgValue><ssdm name=""/></StgValue>
</bind>
</comp>

<comp id="70" class="1001" name="const_70">
<pin_list>
<pin id="71" dir="1" index="0" bw="1" slack="0"/>
</pin_list>
<bind>
<StgValue><ssdm name=""/></StgValue>
</bind>
</comp>

<comp id="72" class="1001" name="const_72">
<pin_list>
<pin id="73" dir="1" index="0" bw="1" slack="0"/>
</pin_list>
<bind>
<StgValue><ssdm name=""/></StgValue>
</bind>
</comp>

<comp id="74" class="1001" name="const_74">
<pin_list>
<pin id="75" dir="1" index="0" bw="1" slack="0"/>
</pin_list>
<bind>
<StgValue><ssdm name="_ssdm_op_Write.ap_fifo.volatile.i5P0A"/></StgValue>
</bind>
</comp>

<comp id="76" class="1001" name="const_76">
<pin_list>
<pin id="77" dir="1" index="0" bw="1" slack="0"/>
</pin_list>
<bind>
<StgValue><ssdm name=""/></StgValue>
</bind>
</comp>

<comp id="78" class="1004" name="tmp_i_nbreadreq_fu_78">
<pin_list>
<pin id="79" dir="0" index="0" bw="1" slack="0"/>
<pin id="80" dir="0" index="1" bw="48" slack="0"/>
<pin id="81" dir="0" index="2" bw="1" slack="0"/>
<pin id="82" dir="1" index="3" bw="1" slack="1"/>
</pin_list>
<bind>
<opcode="nbreadreq(1156) " fcode="nbreadreq"/>
<opset="tmp_i/2 "/>
</bind>
</comp>

<comp id="86" class="1004" name="bucketMetaFifo_5_read_read_fu_86">
<pin_list>
<pin id="87" dir="0" index="0" bw="48" slack="0"/>
<pin id="88" dir="0" index="1" bw="48" slack="0"/>
<pin id="89" dir="1" index="2" bw="48" slack="0"/>
</pin_list>
<bind>
<opcode="read(1150) " fcode="read"/>
<opset="bucketMetaFifo_5_read/2 "/>
</bind>
</comp>

<comp id="92" class="1004" name="write_ln174_write_fu_92">
<pin_list>
<pin id="93" dir="0" index="0" bw="0" slack="0"/>
<pin id="94" dir="0" index="1" bw="5" slack="0"/>
<pin id="95" dir="0" index="2" bw="5" slack="1"/>
<pin id="96" dir="1" index="3" bw="0" slack="2147483647"/>
</pin_list>
<bind>
<opcode="write(1151) " fcode="write"/>
<opset="write_ln174/5 "/>
</bind>
</comp>

<comp id="99" class="1004" name="buckets_V_5_addr_gep_fu_99">
<pin_list>
<pin id="100" dir="0" index="0" bw="5" slack="0"/>
<pin id="101" dir="0" index="1" bw="1" slack="0"/>
<pin id="102" dir="0" index="2" bw="17" slack="0"/>
<pin id="103" dir="1" index="3" bw="16" slack="1"/>
</pin_list>
<bind>
<opcode="getelementptr(29) " fcode="getelementptr"/>
<opset="buckets_V_5_addr/2 "/>
</bind>
</comp>

<comp id="106" class="1004" name="buckets_V_5_addr_1_gep_fu_106">
<pin_list>
<pin id="107" dir="0" index="0" bw="5" slack="0"/>
<pin id="108" dir="0" index="1" bw="1" slack="0"/>
<pin id="109" dir="0" index="2" bw="16" slack="0"/>
<pin id="110" dir="1" index="3" bw="16" slack="0"/>
</pin_list>
<bind>
<opcode="getelementptr(29) " fcode="getelementptr"/>
<opset="buckets_V_5_addr_1/3 "/>
</bind>
</comp>

<comp id="113" class="1004" name="grp_access_fu_113">
<pin_list>
<pin id="114" dir="0" index="0" bw="16" slack="3"/>
<pin id="115" dir="0" index="1" bw="5" slack="0"/>
<pin id="116" dir="0" index="2" bw="0" slack="0"/>
<pin id="118" dir="0" index="4" bw="16" slack="2147483647"/>
<pin id="119" dir="0" index="5" bw="5" slack="2147483647"/>
<pin id="120" dir="0" index="6" bw="0" slack="2147483647"/>
<pin id="117" dir="1" index="3" bw="5" slack="2147483647"/>
<pin id="121" dir="1" index="7" bw="5" slack="1"/>
</pin_list>
<bind>
<opcode="load(27) store(28) " fcode="store"/>
<opset="current_rank_V_64/3 buckets_V_5_load/3 store_ln97/6 store_ln143/6 "/>
</bind>
</comp>

<comp id="124" class="1005" name="i_V_26_flag_0_i_reg_124">
<pin_list>
<pin id="125" dir="0" index="0" bw="1" slack="2147483647"/>
<pin id="126" dir="1" index="1" bw="1" slack="2147483647"/>
</pin_list>
<bind>
<opset="i_V_26_flag_0_i (phireg) "/>
</bind>
</comp>

<comp id="127" class="1004" name="i_V_26_flag_0_i_phi_fu_127">
<pin_list>
<pin id="128" dir="0" index="0" bw="1" slack="0"/>
<pin id="129" dir="0" index="1" bw="0" slack="2147483647"/>
<pin id="130" dir="0" index="2" bw="1" slack="0"/>
<pin id="131" dir="0" index="3" bw="0" slack="2147483647"/>
<pin id="132" dir="0" index="4" bw="1" slack="0"/>
<pin id="133" dir="0" index="5" bw="0" slack="2147483647"/>
<pin id="134" dir="0" index="6" bw="1" slack="0"/>
<pin id="135" dir="0" index="7" bw="0" slack="2147483647"/>
<pin id="136" dir="0" index="8" bw="1" slack="0"/>
<pin id="137" dir="0" index="9" bw="0" slack="2147483647"/>
<pin id="138" dir="1" index="10" bw="1" slack="2147483647"/>
</pin_list>
<bind>
<opcode="phi(47) " fcode="phi"/>
<opset="i_V_26_flag_0_i/2 "/>
</bind>
</comp>

<comp id="144" class="1005" name="i_V_26_new_0_i_reg_144">
<pin_list>
<pin id="145" dir="0" index="0" bw="17" slack="2147483647"/>
<pin id="146" dir="1" index="1" bw="17" slack="2147483647"/>
</pin_list>
<bind>
<opset="i_V_26_new_0_i (phireg) "/>
</bind>
</comp>

<comp id="147" class="1004" name="i_V_26_new_0_i_phi_fu_147">
<pin_list>
<pin id="148" dir="0" index="0" bw="1" slack="0"/>
<pin id="149" dir="0" index="1" bw="0" slack="2147483647"/>
<pin id="150" dir="0" index="2" bw="17" slack="0"/>
<pin id="151" dir="0" index="3" bw="0" slack="2147483647"/>
<pin id="152" dir="0" index="4" bw="1" slack="0"/>
<pin id="153" dir="0" index="5" bw="0" slack="2147483647"/>
<pin id="154" dir="0" index="6" bw="1" slack="0"/>
<pin id="155" dir="0" index="7" bw="0" slack="2147483647"/>
<pin id="156" dir="0" index="8" bw="1" slack="0"/>
<pin id="157" dir="0" index="9" bw="0" slack="2147483647"/>
<pin id="158" dir="1" index="10" bw="17" slack="0"/>
</pin_list>
<bind>
<opcode="phi(47) " fcode="phi"/>
<opset="i_V_26_new_0_i/2 "/>
</bind>
</comp>

<comp id="163" class="1004" name="grp_store_fu_163">
<pin_list>
<pin id="164" dir="0" index="0" bw="1" slack="0"/>
<pin id="165" dir="0" index="1" bw="1" slack="0"/>
<pin id="166" dir="1" index="2" bw="0" slack="2147483647"/>
</pin_list>
<bind>
<opcode="store(28) " fcode="store"/>
<opset="store_ln112/2 store_ln147/2 "/>
</bind>
</comp>

<comp id="169" class="1005" name="reg_169">
<pin_list>
<pin id="170" dir="0" index="0" bw="5" slack="1"/>
<pin id="171" dir="1" index="1" bw="5" slack="1"/>
</pin_list>
<bind>
<opset="current_rank_V_64 buckets_V_5_load "/>
</bind>
</comp>

<comp id="174" class="1004" name="state_5_load_load_fu_174">
<pin_list>
<pin id="175" dir="0" index="0" bw="1" slack="0"/>
<pin id="176" dir="1" index="1" bw="1" slack="1"/>
</pin_list>
<bind>
<opcode="load(27) " fcode="load"/>
<opset="state_5_load/2 "/>
</bind>
</comp>

<comp id="178" class="1004" name="tmp_bucketNum_V_fu_178">
<pin_list>
<pin id="179" dir="0" index="0" bw="48" slack="0"/>
<pin id="180" dir="1" index="1" bw="16" slack="0"/>
</pin_list>
<bind>
<opcode="trunc(33) " fcode="trunc"/>
<opset="tmp_bucketNum_V/2 "/>
</bind>
</comp>

<comp id="182" class="1004" name="tmp_numZeros_V_fu_182">
<pin_list>
<pin id="183" dir="0" index="0" bw="5" slack="0"/>
<pin id="184" dir="0" index="1" bw="48" slack="0"/>
<pin id="185" dir="0" index="2" bw="6" slack="0"/>
<pin id="186" dir="0" index="3" bw="6" slack="0"/>
<pin id="187" dir="1" index="4" bw="5" slack="3"/>
</pin_list>
<bind>
<opcode="partselect(1002) " fcode="partselect"/>
<opset="tmp_numZeros_V/2 "/>
</bind>
</comp>

<comp id="192" class="1004" name="tmp_last_V_fu_192">
<pin_list>
<pin id="193" dir="0" index="0" bw="1" slack="0"/>
<pin id="194" dir="0" index="1" bw="48" slack="0"/>
<pin id="195" dir="0" index="2" bw="7" slack="0"/>
<pin id="196" dir="1" index="3" bw="1" slack="2147483647"/>
</pin_list>
<bind>
<opcode="bitselect(1000) " fcode="bitselect"/>
<opset="tmp_last_V/2 "/>
</bind>
</comp>

<comp id="200" class="1004" name="prev_bucketNum_V_5_load_load_fu_200">
<pin_list>
<pin id="201" dir="0" index="0" bw="16" slack="0"/>
<pin id="202" dir="1" index="1" bw="16" slack="0"/>
</pin_list>
<bind>
<opcode="load(27) " fcode="load"/>
<opset="prev_bucketNum_V_5_load/2 "/>
</bind>
</comp>

<comp id="204" class="1004" name="icmp_ln870_49_fu_204">
<pin_list>
<pin id="205" dir="0" index="0" bw="16" slack="0"/>
<pin id="206" dir="0" index="1" bw="16" slack="0"/>
<pin id="207" dir="1" index="2" bw="1" slack="1"/>
</pin_list>
<bind>
<opcode="icmp(45) " fcode="icmp"/>
<opset="icmp_ln870_49/2 "/>
</bind>
</comp>

<comp id="210" class="1004" name="prev_prev_bucketNum_V_5_load_load_fu_210">
<pin_list>
<pin id="211" dir="0" index="0" bw="16" slack="0"/>
<pin id="212" dir="1" index="1" bw="16" slack="0"/>
</pin_list>
<bind>
<opcode="load(27) " fcode="load"/>
<opset="prev_prev_bucketNum_V_5_load/2 "/>
</bind>
</comp>

<comp id="214" class="1004" name="prev_prev_prev_bucketNum_V_5_load_load_fu_214">
<pin_list>
<pin id="215" dir="0" index="0" bw="16" slack="0"/>
<pin id="216" dir="1" index="1" bw="16" slack="0"/>
</pin_list>
<bind>
<opcode="load(27) " fcode="load"/>
<opset="prev_prev_prev_bucketNum_V_5_load/2 "/>
</bind>
</comp>

<comp id="218" class="1004" name="icmp_ln870_50_fu_218">
<pin_list>
<pin id="219" dir="0" index="0" bw="16" slack="0"/>
<pin id="220" dir="0" index="1" bw="16" slack="0"/>
<pin id="221" dir="1" index="2" bw="1" slack="1"/>
</pin_list>
<bind>
<opcode="icmp(45) " fcode="icmp"/>
<opset="icmp_ln870_50/2 "/>
</bind>
</comp>

<comp id="224" class="1004" name="icmp_ln870_51_fu_224">
<pin_list>
<pin id="225" dir="0" index="0" bw="16" slack="0"/>
<pin id="226" dir="0" index="1" bw="16" slack="0"/>
<pin id="227" dir="1" index="2" bw="1" slack="1"/>
</pin_list>
<bind>
<opcode="icmp(45) " fcode="icmp"/>
<opset="icmp_ln870_51/2 "/>
</bind>
</comp>

<comp id="230" class="1004" name="prev_prev_prev_prev_bucketNum_V_5_load_load_fu_230">
<pin_list>
<pin id="231" dir="0" index="0" bw="16" slack="0"/>
<pin id="232" dir="1" index="1" bw="16" slack="0"/>
</pin_list>
<bind>
<opcode="load(27) " fcode="load"/>
<opset="prev_prev_prev_prev_bucketNum_V_5_load/2 "/>
</bind>
</comp>

<comp id="234" class="1004" name="icmp_ln870_52_fu_234">
<pin_list>
<pin id="235" dir="0" index="0" bw="16" slack="0"/>
<pin id="236" dir="0" index="1" bw="16" slack="0"/>
<pin id="237" dir="1" index="2" bw="1" slack="1"/>
</pin_list>
<bind>
<opcode="icmp(45) " fcode="icmp"/>
<opset="icmp_ln870_52/2 "/>
</bind>
</comp>

<comp id="240" class="1004" name="store_ln101_store_fu_240">
<pin_list>
<pin id="241" dir="0" index="0" bw="16" slack="0"/>
<pin id="242" dir="0" index="1" bw="16" slack="0"/>
<pin id="243" dir="1" index="2" bw="0" slack="2147483647"/>
</pin_list>
<bind>
<opcode="store(28) " fcode="store"/>
<opset="store_ln101/2 "/>
</bind>
</comp>

<comp id="246" class="1004" name="store_ln102_store_fu_246">
<pin_list>
<pin id="247" dir="0" index="0" bw="16" slack="0"/>
<pin id="248" dir="0" index="1" bw="16" slack="0"/>
<pin id="249" dir="1" index="2" bw="0" slack="2147483647"/>
</pin_list>
<bind>
<opcode="store(28) " fcode="store"/>
<opset="store_ln102/2 "/>
</bind>
</comp>

<comp id="252" class="1004" name="store_ln103_store_fu_252">
<pin_list>
<pin id="253" dir="0" index="0" bw="16" slack="0"/>
<pin id="254" dir="0" index="1" bw="16" slack="0"/>
<pin id="255" dir="1" index="2" bw="0" slack="2147483647"/>
</pin_list>
<bind>
<opcode="store(28) " fcode="store"/>
<opset="store_ln103/2 "/>
</bind>
</comp>

<comp id="258" class="1004" name="store_ln104_store_fu_258">
<pin_list>
<pin id="259" dir="0" index="0" bw="16" slack="0"/>
<pin id="260" dir="0" index="1" bw="16" slack="0"/>
<pin id="261" dir="1" index="2" bw="0" slack="2147483647"/>
</pin_list>
<bind>
<opcode="store(28) " fcode="store"/>
<opset="store_ln104/2 "/>
</bind>
</comp>

<comp id="264" class="1004" name="store_ln108_store_fu_264">
<pin_list>
<pin id="265" dir="0" index="0" bw="1" slack="0"/>
<pin id="266" dir="0" index="1" bw="1" slack="0"/>
<pin id="267" dir="1" index="2" bw="0" slack="2147483647"/>
</pin_list>
<bind>
<opcode="store(28) " fcode="store"/>
<opset="store_ln108/2 "/>
</bind>
</comp>

<comp id="270" class="1004" name="i_V_5_load_load_fu_270">
<pin_list>
<pin id="271" dir="0" index="0" bw="17" slack="0"/>
<pin id="272" dir="1" index="1" bw="17" slack="0"/>
</pin_list>
<bind>
<opcode="load(27) " fcode="load"/>
<opset="i_V_5_load/2 "/>
</bind>
</comp>

<comp id="274" class="1004" name="zext_ln534_fu_274">
<pin_list>
<pin id="275" dir="0" index="0" bw="17" slack="0"/>
<pin id="276" dir="1" index="1" bw="64" slack="0"/>
</pin_list>
<bind>
<opcode="zext(34) " fcode="zext"/>
<opset="zext_ln534/2 "/>
</bind>
</comp>

<comp id="279" class="1004" name="add_ln691_fu_279">
<pin_list>
<pin id="280" dir="0" index="0" bw="17" slack="0"/>
<pin id="281" dir="0" index="1" bw="1" slack="0"/>
<pin id="282" dir="1" index="2" bw="17" slack="0"/>
</pin_list>
<bind>
<opcode="add(8) " fcode="add"/>
<opset="add_ln691/2 "/>
</bind>
</comp>

<comp id="286" class="1004" name="icmp_ln870_fu_286">
<pin_list>
<pin id="287" dir="0" index="0" bw="17" slack="0"/>
<pin id="288" dir="0" index="1" bw="17" slack="0"/>
<pin id="289" dir="1" index="2" bw="1" slack="2147483647"/>
</pin_list>
<bind>
<opcode="icmp(45) " fcode="icmp"/>
<opset="icmp_ln870/2 "/>
</bind>
</comp>

<comp id="292" class="1004" name="store_ln691_store_fu_292">
<pin_list>
<pin id="293" dir="0" index="0" bw="17" slack="0"/>
<pin id="294" dir="0" index="1" bw="17" slack="0"/>
<pin id="295" dir="1" index="2" bw="0" slack="2147483647"/>
</pin_list>
<bind>
<opcode="store(28) " fcode="store"/>
<opset="store_ln691/2 "/>
</bind>
</comp>

<comp id="298" class="1004" name="zext_ln534_13_fu_298">
<pin_list>
<pin id="299" dir="0" index="0" bw="16" slack="1"/>
<pin id="300" dir="1" index="1" bw="64" slack="0"/>
</pin_list>
<bind>
<opcode="zext(34) " fcode="zext"/>
<opset="zext_ln534_13/3 "/>
</bind>
</comp>

<comp id="302" class="1004" name="rank_V_fu_302">
<pin_list>
<pin id="303" dir="0" index="0" bw="5" slack="3"/>
<pin id="304" dir="0" index="1" bw="1" slack="0"/>
<pin id="305" dir="1" index="2" bw="5" slack="0"/>
</pin_list>
<bind>
<opcode="add(8) " fcode="add"/>
<opset="rank_V/5 "/>
</bind>
</comp>

<comp id="307" class="1004" name="current_rank_V_load_fu_307">
<pin_list>
<pin id="308" dir="0" index="0" bw="5" slack="0"/>
<pin id="309" dir="1" index="1" bw="5" slack="0"/>
</pin_list>
<bind>
<opcode="load(27) " fcode="load"/>
<opset="current_rank_V/5 "/>
</bind>
</comp>

<comp id="311" class="1004" name="current_rank_V_61_load_fu_311">
<pin_list>
<pin id="312" dir="0" index="0" bw="5" slack="0"/>
<pin id="313" dir="1" index="1" bw="5" slack="0"/>
</pin_list>
<bind>
<opcode="load(27) " fcode="load"/>
<opset="current_rank_V_61/5 "/>
</bind>
</comp>

<comp id="315" class="1004" name="current_rank_V_62_load_fu_315">
<pin_list>
<pin id="316" dir="0" index="0" bw="5" slack="0"/>
<pin id="317" dir="1" index="1" bw="5" slack="0"/>
</pin_list>
<bind>
<opcode="load(27) " fcode="load"/>
<opset="current_rank_V_62/5 "/>
</bind>
</comp>

<comp id="319" class="1004" name="current_rank_V_63_load_fu_319">
<pin_list>
<pin id="320" dir="0" index="0" bw="5" slack="0"/>
<pin id="321" dir="1" index="1" bw="5" slack="0"/>
</pin_list>
<bind>
<opcode="load(27) " fcode="load"/>
<opset="current_rank_V_63/5 "/>
</bind>
</comp>

<comp id="323" class="1004" name="or_ln870_fu_323">
<pin_list>
<pin id="324" dir="0" index="0" bw="1" slack="3"/>
<pin id="325" dir="0" index="1" bw="1" slack="3"/>
<pin id="326" dir="1" index="2" bw="1" slack="0"/>
</pin_list>
<bind>
<opcode="or(24) " fcode="or"/>
<opset="or_ln870/5 "/>
</bind>
</comp>

<comp id="327" class="1004" name="or_ln870_49_fu_327">
<pin_list>
<pin id="328" dir="0" index="0" bw="1" slack="0"/>
<pin id="329" dir="0" index="1" bw="1" slack="3"/>
<pin id="330" dir="1" index="2" bw="1" slack="0"/>
</pin_list>
<bind>
<opcode="or(24) " fcode="or"/>
<opset="or_ln870_49/5 "/>
</bind>
</comp>

<comp id="332" class="1004" name="xor_ln870_fu_332">
<pin_list>
<pin id="333" dir="0" index="0" bw="1" slack="0"/>
<pin id="334" dir="0" index="1" bw="1" slack="0"/>
<pin id="335" dir="1" index="2" bw="1" slack="0"/>
</pin_list>
<bind>
<opcode="xor(25) " fcode="xor"/>
<opset="xor_ln870/5 "/>
</bind>
</comp>

<comp id="338" class="1004" name="and_ln870_fu_338">
<pin_list>
<pin id="339" dir="0" index="0" bw="1" slack="3"/>
<pin id="340" dir="0" index="1" bw="1" slack="0"/>
<pin id="341" dir="1" index="2" bw="1" slack="0"/>
</pin_list>
<bind>
<opcode="and(23) " fcode="and"/>
<opset="and_ln870/5 "/>
</bind>
</comp>

<comp id="343" class="1004" name="xor_ln870_25_fu_343">
<pin_list>
<pin id="344" dir="0" index="0" bw="1" slack="3"/>
<pin id="345" dir="0" index="1" bw="1" slack="0"/>
<pin id="346" dir="1" index="2" bw="1" slack="0"/>
</pin_list>
<bind>
<opcode="xor(25) " fcode="xor"/>
<opset="xor_ln870_25/5 "/>
</bind>
</comp>

<comp id="348" class="1004" name="and_ln870_25_fu_348">
<pin_list>
<pin id="349" dir="0" index="0" bw="1" slack="3"/>
<pin id="350" dir="0" index="1" bw="1" slack="0"/>
<pin id="351" dir="1" index="2" bw="1" slack="0"/>
</pin_list>
<bind>
<opcode="and(23) " fcode="and"/>
<opset="and_ln870_25/5 "/>
</bind>
</comp>

<comp id="353" class="1004" name="xor_ln870_26_fu_353">
<pin_list>
<pin id="354" dir="0" index="0" bw="1" slack="0"/>
<pin id="355" dir="0" index="1" bw="1" slack="0"/>
<pin id="356" dir="1" index="2" bw="1" slack="0"/>
</pin_list>
<bind>
<opcode="xor(25) " fcode="xor"/>
<opset="xor_ln870_26/5 "/>
</bind>
</comp>

<comp id="359" class="1004" name="and_ln870_26_fu_359">
<pin_list>
<pin id="360" dir="0" index="0" bw="1" slack="3"/>
<pin id="361" dir="0" index="1" bw="1" slack="0"/>
<pin id="362" dir="1" index="2" bw="1" slack="0"/>
</pin_list>
<bind>
<opcode="and(23) " fcode="and"/>
<opset="and_ln870_26/5 "/>
</bind>
</comp>

<comp id="364" class="1004" name="select_ln870_fu_364">
<pin_list>
<pin id="365" dir="0" index="0" bw="1" slack="0"/>
<pin id="366" dir="0" index="1" bw="5" slack="0"/>
<pin id="367" dir="0" index="2" bw="5" slack="0"/>
<pin id="368" dir="1" index="3" bw="5" slack="0"/>
</pin_list>
<bind>
<opcode="select(49) " fcode="select"/>
<opset="select_ln870/5 "/>
</bind>
</comp>

<comp id="372" class="1004" name="or_ln870_50_fu_372">
<pin_list>
<pin id="373" dir="0" index="0" bw="1" slack="0"/>
<pin id="374" dir="0" index="1" bw="1" slack="0"/>
<pin id="375" dir="1" index="2" bw="1" slack="0"/>
</pin_list>
<bind>
<opcode="or(24) " fcode="or"/>
<opset="or_ln870_50/5 "/>
</bind>
</comp>

<comp id="378" class="1004" name="select_ln870_37_fu_378">
<pin_list>
<pin id="379" dir="0" index="0" bw="1" slack="3"/>
<pin id="380" dir="0" index="1" bw="5" slack="0"/>
<pin id="381" dir="0" index="2" bw="5" slack="0"/>
<pin id="382" dir="1" index="3" bw="5" slack="0"/>
</pin_list>
<bind>
<opcode="select(49) " fcode="select"/>
<opset="select_ln870_37/5 "/>
</bind>
</comp>

<comp id="385" class="1004" name="or_ln870_51_fu_385">
<pin_list>
<pin id="386" dir="0" index="0" bw="1" slack="3"/>
<pin id="387" dir="0" index="1" bw="1" slack="0"/>
<pin id="388" dir="1" index="2" bw="1" slack="0"/>
</pin_list>
<bind>
<opcode="or(24) " fcode="or"/>
<opset="or_ln870_51/5 "/>
</bind>
</comp>

<comp id="390" class="1004" name="select_ln870_38_fu_390">
<pin_list>
<pin id="391" dir="0" index="0" bw="1" slack="0"/>
<pin id="392" dir="0" index="1" bw="5" slack="0"/>
<pin id="393" dir="0" index="2" bw="5" slack="0"/>
<pin id="394" dir="1" index="3" bw="5" slack="0"/>
</pin_list>
<bind>
<opcode="select(49) " fcode="select"/>
<opset="select_ln870_38/5 "/>
</bind>
</comp>

<comp id="398" class="1004" name="or_ln870_52_fu_398">
<pin_list>
<pin id="399" dir="0" index="0" bw="1" slack="0"/>
<pin id="400" dir="0" index="1" bw="1" slack="0"/>
<pin id="401" dir="1" index="2" bw="1" slack="0"/>
</pin_list>
<bind>
<opcode="or(24) " fcode="or"/>
<opset="or_ln870_52/5 "/>
</bind>
</comp>

<comp id="404" class="1004" name="current_rank_V_65_fu_404">
<pin_list>
<pin id="405" dir="0" index="0" bw="1" slack="0"/>
<pin id="406" dir="0" index="1" bw="5" slack="0"/>
<pin id="407" dir="0" index="2" bw="5" slack="1"/>
<pin id="408" dir="1" index="3" bw="5" slack="0"/>
</pin_list>
<bind>
<opcode="select(49) " fcode="select"/>
<opset="current_rank_V_65/5 "/>
</bind>
</comp>

<comp id="412" class="1004" name="store_ln92_store_fu_412">
<pin_list>
<pin id="413" dir="0" index="0" bw="5" slack="0"/>
<pin id="414" dir="0" index="1" bw="5" slack="0"/>
<pin id="415" dir="1" index="2" bw="0" slack="2147483647"/>
</pin_list>
<bind>
<opcode="store(28) " fcode="store"/>
<opset="store_ln92/5 "/>
</bind>
</comp>

<comp id="418" class="1004" name="store_ln93_store_fu_418">
<pin_list>
<pin id="419" dir="0" index="0" bw="5" slack="0"/>
<pin id="420" dir="0" index="1" bw="5" slack="0"/>
<pin id="421" dir="1" index="2" bw="0" slack="2147483647"/>
</pin_list>
<bind>
<opcode="store(28) " fcode="store"/>
<opset="store_ln93/5 "/>
</bind>
</comp>

<comp id="424" class="1004" name="store_ln94_store_fu_424">
<pin_list>
<pin id="425" dir="0" index="0" bw="5" slack="0"/>
<pin id="426" dir="0" index="1" bw="5" slack="0"/>
<pin id="427" dir="1" index="2" bw="0" slack="2147483647"/>
</pin_list>
<bind>
<opcode="store(28) " fcode="store"/>
<opset="store_ln94/5 "/>
</bind>
</comp>

<comp id="430" class="1004" name="icmp_ln886_fu_430">
<pin_list>
<pin id="431" dir="0" index="0" bw="5" slack="0"/>
<pin id="432" dir="0" index="1" bw="5" slack="0"/>
<pin id="433" dir="1" index="2" bw="1" slack="1"/>
</pin_list>
<bind>
<opcode="icmp(45) " fcode="icmp"/>
<opset="icmp_ln886/5 "/>
</bind>
</comp>

<comp id="436" class="1004" name="store_ln98_store_fu_436">
<pin_list>
<pin id="437" dir="0" index="0" bw="5" slack="0"/>
<pin id="438" dir="0" index="1" bw="5" slack="0"/>
<pin id="439" dir="1" index="2" bw="0" slack="2147483647"/>
</pin_list>
<bind>
<opcode="store(28) " fcode="store"/>
<opset="store_ln98/5 "/>
</bind>
</comp>

<comp id="442" class="1005" name="state_5_load_reg_442">
<pin_list>
<pin id="443" dir="0" index="0" bw="1" slack="1"/>
<pin id="444" dir="1" index="1" bw="1" slack="2147483647"/>
</pin_list>
<bind>
<opset="state_5_load "/>
</bind>
</comp>

<comp id="446" class="1005" name="tmp_i_reg_446">
<pin_list>
<pin id="447" dir="0" index="0" bw="1" slack="1"/>
<pin id="448" dir="1" index="1" bw="1" slack="2147483647"/>
</pin_list>
<bind>
<opset="tmp_i "/>
</bind>
</comp>

<comp id="450" class="1005" name="tmp_bucketNum_V_reg_450">
<pin_list>
<pin id="451" dir="0" index="0" bw="16" slack="1"/>
<pin id="452" dir="1" index="1" bw="16" slack="1"/>
</pin_list>
<bind>
<opset="tmp_bucketNum_V "/>
</bind>
</comp>

<comp id="455" class="1005" name="tmp_numZeros_V_reg_455">
<pin_list>
<pin id="456" dir="0" index="0" bw="5" slack="3"/>
<pin id="457" dir="1" index="1" bw="5" slack="3"/>
</pin_list>
<bind>
<opset="tmp_numZeros_V "/>
</bind>
</comp>

<comp id="463" class="1005" name="icmp_ln870_49_reg_463">
<pin_list>
<pin id="464" dir="0" index="0" bw="1" slack="1"/>
<pin id="465" dir="1" index="1" bw="1" slack="3"/>
</pin_list>
<bind>
<opset="icmp_ln870_49 "/>
</bind>
</comp>

<comp id="471" class="1005" name="icmp_ln870_50_reg_471">
<pin_list>
<pin id="472" dir="0" index="0" bw="1" slack="1"/>
<pin id="473" dir="1" index="1" bw="1" slack="3"/>
</pin_list>
<bind>
<opset="icmp_ln870_50 "/>
</bind>
</comp>

<comp id="477" class="1005" name="icmp_ln870_51_reg_477">
<pin_list>
<pin id="478" dir="0" index="0" bw="1" slack="1"/>
<pin id="479" dir="1" index="1" bw="1" slack="3"/>
</pin_list>
<bind>
<opset="icmp_ln870_51 "/>
</bind>
</comp>

<comp id="483" class="1005" name="icmp_ln870_52_reg_483">
<pin_list>
<pin id="484" dir="0" index="0" bw="1" slack="1"/>
<pin id="485" dir="1" index="1" bw="1" slack="3"/>
</pin_list>
<bind>
<opset="icmp_ln870_52 "/>
</bind>
</comp>

<comp id="488" class="1005" name="buckets_V_5_addr_reg_488">
<pin_list>
<pin id="489" dir="0" index="0" bw="16" slack="1"/>
<pin id="490" dir="1" index="1" bw="16" slack="1"/>
</pin_list>
<bind>
<opset="buckets_V_5_addr "/>
</bind>
</comp>

<comp id="497" class="1005" name="buckets_V_5_addr_1_reg_497">
<pin_list>
<pin id="498" dir="0" index="0" bw="16" slack="1"/>
<pin id="499" dir="1" index="1" bw="16" slack="1"/>
</pin_list>
<bind>
<opset="buckets_V_5_addr_1 "/>
</bind>
</comp>

<comp id="503" class="1005" name="rank_V_reg_503">
<pin_list>
<pin id="504" dir="0" index="0" bw="5" slack="1"/>
<pin id="505" dir="1" index="1" bw="5" slack="1"/>
</pin_list>
<bind>
<opset="rank_V "/>
</bind>
</comp>

<comp id="508" class="1005" name="icmp_ln886_reg_508">
<pin_list>
<pin id="509" dir="0" index="0" bw="1" slack="1"/>
<pin id="510" dir="1" index="1" bw="1" slack="2147483647"/>
</pin_list>
<bind>
<opset="icmp_ln886 "/>
</bind>
</comp>

</comp_list>

<net_list>
<net id="83"><net_src comp="46" pin="0"/><net_sink comp="78" pin=0"/></net>

<net id="84"><net_src comp="2" pin="0"/><net_sink comp="78" pin=1"/></net>

<net id="85"><net_src comp="44" pin="0"/><net_sink comp="78" pin=2"/></net>

<net id="90"><net_src comp="50" pin="0"/><net_sink comp="86" pin=0"/></net>

<net id="91"><net_src comp="2" pin="0"/><net_sink comp="86" pin=1"/></net>

<net id="97"><net_src comp="74" pin="0"/><net_sink comp="92" pin=0"/></net>

<net id="98"><net_src comp="24" pin="0"/><net_sink comp="92" pin=1"/></net>

<net id="104"><net_src comp="20" pin="0"/><net_sink comp="99" pin=0"/></net>

<net id="105"><net_src comp="62" pin="0"/><net_sink comp="99" pin=1"/></net>

<net id="111"><net_src comp="20" pin="0"/><net_sink comp="106" pin=0"/></net>

<net id="112"><net_src comp="62" pin="0"/><net_sink comp="106" pin=1"/></net>

<net id="122"><net_src comp="106" pin="3"/><net_sink comp="113" pin=2"/></net>

<net id="123"><net_src comp="76" pin="0"/><net_sink comp="113" pin=1"/></net>

<net id="139"><net_src comp="60" pin="0"/><net_sink comp="127" pin=0"/></net>

<net id="140"><net_src comp="60" pin="0"/><net_sink comp="127" pin=2"/></net>

<net id="141"><net_src comp="48" pin="0"/><net_sink comp="127" pin=4"/></net>

<net id="142"><net_src comp="48" pin="0"/><net_sink comp="127" pin=6"/></net>

<net id="143"><net_src comp="48" pin="0"/><net_sink comp="127" pin=8"/></net>

<net id="159"><net_src comp="68" pin="0"/><net_sink comp="147" pin=0"/></net>

<net id="160"><net_src comp="70" pin="0"/><net_sink comp="147" pin=4"/></net>

<net id="161"><net_src comp="70" pin="0"/><net_sink comp="147" pin=6"/></net>

<net id="162"><net_src comp="70" pin="0"/><net_sink comp="147" pin=8"/></net>

<net id="167"><net_src comp="48" pin="0"/><net_sink comp="163" pin=0"/></net>

<net id="168"><net_src comp="0" pin="0"/><net_sink comp="163" pin=1"/></net>

<net id="172"><net_src comp="113" pin="7"/><net_sink comp="169" pin=0"/></net>

<net id="173"><net_src comp="169" pin="1"/><net_sink comp="92" pin=2"/></net>

<net id="177"><net_src comp="0" pin="0"/><net_sink comp="174" pin=0"/></net>

<net id="181"><net_src comp="86" pin="2"/><net_sink comp="178" pin=0"/></net>

<net id="188"><net_src comp="52" pin="0"/><net_sink comp="182" pin=0"/></net>

<net id="189"><net_src comp="86" pin="2"/><net_sink comp="182" pin=1"/></net>

<net id="190"><net_src comp="40" pin="0"/><net_sink comp="182" pin=2"/></net>

<net id="191"><net_src comp="54" pin="0"/><net_sink comp="182" pin=3"/></net>

<net id="197"><net_src comp="56" pin="0"/><net_sink comp="192" pin=0"/></net>

<net id="198"><net_src comp="86" pin="2"/><net_sink comp="192" pin=1"/></net>

<net id="199"><net_src comp="58" pin="0"/><net_sink comp="192" pin=2"/></net>

<net id="203"><net_src comp="4" pin="0"/><net_sink comp="200" pin=0"/></net>

<net id="208"><net_src comp="178" pin="1"/><net_sink comp="204" pin=0"/></net>

<net id="209"><net_src comp="200" pin="1"/><net_sink comp="204" pin=1"/></net>

<net id="213"><net_src comp="8" pin="0"/><net_sink comp="210" pin=0"/></net>

<net id="217"><net_src comp="12" pin="0"/><net_sink comp="214" pin=0"/></net>

<net id="222"><net_src comp="178" pin="1"/><net_sink comp="218" pin=0"/></net>

<net id="223"><net_src comp="210" pin="1"/><net_sink comp="218" pin=1"/></net>

<net id="228"><net_src comp="178" pin="1"/><net_sink comp="224" pin=0"/></net>

<net id="229"><net_src comp="214" pin="1"/><net_sink comp="224" pin=1"/></net>

<net id="233"><net_src comp="16" pin="0"/><net_sink comp="230" pin=0"/></net>

<net id="238"><net_src comp="178" pin="1"/><net_sink comp="234" pin=0"/></net>

<net id="239"><net_src comp="230" pin="1"/><net_sink comp="234" pin=1"/></net>

<net id="244"><net_src comp="214" pin="1"/><net_sink comp="240" pin=0"/></net>

<net id="245"><net_src comp="16" pin="0"/><net_sink comp="240" pin=1"/></net>

<net id="250"><net_src comp="210" pin="1"/><net_sink comp="246" pin=0"/></net>

<net id="251"><net_src comp="12" pin="0"/><net_sink comp="246" pin=1"/></net>

<net id="256"><net_src comp="200" pin="1"/><net_sink comp="252" pin=0"/></net>

<net id="257"><net_src comp="8" pin="0"/><net_sink comp="252" pin=1"/></net>

<net id="262"><net_src comp="178" pin="1"/><net_sink comp="258" pin=0"/></net>

<net id="263"><net_src comp="4" pin="0"/><net_sink comp="258" pin=1"/></net>

<net id="268"><net_src comp="60" pin="0"/><net_sink comp="264" pin=0"/></net>

<net id="269"><net_src comp="0" pin="0"/><net_sink comp="264" pin=1"/></net>

<net id="273"><net_src comp="22" pin="0"/><net_sink comp="270" pin=0"/></net>

<net id="277"><net_src comp="270" pin="1"/><net_sink comp="274" pin=0"/></net>

<net id="278"><net_src comp="274" pin="1"/><net_sink comp="99" pin=2"/></net>

<net id="283"><net_src comp="270" pin="1"/><net_sink comp="279" pin=0"/></net>

<net id="284"><net_src comp="64" pin="0"/><net_sink comp="279" pin=1"/></net>

<net id="285"><net_src comp="279" pin="2"/><net_sink comp="147" pin=2"/></net>

<net id="290"><net_src comp="279" pin="2"/><net_sink comp="286" pin=0"/></net>

<net id="291"><net_src comp="66" pin="0"/><net_sink comp="286" pin=1"/></net>

<net id="296"><net_src comp="147" pin="10"/><net_sink comp="292" pin=0"/></net>

<net id="297"><net_src comp="22" pin="0"/><net_sink comp="292" pin=1"/></net>

<net id="301"><net_src comp="298" pin="1"/><net_sink comp="106" pin=2"/></net>

<net id="306"><net_src comp="72" pin="0"/><net_sink comp="302" pin=1"/></net>

<net id="310"><net_src comp="6" pin="0"/><net_sink comp="307" pin=0"/></net>

<net id="314"><net_src comp="10" pin="0"/><net_sink comp="311" pin=0"/></net>

<net id="318"><net_src comp="14" pin="0"/><net_sink comp="315" pin=0"/></net>

<net id="322"><net_src comp="18" pin="0"/><net_sink comp="319" pin=0"/></net>

<net id="331"><net_src comp="323" pin="2"/><net_sink comp="327" pin=0"/></net>

<net id="336"><net_src comp="327" pin="2"/><net_sink comp="332" pin=0"/></net>

<net id="337"><net_src comp="60" pin="0"/><net_sink comp="332" pin=1"/></net>

<net id="342"><net_src comp="332" pin="2"/><net_sink comp="338" pin=1"/></net>

<net id="347"><net_src comp="60" pin="0"/><net_sink comp="343" pin=1"/></net>

<net id="352"><net_src comp="343" pin="2"/><net_sink comp="348" pin=1"/></net>

<net id="357"><net_src comp="323" pin="2"/><net_sink comp="353" pin=0"/></net>

<net id="358"><net_src comp="60" pin="0"/><net_sink comp="353" pin=1"/></net>

<net id="363"><net_src comp="353" pin="2"/><net_sink comp="359" pin=1"/></net>

<net id="369"><net_src comp="359" pin="2"/><net_sink comp="364" pin=0"/></net>

<net id="370"><net_src comp="315" pin="1"/><net_sink comp="364" pin=1"/></net>

<net id="371"><net_src comp="311" pin="1"/><net_sink comp="364" pin=2"/></net>

<net id="376"><net_src comp="359" pin="2"/><net_sink comp="372" pin=0"/></net>

<net id="377"><net_src comp="348" pin="2"/><net_sink comp="372" pin=1"/></net>

<net id="383"><net_src comp="307" pin="1"/><net_sink comp="378" pin=1"/></net>

<net id="384"><net_src comp="319" pin="1"/><net_sink comp="378" pin=2"/></net>

<net id="389"><net_src comp="338" pin="2"/><net_sink comp="385" pin=1"/></net>

<net id="395"><net_src comp="372" pin="2"/><net_sink comp="390" pin=0"/></net>

<net id="396"><net_src comp="364" pin="3"/><net_sink comp="390" pin=1"/></net>

<net id="397"><net_src comp="378" pin="3"/><net_sink comp="390" pin=2"/></net>

<net id="402"><net_src comp="372" pin="2"/><net_sink comp="398" pin=0"/></net>

<net id="403"><net_src comp="385" pin="2"/><net_sink comp="398" pin=1"/></net>

<net id="409"><net_src comp="398" pin="2"/><net_sink comp="404" pin=0"/></net>

<net id="410"><net_src comp="390" pin="3"/><net_sink comp="404" pin=1"/></net>

<net id="411"><net_src comp="169" pin="1"/><net_sink comp="404" pin=2"/></net>

<net id="416"><net_src comp="315" pin="1"/><net_sink comp="412" pin=0"/></net>

<net id="417"><net_src comp="18" pin="0"/><net_sink comp="412" pin=1"/></net>

<net id="422"><net_src comp="311" pin="1"/><net_sink comp="418" pin=0"/></net>

<net id="423"><net_src comp="14" pin="0"/><net_sink comp="418" pin=1"/></net>

<net id="428"><net_src comp="307" pin="1"/><net_sink comp="424" pin=0"/></net>

<net id="429"><net_src comp="10" pin="0"/><net_sink comp="424" pin=1"/></net>

<net id="434"><net_src comp="302" pin="2"/><net_sink comp="430" pin=0"/></net>

<net id="435"><net_src comp="404" pin="3"/><net_sink comp="430" pin=1"/></net>

<net id="440"><net_src comp="302" pin="2"/><net_sink comp="436" pin=0"/></net>

<net id="441"><net_src comp="6" pin="0"/><net_sink comp="436" pin=1"/></net>

<net id="445"><net_src comp="174" pin="1"/><net_sink comp="442" pin=0"/></net>

<net id="449"><net_src comp="78" pin="3"/><net_sink comp="446" pin=0"/></net>

<net id="453"><net_src comp="178" pin="1"/><net_sink comp="450" pin=0"/></net>

<net id="454"><net_src comp="450" pin="1"/><net_sink comp="298" pin=0"/></net>

<net id="458"><net_src comp="182" pin="4"/><net_sink comp="455" pin=0"/></net>

<net id="459"><net_src comp="455" pin="1"/><net_sink comp="302" pin=0"/></net>

<net id="466"><net_src comp="204" pin="2"/><net_sink comp="463" pin=0"/></net>

<net id="467"><net_src comp="463" pin="1"/><net_sink comp="323" pin=0"/></net>

<net id="468"><net_src comp="463" pin="1"/><net_sink comp="343" pin=0"/></net>

<net id="469"><net_src comp="463" pin="1"/><net_sink comp="378" pin=0"/></net>

<net id="470"><net_src comp="463" pin="1"/><net_sink comp="385" pin=0"/></net>

<net id="474"><net_src comp="218" pin="2"/><net_sink comp="471" pin=0"/></net>

<net id="475"><net_src comp="471" pin="1"/><net_sink comp="323" pin=1"/></net>

<net id="476"><net_src comp="471" pin="1"/><net_sink comp="348" pin=0"/></net>

<net id="480"><net_src comp="224" pin="2"/><net_sink comp="477" pin=0"/></net>

<net id="481"><net_src comp="477" pin="1"/><net_sink comp="327" pin=1"/></net>

<net id="482"><net_src comp="477" pin="1"/><net_sink comp="359" pin=0"/></net>

<net id="486"><net_src comp="234" pin="2"/><net_sink comp="483" pin=0"/></net>

<net id="487"><net_src comp="483" pin="1"/><net_sink comp="338" pin=0"/></net>

<net id="491"><net_src comp="99" pin="3"/><net_sink comp="488" pin=0"/></net>

<net id="492"><net_src comp="488" pin="1"/><net_sink comp="113" pin=2"/></net>

<net id="493"><net_src comp="488" pin="1"/><net_sink comp="113" pin=0"/></net>

<net id="500"><net_src comp="106" pin="3"/><net_sink comp="497" pin=0"/></net>

<net id="501"><net_src comp="497" pin="1"/><net_sink comp="113" pin=2"/></net>

<net id="502"><net_src comp="497" pin="1"/><net_sink comp="113" pin=0"/></net>

<net id="506"><net_src comp="302" pin="2"/><net_sink comp="503" pin=0"/></net>

<net id="507"><net_src comp="503" pin="1"/><net_sink comp="113" pin=1"/></net>

<net id="511"><net_src comp="430" pin="2"/><net_sink comp="508" pin=0"/></net>

</net_list>

</model> 
---------------- Datapath Model END ------------------

* FSMD analyzer results:
  - Output states:
	Port: state_5 | {2 }
	Port: bucketMetaFifo_5 | {}
	Port: prev_bucketNum_V_5 | {2 }
	Port: prev_rank_V_5 | {5 }
	Port: prev_prev_bucketNum_V_5 | {2 }
	Port: prev_prev_rank_V_5 | {5 }
	Port: prev_prev_prev_bucketNum_V_5 | {2 }
	Port: prev_prev_prev_rank_V_5 | {5 }
	Port: prev_prev_prev_prev_bucketNum_V_5 | {2 }
	Port: prev_prev_prev_prev_rank_V_5 | {5 }
	Port: buckets_V_5 | {6 }
	Port: i_V_5 | {2 }
	Port: bucket_fifo_V_V_12 | {5 }
 - Input state : 
	Port: fill_bucket<1, 12> : state_5 | {2 }
	Port: fill_bucket<1, 12> : bucketMetaFifo_5 | {2 }
	Port: fill_bucket<1, 12> : prev_bucketNum_V_5 | {2 }
	Port: fill_bucket<1, 12> : prev_rank_V_5 | {5 }
	Port: fill_bucket<1, 12> : prev_prev_bucketNum_V_5 | {2 }
	Port: fill_bucket<1, 12> : prev_prev_rank_V_5 | {5 }
	Port: fill_bucket<1, 12> : prev_prev_prev_bucketNum_V_5 | {2 }
	Port: fill_bucket<1, 12> : prev_prev_prev_rank_V_5 | {5 }
	Port: fill_bucket<1, 12> : prev_prev_prev_prev_bucketNum_V_5 | {2 }
	Port: fill_bucket<1, 12> : prev_prev_prev_prev_rank_V_5 | {5 }
	Port: fill_bucket<1, 12> : buckets_V_5 | {3 4 }
	Port: fill_bucket<1, 12> : i_V_5 | {2 }
	Port: fill_bucket<1, 12> : bucket_fifo_V_V_12 | {}
  - Chain level:
	State 1
	State 2
		br_ln64 : 1
		icmp_ln870_49 : 1
		icmp_ln870_50 : 1
		icmp_ln870_51 : 1
		icmp_ln870_52 : 1
		store_ln101 : 1
		store_ln102 : 1
		store_ln103 : 1
		store_ln104 : 1
		br_ln107 : 1
		zext_ln534 : 1
		buckets_V_5_addr : 2
		add_ln691 : 1
		icmp_ln870 : 2
		br_ln145 : 3
		i_V_26_flag_0_i : 4
		i_V_26_new_0_i : 4
		br_ln0 : 5
		store_ln691 : 5
	State 3
		buckets_V_5_addr_1 : 1
		current_rank_V_64 : 2
	State 4
	State 5
		select_ln870_37 : 1
		store_ln92 : 1
		store_ln93 : 1
		store_ln94 : 1
		icmp_ln886 : 1
		br_ln96 : 2
		store_ln98 : 1
	State 6


============================================================
+ Verbose Summary: Datapath Resource usage 
============================================================

* Functional unit list:
|----------|----------------------------------|---------|---------|
| Operation|          Functional Unit         |    FF   |   LUT   |
|----------|----------------------------------|---------|---------|
|          |       icmp_ln870_49_fu_204       |    0    |    13   |
|          |       icmp_ln870_50_fu_218       |    0    |    13   |
|   icmp   |       icmp_ln870_51_fu_224       |    0    |    13   |
|          |       icmp_ln870_52_fu_234       |    0    |    13   |
|          |         icmp_ln870_fu_286        |    0    |    13   |
|          |         icmp_ln886_fu_430        |    0    |    9    |
|----------|----------------------------------|---------|---------|
|    add   |         add_ln691_fu_279         |    0    |    24   |
|          |           rank_V_fu_302          |    0    |    12   |
|----------|----------------------------------|---------|---------|
|          |        select_ln870_fu_364       |    0    |    5    |
|  select  |      select_ln870_37_fu_378      |    0    |    5    |
|          |      select_ln870_38_fu_390      |    0    |    5    |
|          |     current_rank_V_65_fu_404     |    0    |    5    |
|----------|----------------------------------|---------|---------|
|          |          or_ln870_fu_323         |    0    |    2    |
|          |        or_ln870_49_fu_327        |    0    |    2    |
|    or    |        or_ln870_50_fu_372        |    0    |    2    |
|          |        or_ln870_51_fu_385        |    0    |    2    |
|          |        or_ln870_52_fu_398        |    0    |    2    |
|----------|----------------------------------|---------|---------|
|          |         xor_ln870_fu_332         |    0    |    2    |
|    xor   |        xor_ln870_25_fu_343       |    0    |    2    |
|          |        xor_ln870_26_fu_353       |    0    |    2    |
|----------|----------------------------------|---------|---------|
|          |         and_ln870_fu_338         |    0    |    2    |
|    and   |        and_ln870_25_fu_348       |    0    |    2    |
|          |        and_ln870_26_fu_359       |    0    |    2    |
|----------|----------------------------------|---------|---------|
| nbreadreq|       tmp_i_nbreadreq_fu_78      |    0    |    0    |
|----------|----------------------------------|---------|---------|
|   read   | bucketMetaFifo_5_read_read_fu_86 |    0    |    0    |
|----------|----------------------------------|---------|---------|
|   write  |      write_ln174_write_fu_92     |    0    |    0    |
|----------|----------------------------------|---------|---------|
|   trunc  |      tmp_bucketNum_V_fu_178      |    0    |    0    |
|----------|----------------------------------|---------|---------|
|partselect|       tmp_numZeros_V_fu_182      |    0    |    0    |
|----------|----------------------------------|---------|---------|
| bitselect|         tmp_last_V_fu_192        |    0    |    0    |
|----------|----------------------------------|---------|---------|
|   zext   |         zext_ln534_fu_274        |    0    |    0    |
|          |       zext_ln534_13_fu_298       |    0    |    0    |
|----------|----------------------------------|---------|---------|
|   Total  |                                  |    0    |   152   |
|----------|----------------------------------|---------|---------|

Memories:
N/A

* Register list:
+--------------------------+--------+
|                          |   FF   |
+--------------------------+--------+
|buckets_V_5_addr_1_reg_497|   16   |
| buckets_V_5_addr_reg_488 |   16   |
|  i_V_26_flag_0_i_reg_124 |    1   |
|  i_V_26_new_0_i_reg_144  |   17   |
|   icmp_ln870_49_reg_463  |    1   |
|   icmp_ln870_50_reg_471  |    1   |
|   icmp_ln870_51_reg_477  |    1   |
|   icmp_ln870_52_reg_483  |    1   |
|    icmp_ln886_reg_508    |    1   |
|      rank_V_reg_503      |    5   |
|          reg_169         |    5   |
|   state_5_load_reg_442   |    1   |
|  tmp_bucketNum_V_reg_450 |   16   |
|       tmp_i_reg_446      |    1   |
|  tmp_numZeros_V_reg_455  |    5   |
+--------------------------+--------+
|           Total          |   88   |
+--------------------------+--------+

* Multiplexer (MUX) list: 
|-------------------|------|------|------|--------||---------||---------|
|        Comp       |  Pin | Size |  BW  | S x BW ||  Delay  ||   LUT   |
|-------------------|------|------|------|--------||---------||---------|
| grp_access_fu_113 |  p0  |   2  |  16  |   32   ||    9    |
| grp_access_fu_113 |  p1  |   2  |   5  |   10   ||    9    |
| grp_access_fu_113 |  p2  |   3  |   0  |    0   ||    14   |
|-------------------|------|------|------|--------||---------||---------|
|       Total       |      |      |      |   42   || 1.19386 ||    32   |
|-------------------|------|------|------|--------||---------||---------|



* Summary:
+-----------+--------+--------+--------+
|           |  Delay |   FF   |   LUT  |
+-----------+--------+--------+--------+
|  Function |    -   |    0   |   152  |
|   Memory  |    -   |    -   |    -   |
|Multiplexer|    1   |    -   |   32   |
|  Register |    -   |   88   |    -   |
+-----------+--------+--------+--------+
|   Total   |    1   |   88   |   184  |
+-----------+--------+--------+--------+
