

================================================================
== Vitis HLS Report for 'fill_bucket_1_7_s'
================================================================
* Date:           Wed May  4 23:47:47 2022

* Version:        2020.2 (Build 3064766 on Wed Nov 18 09:12:47 MST 2020)
* Project:        betterloglog_prj
* Solution:       solution1 (Vitis Kernel Flow Target)
* Product family: virtexuplus
* Target device:  xcvu9p-flgb2104-2-i


================================================================
== Performance Estimates
================================================================
+ Timing: 
    * Summary: 
    +--------+---------+----------+------------+
    |  Clock |  Target | Estimated| Uncertainty|
    +--------+---------+----------+------------+
    |ap_clk  |  2.50 ns|  1.987 ns|     0.68 ns|
    +--------+---------+----------+------------+

+ Latency: 
    * Summary: 
    +---------+---------+-----------+-----------+-----+-----+---------+
    |  Latency (cycles) |   Latency (absolute)  |  Interval | Pipeline|
    |   min   |   max   |    min    |    max    | min | max |   Type  |
    +---------+---------+-----------+-----------+-----+-----+---------+
    |        5|        5|  12.500 ns|  12.500 ns|    1|    1|      yes|
    +---------+---------+-----------+-----------+-----+-----+---------+

    + Detail: 
        * Instance: 
        N/A

        * Loop: 
        N/A

============================================================
+ Verbose Summary: Synthesis Manager
============================================================
InlineROM: 1
ExposeGlobal: 0
============================================================
+ Verbose Summary: CDFG Model
============================================================
IsTopModel: 0
ResetActiveHigh: 1
IsCombinational: 2
IsDatapathOnly: 0
HasWiredReturn: 1
HasMFsm: 2
HasVarLatency: 0
IsPipeline: 1
IsRtlPipelined: 1
IsInstanceOverlapped: 0
IsDontTouch: 0
HasImplIP: 0
IsGatedGlobalClock: 0

+ Individual pipeline summary: 
  * Pipeline-0: initiation interval (II) = 1, depth = 6


============================================================
+ Verbose Summary: Schedule
============================================================
* Number of FSM states : 6
* Pipeline : 1
  Pipeline-0 : II = 1, D = 6, States = { 1 2 3 4 5 6 }
* Dataflow Pipeline: 0

* FSM state transitions: 
1 --> 2 
2 --> 3 
3 --> 4 
4 --> 5 
5 --> 6 
6 --> 

* FSM state operations: 

State 1 <SV = 0> <Delay = 0.00>

State 2 <SV = 1> <Delay = 1.98>
ST_2 : Operation 7 [1/1] (0.00ns)   --->   "%specinterface_ln0 = specinterface void @_ssdm_op_SpecInterface, i48 %bucketMetaFifo_2, void @empty_4, i32 0, i32 0, void @empty_2, i32 0, i32 0, void @empty_2, void @empty_2, void @empty_2, i32 0, i32 0, i32 0, i32 0, void @empty_2, void @empty_2"   --->   Operation 7 'specinterface' 'specinterface_ln0' <Predicate = true> <Delay = 0.00>
ST_2 : Operation 8 [1/1] (0.00ns)   --->   "%specinterface_ln0 = specinterface void @_ssdm_op_SpecInterface, i48 %bucketMetaFifo_2, void @empty_4, i32 0, i32 0, void @empty_2, i32 0, i32 0, void @empty_2, void @empty_2, void @empty_2, i32 0, i32 0, i32 0, i32 0, void @empty_2, void @empty_2"   --->   Operation 8 'specinterface' 'specinterface_ln0' <Predicate = true> <Delay = 0.00>
ST_2 : Operation 9 [1/1] (0.00ns)   --->   "%specinterface_ln0 = specinterface void @_ssdm_op_SpecInterface, i5 %bucket_fifo_V_V_7, void @ap_fifo_str, i32 0, i32 0, void @p_str, i32 0, i32 0, void @p_str, void @p_str, void @p_str, i32 2, i32 2, i32 16, i32 16, void @p_str, void @p_str"   --->   Operation 9 'specinterface' 'specinterface_ln0' <Predicate = true> <Delay = 0.00>
ST_2 : Operation 10 [1/1] (0.00ns)   --->   "%specinterface_ln0 = specinterface void @_ssdm_op_SpecInterface, i48 %bucketMetaFifo_2, void @empty_4, i32 0, i32 0, void @empty_2, i32 0, i32 0, void @empty_2, void @empty_2, void @empty_2, i32 0, i32 0, i32 0, i32 0, void @empty_2, void @empty_2"   --->   Operation 10 'specinterface' 'specinterface_ln0' <Predicate = true> <Delay = 0.00>
ST_2 : Operation 11 [1/1] (0.00ns)   --->   "%specpipeline_ln32 = specpipeline void @_ssdm_op_SpecPipeline, i32 1, i32 0, i32 0, i32 0, void @empty_2" [betterloglog/src/fill_bucket.hpp:32]   --->   Operation 11 'specpipeline' 'specpipeline_ln32' <Predicate = true> <Delay = 0.00>
ST_2 : Operation 12 [1/1] (0.00ns)   --->   "%state_2_load = load i1 %state_2" [betterloglog/src/fill_bucket.hpp:64]   --->   Operation 12 'load' 'state_2_load' <Predicate = true> <Delay = 0.00>
ST_2 : Operation 13 [1/1] (0.00ns)   --->   "%br_ln64 = br i1 %state_2_load, void, void" [betterloglog/src/fill_bucket.hpp:64]   --->   Operation 13 'br' 'br_ln64' <Predicate = true> <Delay = 0.00>
ST_2 : Operation 14 [1/1] (0.00ns)   --->   "%tmp_i = nbreadreq i1 @_ssdm_op_NbReadReq.ap_fifo.i48P0A, i48 %bucketMetaFifo_2, i32 1" [/opt/Xilinx/Vitis_HLS/2020.2/common/technology/autopilot/hls_stream_39.h:136]   --->   Operation 14 'nbreadreq' 'tmp_i' <Predicate = (!state_2_load)> <Delay = 0.00> <CoreInst = "FIFO">   --->   Core 78 'FIFO' <Latency = 0> <II = 1> <Delay = 1.19> <Storage> <Opcode : 'read' 'write' 'nbread' 'nbwrite'> <Ports = 0> <Width = 48> <Depth = 256> <FIFO>
ST_2 : Operation 15 [1/1] (0.00ns)   --->   "%br_ln66 = br i1 %tmp_i, void, void %_ifconv" [betterloglog/src/fill_bucket.hpp:66]   --->   Operation 15 'br' 'br_ln66' <Predicate = (!state_2_load)> <Delay = 0.00>
ST_2 : Operation 16 [1/1] (0.38ns)   --->   "%store_ln112 = store i1 0, i1 %state_2" [betterloglog/src/fill_bucket.hpp:112]   --->   Operation 16 'store' 'store_ln112' <Predicate = (!state_2_load & !tmp_i)> <Delay = 0.38>
ST_2 : Operation 17 [1/1] (0.38ns)   --->   "%br_ln0 = br void %._crit_edge10.i"   --->   Operation 17 'br' 'br_ln0' <Predicate = (!state_2_load & !tmp_i)> <Delay = 0.38>
ST_2 : Operation 18 [1/1] (0.91ns)   --->   "%bucketMetaFifo_2_read = read i48 @_ssdm_op_Read.ap_fifo.volatile.i48P0A, i48 %bucketMetaFifo_2" [/opt/Xilinx/Vitis_HLS/2020.2/common/technology/autopilot/hls_stream_39.h:145]   --->   Operation 18 'read' 'bucketMetaFifo_2_read' <Predicate = (!state_2_load & tmp_i)> <Delay = 0.91> <CoreInst = "FIFO">   --->   Core 78 'FIFO' <Latency = 0> <II = 1> <Delay = 1.19> <Storage> <Opcode : 'read' 'write' 'nbread' 'nbwrite'> <Ports = 0> <Width = 48> <Depth = 256> <FIFO>
ST_2 : Operation 19 [1/1] (0.00ns)   --->   "%tmp_bucketNum_V = trunc i48 %bucketMetaFifo_2_read" [/opt/Xilinx/Vitis_HLS/2020.2/common/technology/autopilot/hls_stream_39.h:145]   --->   Operation 19 'trunc' 'tmp_bucketNum_V' <Predicate = (!state_2_load & tmp_i)> <Delay = 0.00>
ST_2 : Operation 20 [1/1] (0.00ns)   --->   "%tmp_numZeros_V = partselect i5 @_ssdm_op_PartSelect.i5.i48.i32.i32, i48 %bucketMetaFifo_2_read, i32 16, i32 20" [/opt/Xilinx/Vitis_HLS/2020.2/common/technology/autopilot/hls_stream_39.h:145]   --->   Operation 20 'partselect' 'tmp_numZeros_V' <Predicate = (!state_2_load & tmp_i)> <Delay = 0.00>
ST_2 : Operation 21 [1/1] (0.00ns)   --->   "%tmp_last_V = bitselect i1 @_ssdm_op_BitSelect.i1.i48.i32, i48 %bucketMetaFifo_2_read, i32 32" [/opt/Xilinx/Vitis_HLS/2020.2/common/technology/autopilot/hls_stream_39.h:145]   --->   Operation 21 'bitselect' 'tmp_last_V' <Predicate = (!state_2_load & tmp_i)> <Delay = 0.00>
ST_2 : Operation 22 [1/1] (0.00ns)   --->   "%prev_bucketNum_V_2_load = load i16 %prev_bucketNum_V_2"   --->   Operation 22 'load' 'prev_bucketNum_V_2_load' <Predicate = (!state_2_load & tmp_i)> <Delay = 0.00>
ST_2 : Operation 23 [1/1] (0.67ns)   --->   "%icmp_ln870_9 = icmp_eq  i16 %tmp_bucketNum_V, i16 %prev_bucketNum_V_2_load"   --->   Operation 23 'icmp' 'icmp_ln870_9' <Predicate = (!state_2_load & tmp_i)> <Delay = 0.67> <CoreInst = "Cmp">   --->   Core 9 'Cmp' <Latency = 0> <II = 1> <Delay = 0.68> <FuncUnit> <Opcode : 'icmp'> <InPorts = 2> <OutPorts = 1>
ST_2 : Operation 24 [1/1] (0.00ns)   --->   "%prev_prev_bucketNum_V_2_load = load i16 %prev_prev_bucketNum_V_2"   --->   Operation 24 'load' 'prev_prev_bucketNum_V_2_load' <Predicate = (!state_2_load & tmp_i)> <Delay = 0.00>
ST_2 : Operation 25 [1/1] (0.00ns)   --->   "%prev_prev_prev_bucketNum_V_2_load = load i16 %prev_prev_prev_bucketNum_V_2"   --->   Operation 25 'load' 'prev_prev_prev_bucketNum_V_2_load' <Predicate = (!state_2_load & tmp_i)> <Delay = 0.00>
ST_2 : Operation 26 [1/1] (0.67ns)   --->   "%icmp_ln870_10 = icmp_eq  i16 %tmp_bucketNum_V, i16 %prev_prev_bucketNum_V_2_load"   --->   Operation 26 'icmp' 'icmp_ln870_10' <Predicate = (!state_2_load & tmp_i)> <Delay = 0.67> <CoreInst = "Cmp">   --->   Core 9 'Cmp' <Latency = 0> <II = 1> <Delay = 0.68> <FuncUnit> <Opcode : 'icmp'> <InPorts = 2> <OutPorts = 1>
ST_2 : Operation 27 [1/1] (0.67ns)   --->   "%icmp_ln870_11 = icmp_eq  i16 %tmp_bucketNum_V, i16 %prev_prev_prev_bucketNum_V_2_load"   --->   Operation 27 'icmp' 'icmp_ln870_11' <Predicate = (!state_2_load & tmp_i)> <Delay = 0.67> <CoreInst = "Cmp">   --->   Core 9 'Cmp' <Latency = 0> <II = 1> <Delay = 0.68> <FuncUnit> <Opcode : 'icmp'> <InPorts = 2> <OutPorts = 1>
ST_2 : Operation 28 [1/1] (0.00ns)   --->   "%prev_prev_prev_prev_bucketNum_V_2_load = load i16 %prev_prev_prev_prev_bucketNum_V_2"   --->   Operation 28 'load' 'prev_prev_prev_prev_bucketNum_V_2_load' <Predicate = (!state_2_load & tmp_i)> <Delay = 0.00>
ST_2 : Operation 29 [1/1] (0.67ns)   --->   "%icmp_ln870_12 = icmp_eq  i16 %tmp_bucketNum_V, i16 %prev_prev_prev_prev_bucketNum_V_2_load"   --->   Operation 29 'icmp' 'icmp_ln870_12' <Predicate = (!state_2_load & tmp_i)> <Delay = 0.67> <CoreInst = "Cmp">   --->   Core 9 'Cmp' <Latency = 0> <II = 1> <Delay = 0.68> <FuncUnit> <Opcode : 'icmp'> <InPorts = 2> <OutPorts = 1>
ST_2 : Operation 30 [1/1] (0.00ns)   --->   "%store_ln101 = store i16 %prev_prev_prev_bucketNum_V_2_load, i16 %prev_prev_prev_prev_bucketNum_V_2" [betterloglog/src/fill_bucket.hpp:101]   --->   Operation 30 'store' 'store_ln101' <Predicate = (!state_2_load & tmp_i)> <Delay = 0.00>
ST_2 : Operation 31 [1/1] (0.00ns)   --->   "%store_ln102 = store i16 %prev_prev_bucketNum_V_2_load, i16 %prev_prev_prev_bucketNum_V_2" [betterloglog/src/fill_bucket.hpp:102]   --->   Operation 31 'store' 'store_ln102' <Predicate = (!state_2_load & tmp_i)> <Delay = 0.00>
ST_2 : Operation 32 [1/1] (0.00ns)   --->   "%store_ln103 = store i16 %prev_bucketNum_V_2_load, i16 %prev_prev_bucketNum_V_2" [betterloglog/src/fill_bucket.hpp:103]   --->   Operation 32 'store' 'store_ln103' <Predicate = (!state_2_load & tmp_i)> <Delay = 0.00>
ST_2 : Operation 33 [1/1] (0.00ns)   --->   "%store_ln104 = store i16 %tmp_bucketNum_V, i16 %prev_bucketNum_V_2" [betterloglog/src/fill_bucket.hpp:104]   --->   Operation 33 'store' 'store_ln104' <Predicate = (!state_2_load & tmp_i)> <Delay = 0.00>
ST_2 : Operation 34 [1/1] (0.38ns)   --->   "%br_ln107 = br i1 %tmp_last_V, void %._crit_edge10.i, void" [betterloglog/src/fill_bucket.hpp:107]   --->   Operation 34 'br' 'br_ln107' <Predicate = (!state_2_load & tmp_i)> <Delay = 0.38>
ST_2 : Operation 35 [1/1] (0.38ns)   --->   "%store_ln108 = store i1 1, i1 %state_2" [betterloglog/src/fill_bucket.hpp:108]   --->   Operation 35 'store' 'store_ln108' <Predicate = (!state_2_load & tmp_i & tmp_last_V)> <Delay = 0.38>
ST_2 : Operation 36 [1/1] (0.38ns)   --->   "%br_ln109 = br void %._crit_edge10.i" [betterloglog/src/fill_bucket.hpp:109]   --->   Operation 36 'br' 'br_ln109' <Predicate = (!state_2_load & tmp_i & tmp_last_V)> <Delay = 0.38>
ST_2 : Operation 37 [1/1] (0.00ns)   --->   "%i_V_2_load = load i17 %i_V_2"   --->   Operation 37 'load' 'i_V_2_load' <Predicate = (state_2_load)> <Delay = 0.00>
ST_2 : Operation 38 [1/1] (0.00ns)   --->   "%zext_ln534 = zext i17 %i_V_2_load"   --->   Operation 38 'zext' 'zext_ln534' <Predicate = (state_2_load)> <Delay = 0.00>
ST_2 : Operation 39 [1/1] (0.00ns)   --->   "%buckets_V_2_addr = getelementptr i5 %buckets_V_2, i64 0, i64 %zext_ln534" [betterloglog/src/fill_bucket.hpp:141]   --->   Operation 39 'getelementptr' 'buckets_V_2_addr' <Predicate = (state_2_load)> <Delay = 0.00>
ST_2 : Operation 40 [1/1] (0.79ns)   --->   "%add_ln691 = add i17 %i_V_2_load, i17 1"   --->   Operation 40 'add' 'add_ln691' <Predicate = (state_2_load)> <Delay = 0.79> <CoreInst = "Adder">   --->   Core 1 'Adder' <Latency = 0> <II = 1> <Delay = 0.79> <FuncUnit> <Opcode : 'add' 'sub'> <InPorts = 2> <OutPorts = 1>
ST_2 : Operation 41 [1/1] (0.68ns)   --->   "%icmp_ln870 = icmp_eq  i17 %add_ln691, i17 65536"   --->   Operation 41 'icmp' 'icmp_ln870' <Predicate = (state_2_load)> <Delay = 0.68> <CoreInst = "Cmp">   --->   Core 9 'Cmp' <Latency = 0> <II = 1> <Delay = 0.68> <FuncUnit> <Opcode : 'icmp'> <InPorts = 2> <OutPorts = 1>
ST_2 : Operation 42 [1/1] (0.38ns)   --->   "%br_ln145 = br i1 %icmp_ln870, void %._crit_edge10.i, void" [betterloglog/src/fill_bucket.hpp:145]   --->   Operation 42 'br' 'br_ln145' <Predicate = (state_2_load)> <Delay = 0.38>
ST_2 : Operation 43 [1/1] (0.38ns)   --->   "%store_ln147 = store i1 0, i1 %state_2" [betterloglog/src/fill_bucket.hpp:147]   --->   Operation 43 'store' 'store_ln147' <Predicate = (state_2_load & icmp_ln870)> <Delay = 0.38>
ST_2 : Operation 44 [1/1] (0.38ns)   --->   "%br_ln148 = br void %._crit_edge10.i" [betterloglog/src/fill_bucket.hpp:148]   --->   Operation 44 'br' 'br_ln148' <Predicate = (state_2_load & icmp_ln870)> <Delay = 0.38>
ST_2 : Operation 45 [1/1] (0.00ns)   --->   "%i_V_22_flag_0_i = phi i1 1, void, i1 1, void, i1 0, void, i1 0, void %._crit_edge11.i, i1 0, void"   --->   Operation 45 'phi' 'i_V_22_flag_0_i' <Predicate = true> <Delay = 0.00>
ST_2 : Operation 46 [1/1] (0.00ns)   --->   "%i_V_22_new_0_i = phi i17 0, void, i17 %add_ln691, void, i17 0, void, i17 0, void %._crit_edge11.i, i17 0, void"   --->   Operation 46 'phi' 'i_V_22_new_0_i' <Predicate = true> <Delay = 0.00>
ST_2 : Operation 47 [1/1] (0.00ns)   --->   "%br_ln0 = br i1 %i_V_22_flag_0_i, void %fill_bucket<1, 7>.exit, void %mergeST.i"   --->   Operation 47 'br' 'br_ln0' <Predicate = true> <Delay = 0.00>
ST_2 : Operation 48 [1/1] (0.00ns)   --->   "%store_ln691 = store i17 %i_V_22_new_0_i, i17 %i_V_2"   --->   Operation 48 'store' 'store_ln691' <Predicate = (i_V_22_flag_0_i)> <Delay = 0.00>
ST_2 : Operation 49 [1/1] (0.00ns)   --->   "%br_ln0 = br void %fill_bucket<1, 7>.exit"   --->   Operation 49 'br' 'br_ln0' <Predicate = (i_V_22_flag_0_i)> <Delay = 0.00>

State 3 <SV = 2> <Delay = 1.24>
ST_3 : Operation 50 [1/1] (0.00ns)   --->   "%zext_ln534_3 = zext i16 %tmp_bucketNum_V"   --->   Operation 50 'zext' 'zext_ln534_3' <Predicate = (!state_2_load & tmp_i)> <Delay = 0.00>
ST_3 : Operation 51 [1/1] (0.00ns)   --->   "%buckets_V_2_addr_1 = getelementptr i5 %buckets_V_2, i64 0, i64 %zext_ln534_3" [betterloglog/src/fill_bucket.hpp:89]   --->   Operation 51 'getelementptr' 'buckets_V_2_addr_1' <Predicate = (!state_2_load & tmp_i)> <Delay = 0.00>
ST_3 : Operation 52 [2/2] (1.24ns)   --->   "%current_rank_V_14 = load i16 %buckets_V_2_addr_1" [betterloglog/src/fill_bucket.hpp:89]   --->   Operation 52 'load' 'current_rank_V_14' <Predicate = (!state_2_load & tmp_i & !icmp_ln870_9 & !icmp_ln870_11 & !icmp_ln870_10 & !icmp_ln870_12)> <Delay = 1.24> <CoreInst = "RAM">   --->   Core 83 'RAM' <Latency = 1> <II = 1> <Delay = 1.24> <Storage> <Opcode : 'load' 'store'> <Ports = 2> <Width = 5> <Depth = 65536> <RAM>
ST_3 : Operation 53 [2/2] (1.24ns)   --->   "%buckets_V_2_load = load i16 %buckets_V_2_addr" [betterloglog/src/fill_bucket.hpp:141]   --->   Operation 53 'load' 'buckets_V_2_load' <Predicate = (state_2_load)> <Delay = 1.24> <CoreInst = "RAM">   --->   Core 83 'RAM' <Latency = 1> <II = 1> <Delay = 1.24> <Storage> <Opcode : 'load' 'store'> <Ports = 2> <Width = 5> <Depth = 65536> <RAM>

State 4 <SV = 3> <Delay = 1.24>
ST_4 : Operation 54 [1/2] (1.24ns)   --->   "%current_rank_V_14 = load i16 %buckets_V_2_addr_1" [betterloglog/src/fill_bucket.hpp:89]   --->   Operation 54 'load' 'current_rank_V_14' <Predicate = (!state_2_load & tmp_i & !icmp_ln870_9 & !icmp_ln870_11 & !icmp_ln870_10 & !icmp_ln870_12)> <Delay = 1.24> <CoreInst = "RAM">   --->   Core 83 'RAM' <Latency = 1> <II = 1> <Delay = 1.24> <Storage> <Opcode : 'load' 'store'> <Ports = 2> <Width = 5> <Depth = 65536> <RAM>
ST_4 : Operation 55 [1/2] (1.24ns)   --->   "%buckets_V_2_load = load i16 %buckets_V_2_addr" [betterloglog/src/fill_bucket.hpp:141]   --->   Operation 55 'load' 'buckets_V_2_load' <Predicate = (state_2_load)> <Delay = 1.24> <CoreInst = "RAM">   --->   Core 83 'RAM' <Latency = 1> <II = 1> <Delay = 1.24> <Storage> <Opcode : 'load' 'store'> <Ports = 2> <Width = 5> <Depth = 65536> <RAM>

State 5 <SV = 4> <Delay = 1.34>
ST_5 : Operation 56 [1/1] (0.70ns)   --->   "%rank_V = add i5 %tmp_numZeros_V, i5 1"   --->   Operation 56 'add' 'rank_V' <Predicate = (!state_2_load & tmp_i)> <Delay = 0.70> <CoreInst = "Adder">   --->   Core 1 'Adder' <Latency = 0> <II = 1> <Delay = 0.79> <FuncUnit> <Opcode : 'add' 'sub'> <InPorts = 2> <OutPorts = 1>
ST_5 : Operation 57 [1/1] (0.00ns)   --->   "%current_rank_V = load i5 %prev_rank_V_2" [betterloglog/src/fill_bucket.hpp:74]   --->   Operation 57 'load' 'current_rank_V' <Predicate = (!state_2_load & tmp_i)> <Delay = 0.00>
ST_5 : Operation 58 [1/1] (0.00ns)   --->   "%current_rank_V_11 = load i5 %prev_prev_rank_V_2" [betterloglog/src/fill_bucket.hpp:77]   --->   Operation 58 'load' 'current_rank_V_11' <Predicate = (!state_2_load & tmp_i)> <Delay = 0.00>
ST_5 : Operation 59 [1/1] (0.00ns)   --->   "%current_rank_V_12 = load i5 %prev_prev_prev_rank_V_2" [betterloglog/src/fill_bucket.hpp:80]   --->   Operation 59 'load' 'current_rank_V_12' <Predicate = (!state_2_load & tmp_i)> <Delay = 0.00>
ST_5 : Operation 60 [1/1] (0.00ns)   --->   "%current_rank_V_13 = load i5 %prev_prev_prev_prev_rank_V_2" [betterloglog/src/fill_bucket.hpp:83]   --->   Operation 60 'load' 'current_rank_V_13' <Predicate = (!state_2_load & tmp_i & !icmp_ln870_9)> <Delay = 0.00>
ST_5 : Operation 61 [1/1] (0.12ns)   --->   "%or_ln870 = or i1 %icmp_ln870_9, i1 %icmp_ln870_10"   --->   Operation 61 'or' 'or_ln870' <Predicate = (!state_2_load & tmp_i)> <Delay = 0.12> <CoreInst = "LogicGate">   --->   Core 74 'LogicGate' <Latency = 0> <II = 1> <Delay = 0.12> <FuncUnit> <Opcode : 'and' 'or' 'xor'> <InPorts = 2> <OutPorts = 1>
ST_5 : Operation 62 [1/1] (0.00ns) (grouped into LUT with out node or_ln870_12)   --->   "%or_ln870_9 = or i1 %or_ln870, i1 %icmp_ln870_11"   --->   Operation 62 'or' 'or_ln870_9' <Predicate = (!state_2_load & tmp_i)> <Delay = 0.00> <CoreInst = "LogicGate">   --->   Core 74 'LogicGate' <Latency = 0> <II = 1> <Delay = 0.12> <FuncUnit> <Opcode : 'and' 'or' 'xor'> <InPorts = 2> <OutPorts = 1>
ST_5 : Operation 63 [1/1] (0.00ns) (grouped into LUT with out node or_ln870_12)   --->   "%xor_ln870 = xor i1 %or_ln870_9, i1 1"   --->   Operation 63 'xor' 'xor_ln870' <Predicate = (!state_2_load & tmp_i)> <Delay = 0.00> <CoreInst = "LogicGate">   --->   Core 74 'LogicGate' <Latency = 0> <II = 1> <Delay = 0.12> <FuncUnit> <Opcode : 'and' 'or' 'xor'> <InPorts = 2> <OutPorts = 1>
ST_5 : Operation 64 [1/1] (0.00ns) (grouped into LUT with out node or_ln870_12)   --->   "%and_ln870 = and i1 %icmp_ln870_12, i1 %xor_ln870"   --->   Operation 64 'and' 'and_ln870' <Predicate = (!state_2_load & tmp_i)> <Delay = 0.00> <CoreInst = "LogicGate">   --->   Core 74 'LogicGate' <Latency = 0> <II = 1> <Delay = 0.12> <FuncUnit> <Opcode : 'and' 'or' 'xor'> <InPorts = 2> <OutPorts = 1>
ST_5 : Operation 65 [1/1] (0.00ns) (grouped into LUT with out node or_ln870_10)   --->   "%xor_ln870_5 = xor i1 %icmp_ln870_9, i1 1"   --->   Operation 65 'xor' 'xor_ln870_5' <Predicate = (!state_2_load & tmp_i)> <Delay = 0.00> <CoreInst = "LogicGate">   --->   Core 74 'LogicGate' <Latency = 0> <II = 1> <Delay = 0.12> <FuncUnit> <Opcode : 'and' 'or' 'xor'> <InPorts = 2> <OutPorts = 1>
ST_5 : Operation 66 [1/1] (0.00ns) (grouped into LUT with out node or_ln870_10)   --->   "%and_ln870_5 = and i1 %icmp_ln870_10, i1 %xor_ln870_5"   --->   Operation 66 'and' 'and_ln870_5' <Predicate = (!state_2_load & tmp_i)> <Delay = 0.00> <CoreInst = "LogicGate">   --->   Core 74 'LogicGate' <Latency = 0> <II = 1> <Delay = 0.12> <FuncUnit> <Opcode : 'and' 'or' 'xor'> <InPorts = 2> <OutPorts = 1>
ST_5 : Operation 67 [1/1] (0.00ns) (grouped into LUT with out node and_ln870_6)   --->   "%xor_ln870_6 = xor i1 %or_ln870, i1 1"   --->   Operation 67 'xor' 'xor_ln870_6' <Predicate = (!state_2_load & tmp_i)> <Delay = 0.00> <CoreInst = "LogicGate">   --->   Core 74 'LogicGate' <Latency = 0> <II = 1> <Delay = 0.12> <FuncUnit> <Opcode : 'and' 'or' 'xor'> <InPorts = 2> <OutPorts = 1>
ST_5 : Operation 68 [1/1] (0.12ns) (out node of the LUT)   --->   "%and_ln870_6 = and i1 %icmp_ln870_11, i1 %xor_ln870_6"   --->   Operation 68 'and' 'and_ln870_6' <Predicate = (!state_2_load & tmp_i)> <Delay = 0.12> <CoreInst = "LogicGate">   --->   Core 74 'LogicGate' <Latency = 0> <II = 1> <Delay = 0.12> <FuncUnit> <Opcode : 'and' 'or' 'xor'> <InPorts = 2> <OutPorts = 1>
ST_5 : Operation 69 [1/1] (0.00ns) (grouped into LUT with out node select_ln870_8)   --->   "%select_ln870 = select i1 %and_ln870_6, i5 %current_rank_V_12, i5 %current_rank_V_11"   --->   Operation 69 'select' 'select_ln870' <Predicate = (!state_2_load & tmp_i)> <Delay = 0.00> <CoreInst = "Sel">   --->   Core 73 'Sel' <Latency = 0> <II = 1> <Delay = 0.27> <FuncUnit> <Opcode : 'select'> <InPorts = 3> <OutPorts = 1>
ST_5 : Operation 70 [1/1] (0.12ns) (out node of the LUT)   --->   "%or_ln870_10 = or i1 %and_ln870_6, i1 %and_ln870_5"   --->   Operation 70 'or' 'or_ln870_10' <Predicate = (!state_2_load & tmp_i)> <Delay = 0.12> <CoreInst = "LogicGate">   --->   Core 74 'LogicGate' <Latency = 0> <II = 1> <Delay = 0.12> <FuncUnit> <Opcode : 'and' 'or' 'xor'> <InPorts = 2> <OutPorts = 1>
ST_5 : Operation 71 [1/1] (0.27ns) (out node of the LUT)   --->   "%select_ln870_7 = select i1 %icmp_ln870_9, i5 %current_rank_V, i5 %current_rank_V_13"   --->   Operation 71 'select' 'select_ln870_7' <Predicate = (!state_2_load & tmp_i)> <Delay = 0.27> <CoreInst = "Sel">   --->   Core 73 'Sel' <Latency = 0> <II = 1> <Delay = 0.27> <FuncUnit> <Opcode : 'select'> <InPorts = 3> <OutPorts = 1>
ST_5 : Operation 72 [1/1] (0.00ns) (grouped into LUT with out node or_ln870_12)   --->   "%or_ln870_11 = or i1 %icmp_ln870_9, i1 %and_ln870"   --->   Operation 72 'or' 'or_ln870_11' <Predicate = (!state_2_load & tmp_i)> <Delay = 0.00> <CoreInst = "LogicGate">   --->   Core 74 'LogicGate' <Latency = 0> <II = 1> <Delay = 0.12> <FuncUnit> <Opcode : 'and' 'or' 'xor'> <InPorts = 2> <OutPorts = 1>
ST_5 : Operation 73 [1/1] (0.27ns) (out node of the LUT)   --->   "%select_ln870_8 = select i1 %or_ln870_10, i5 %select_ln870, i5 %select_ln870_7"   --->   Operation 73 'select' 'select_ln870_8' <Predicate = (!state_2_load & tmp_i)> <Delay = 0.27> <CoreInst = "Sel">   --->   Core 73 'Sel' <Latency = 0> <II = 1> <Delay = 0.27> <FuncUnit> <Opcode : 'select'> <InPorts = 3> <OutPorts = 1>
ST_5 : Operation 74 [1/1] (0.12ns) (out node of the LUT)   --->   "%or_ln870_12 = or i1 %or_ln870_10, i1 %or_ln870_11"   --->   Operation 74 'or' 'or_ln870_12' <Predicate = (!state_2_load & tmp_i)> <Delay = 0.12> <CoreInst = "LogicGate">   --->   Core 74 'LogicGate' <Latency = 0> <II = 1> <Delay = 0.12> <FuncUnit> <Opcode : 'and' 'or' 'xor'> <InPorts = 2> <OutPorts = 1>
ST_5 : Operation 75 [1/1] (0.00ns) (grouped into LUT with out node icmp_ln886)   --->   "%current_rank_V_15 = select i1 %or_ln870_12, i5 %select_ln870_8, i5 %current_rank_V_14"   --->   Operation 75 'select' 'current_rank_V_15' <Predicate = (!state_2_load & tmp_i)> <Delay = 0.00> <CoreInst = "Sel">   --->   Core 73 'Sel' <Latency = 0> <II = 1> <Delay = 0.27> <FuncUnit> <Opcode : 'select'> <InPorts = 3> <OutPorts = 1>
ST_5 : Operation 76 [1/1] (0.00ns)   --->   "%store_ln92 = store i5 %current_rank_V_12, i5 %prev_prev_prev_prev_rank_V_2" [betterloglog/src/fill_bucket.hpp:92]   --->   Operation 76 'store' 'store_ln92' <Predicate = (!state_2_load & tmp_i)> <Delay = 0.00>
ST_5 : Operation 77 [1/1] (0.00ns)   --->   "%store_ln93 = store i5 %current_rank_V_11, i5 %prev_prev_prev_rank_V_2" [betterloglog/src/fill_bucket.hpp:93]   --->   Operation 77 'store' 'store_ln93' <Predicate = (!state_2_load & tmp_i)> <Delay = 0.00>
ST_5 : Operation 78 [1/1] (0.00ns)   --->   "%store_ln94 = store i5 %current_rank_V, i5 %prev_prev_rank_V_2" [betterloglog/src/fill_bucket.hpp:94]   --->   Operation 78 'store' 'store_ln94' <Predicate = (!state_2_load & tmp_i)> <Delay = 0.00>
ST_5 : Operation 79 [1/1] (0.63ns) (out node of the LUT)   --->   "%icmp_ln886 = icmp_ugt  i5 %rank_V, i5 %current_rank_V_15"   --->   Operation 79 'icmp' 'icmp_ln886' <Predicate = (!state_2_load & tmp_i)> <Delay = 0.63> <CoreInst = "Cmp">   --->   Core 9 'Cmp' <Latency = 0> <II = 1> <Delay = 0.68> <FuncUnit> <Opcode : 'icmp'> <InPorts = 2> <OutPorts = 1>
ST_5 : Operation 80 [1/1] (0.00ns)   --->   "%br_ln96 = br i1 %icmp_ln886, void %._crit_edge11.i, void" [betterloglog/src/fill_bucket.hpp:96]   --->   Operation 80 'br' 'br_ln96' <Predicate = (!state_2_load & tmp_i)> <Delay = 0.00>
ST_5 : Operation 81 [1/1] (0.00ns)   --->   "%store_ln98 = store i5 %rank_V, i5 %prev_rank_V_2" [betterloglog/src/fill_bucket.hpp:98]   --->   Operation 81 'store' 'store_ln98' <Predicate = (!state_2_load & tmp_i & icmp_ln886)> <Delay = 0.00>
ST_5 : Operation 82 [1/1] (0.91ns)   --->   "%write_ln174 = write void @_ssdm_op_Write.ap_fifo.volatile.i5P0A, i5 %bucket_fifo_V_V_7, i5 %buckets_V_2_load" [/opt/Xilinx/Vitis_HLS/2020.2/common/technology/autopilot/hls_stream_39.h:174]   --->   Operation 82 'write' 'write_ln174' <Predicate = (state_2_load)> <Delay = 0.91> <CoreInst = "FIFO">   --->   Core 78 'FIFO' <Latency = 0> <II = 1> <Delay = 1.16> <Storage> <Opcode : 'read' 'write' 'nbread' 'nbwrite'> <Ports = 0> <Width = 5> <Depth = 256> <FIFO>

State 6 <SV = 5> <Delay = 1.24>
ST_6 : Operation 83 [1/1] (1.24ns)   --->   "%store_ln97 = store i5 %rank_V, i16 %buckets_V_2_addr_1" [betterloglog/src/fill_bucket.hpp:97]   --->   Operation 83 'store' 'store_ln97' <Predicate = (!state_2_load & tmp_i & icmp_ln886)> <Delay = 1.24> <CoreInst = "RAM">   --->   Core 83 'RAM' <Latency = 1> <II = 1> <Delay = 1.24> <Storage> <Opcode : 'load' 'store'> <Ports = 2> <Width = 5> <Depth = 65536> <RAM>
ST_6 : Operation 84 [1/1] (0.00ns)   --->   "%br_ln99 = br void %._crit_edge11.i" [betterloglog/src/fill_bucket.hpp:99]   --->   Operation 84 'br' 'br_ln99' <Predicate = (!state_2_load & tmp_i & icmp_ln886)> <Delay = 0.00>
ST_6 : Operation 85 [1/1] (1.24ns)   --->   "%store_ln143 = store i5 0, i16 %buckets_V_2_addr" [betterloglog/src/fill_bucket.hpp:143]   --->   Operation 85 'store' 'store_ln143' <Predicate = (state_2_load)> <Delay = 1.24> <CoreInst = "RAM">   --->   Core 83 'RAM' <Latency = 1> <II = 1> <Delay = 1.24> <Storage> <Opcode : 'load' 'store'> <Ports = 2> <Width = 5> <Depth = 65536> <RAM>
ST_6 : Operation 86 [1/1] (0.00ns)   --->   "%ret_ln0 = ret"   --->   Operation 86 'ret' 'ret_ln0' <Predicate = true> <Delay = 0.00>


============================================================
+ Verbose Summary: Timing violations
============================================================
Target clock period: 2.5ns, clock uncertainty: 0.675ns.

 <State 1>: 0ns
The critical path consists of the following:

 <State 2>: 1.99ns
The critical path consists of the following:
	'load' operation ('i_V_2_load') on static variable 'i_V_2' [88]  (0 ns)
	'add' operation ('add_ln691') [94]  (0.791 ns)
	'icmp' operation ('icmp_ln870') [95]  (0.687 ns)
	multiplexor before 'phi' operation ('i_V_22_new_0_i') with incoming values : ('add_ln691') [102]  (0.387 ns)
	'phi' operation ('i_V_22_new_0_i') with incoming values : ('add_ln691') [102]  (0 ns)
	'store' operation ('store_ln691') of variable 'i_V_22_new_0_i' on static variable 'i_V_2' [105]  (0 ns)
	blocking operation 0.122 ns on control path)

 <State 3>: 1.25ns
The critical path consists of the following:
	'load' operation ('buckets_V_2_load', betterloglog/src/fill_bucket.hpp:141) on array 'buckets_V_2' [91]  (1.25 ns)

 <State 4>: 1.25ns
The critical path consists of the following:
	'load' operation ('buckets_V_2_load', betterloglog/src/fill_bucket.hpp:141) on array 'buckets_V_2' [91]  (1.25 ns)

 <State 5>: 1.34ns
The critical path consists of the following:
	'add' operation ('rank.V') [38]  (0.707 ns)
	'icmp' operation ('icmp_ln886') [72]  (0.637 ns)

 <State 6>: 1.25ns
The critical path consists of the following:
	'store' operation ('store_ln97', betterloglog/src/fill_bucket.hpp:97) of variable 'rank.V' on array 'buckets_V_2' [75]  (1.25 ns)


============================================================
+ Verbose Summary: Binding
============================================================
N/A
* FSMD analyzer results:
  - Output states:
 - Input state : 
  - Chain level:
	State 1
	State 2
	State 3
	State 4
	State 5
	State 6


============================================================
+ Verbose Summary: Datapath Resource usage 
============================================================
N/A
