

================================================================
== Vitis HLS Report for 'murmur3_1_62'
================================================================
* Date:           Wed May  4 23:47:49 2022

* Version:        2020.2 (Build 3064766 on Wed Nov 18 09:12:47 MST 2020)
* Project:        betterloglog_prj
* Solution:       solution1 (Vitis Kernel Flow Target)
* Product family: virtexuplus
* Target device:  xcvu9p-flgb2104-2-i


================================================================
== Performance Estimates
================================================================
+ Timing: 
    * Summary: 
    +--------+---------+----------+------------+
    |  Clock |  Target | Estimated| Uncertainty|
    +--------+---------+----------+------------+
    |ap_clk  |  2.50 ns|  1.809 ns|     0.68 ns|
    +--------+---------+----------+------------+

+ Latency: 
    * Summary: 
    +---------+---------+-----------+-----------+-----+-----+---------+
    |  Latency (cycles) |   Latency (absolute)  |  Interval | Pipeline|
    |   min   |   max   |    min    |    max    | min | max |   Type  |
    +---------+---------+-----------+-----------+-----+-----+---------+
    |       22|       22|  55.000 ns|  55.000 ns|    1|    1|      yes|
    +---------+---------+-----------+-----------+-----+-----+---------+

    + Detail: 
        * Instance: 
        N/A

        * Loop: 
        N/A

============================================================
+ Verbose Summary: Synthesis Manager
============================================================
InlineROM: 1
ExposeGlobal: 0
============================================================
+ Verbose Summary: CDFG Model
============================================================
IsTopModel: 0
ResetActiveHigh: 1
IsCombinational: 2
IsDatapathOnly: 0
HasWiredReturn: 1
HasMFsm: 2
HasVarLatency: 0
IsPipeline: 1
IsRtlPipelined: 1
IsInstanceOverlapped: 0
IsDontTouch: 0
HasImplIP: 0
IsGatedGlobalClock: 0

+ Individual pipeline summary: 
  * Pipeline-0: initiation interval (II) = 1, depth = 23


============================================================
+ Verbose Summary: Schedule
============================================================
* Number of FSM states : 23
* Pipeline : 1
  Pipeline-0 : II = 1, D = 23, States = { 1 2 3 4 5 6 7 8 9 10 11 12 13 14 15 16 17 18 19 20 21 22 23 }
* Dataflow Pipeline: 0

* FSM state transitions: 
1 --> 2 
2 --> 3 
3 --> 4 
4 --> 5 
5 --> 6 
6 --> 7 
7 --> 8 
8 --> 9 
9 --> 10 
10 --> 11 
11 --> 12 
12 --> 13 
13 --> 14 
14 --> 15 
15 --> 16 
16 --> 17 
17 --> 18 
18 --> 19 
19 --> 20 
20 --> 21 
21 --> 22 
22 --> 23 
23 --> 

* FSM state operations: 

State 1 <SV = 0> <Delay = 0.91>
ST_1 : Operation 24 [1/1] (0.00ns)   --->   "%specinterface_ln0 = specinterface void @_ssdm_op_SpecInterface, i32 %dataFifo_V_data_V_9, void @ap_fifo_str, i32 0, i32 0, void @p_str, i32 0, i32 0, void @p_str, void @p_str, void @p_str, i32 2, i32 2, i32 16, i32 16, void @p_str, void @p_str"   --->   Operation 24 'specinterface' 'specinterface_ln0' <Predicate = true> <Delay = 0.00>
ST_1 : Operation 25 [1/1] (0.00ns)   --->   "%specinterface_ln0 = specinterface void @_ssdm_op_SpecInterface, i1 %dataFifo_V_last_V_9, void @ap_fifo_str, i32 0, i32 0, void @p_str, i32 0, i32 0, void @p_str, void @p_str, void @p_str, i32 2, i32 2, i32 16, i32 16, void @p_str, void @p_str"   --->   Operation 25 'specinterface' 'specinterface_ln0' <Predicate = true> <Delay = 0.00>
ST_1 : Operation 26 [1/1] (0.00ns)   --->   "%specinterface_ln0 = specinterface void @_ssdm_op_SpecInterface, i1 %dataFifo_V_valid_V_9, void @ap_fifo_str, i32 0, i32 0, void @p_str, i32 0, i32 0, void @p_str, void @p_str, void @p_str, i32 2, i32 2, i32 16, i32 16, void @p_str, void @p_str"   --->   Operation 26 'specinterface' 'specinterface_ln0' <Predicate = true> <Delay = 0.00>
ST_1 : Operation 27 [1/1] (0.00ns)   --->   "%specinterface_ln0 = specinterface void @_ssdm_op_SpecInterface, i64 %hashFifo, void @empty_4, i32 0, i32 0, void @empty_2, i32 0, i32 0, void @empty_2, void @empty_2, void @empty_2, i32 0, i32 0, i32 0, i32 0, void @empty_2, void @empty_2"   --->   Operation 27 'specinterface' 'specinterface_ln0' <Predicate = true> <Delay = 0.00>
ST_1 : Operation 28 [1/1] (0.00ns)   --->   "%specpipeline_ln121 = specpipeline void @_ssdm_op_SpecPipeline, i32 1, i32 0, i32 0, i32 0, void @empty_2" [betterloglog/src/murmur3.hpp:121]   --->   Operation 28 'specpipeline' 'specpipeline_ln121' <Predicate = true> <Delay = 0.00>
ST_1 : Operation 29 [1/1] (0.00ns)   --->   "%tmp_i = nbreadreq i1 @_ssdm_op_NbReadReq.ap_fifo.i32P0A.i1P0A.i1P0A, i32 %dataFifo_V_data_V_9, i1 %dataFifo_V_valid_V_9, i1 %dataFifo_V_last_V_9, i32 1" [/opt/Xilinx/Vitis_HLS/2020.2/common/technology/autopilot/hls_stream_39.h:136]   --->   Operation 29 'nbreadreq' 'tmp_i' <Predicate = true> <Delay = 0.00> <CoreInst = "FIFO">   --->   Core 78 'FIFO' <Latency = 0> <II = 1> <Delay = 1.19> <Storage> <Opcode : 'read' 'write' 'nbread' 'nbwrite'> <Ports = 0> <Width = 32> <Depth = 256> <FIFO>
ST_1 : Operation 30 [1/1] (0.00ns)   --->   "%br_ln133 = br i1 %tmp_i, void %murmur3<1>62.exit, void" [betterloglog/src/murmur3.hpp:133]   --->   Operation 30 'br' 'br_ln133' <Predicate = true> <Delay = 0.00>
ST_1 : Operation 31 [1/1] (0.91ns)   --->   "%empty = read i34 @_ssdm_op_Read.ap_fifo.volatile.i32P0A.i1P0A.i1P0A, i32 %dataFifo_V_data_V_9, i1 %dataFifo_V_valid_V_9, i1 %dataFifo_V_last_V_9" [/opt/Xilinx/Vitis_HLS/2020.2/common/technology/autopilot/hls_stream_39.h:145]   --->   Operation 31 'read' 'empty' <Predicate = (tmp_i)> <Delay = 0.91> <CoreInst = "FIFO">   --->   Core 78 'FIFO' <Latency = 0> <II = 1> <Delay = 1.19> <Storage> <Opcode : 'read' 'write' 'nbread' 'nbwrite'> <Ports = 0> <Width = 32> <Depth = 256> <FIFO>
ST_1 : Operation 32 [1/1] (0.00ns)   --->   "%tmp_data_V = extractvalue i34 %empty" [/opt/Xilinx/Vitis_HLS/2020.2/common/technology/autopilot/hls_stream_39.h:145]   --->   Operation 32 'extractvalue' 'tmp_data_V' <Predicate = (tmp_i)> <Delay = 0.00>
ST_1 : Operation 33 [1/1] (0.00ns)   --->   "%p_1_i = extractvalue i34 %empty" [/opt/Xilinx/Vitis_HLS/2020.2/common/technology/autopilot/hls_stream_39.h:145]   --->   Operation 33 'extractvalue' 'p_1_i' <Predicate = (tmp_i)> <Delay = 0.00>
ST_1 : Operation 34 [1/1] (0.00ns)   --->   "%p_2_i = extractvalue i34 %empty" [/opt/Xilinx/Vitis_HLS/2020.2/common/technology/autopilot/hls_stream_39.h:145]   --->   Operation 34 'extractvalue' 'p_2_i' <Predicate = (tmp_i)> <Delay = 0.00>

State 2 <SV = 1> <Delay = 1.59>
ST_2 : Operation 35 [5/5] (1.59ns)   --->   "%k1_t_V_19 = mul i32 %tmp_data_V, i32 3432918353"   --->   Operation 35 'mul' 'k1_t_V_19' <Predicate = (tmp_i)> <Delay = 1.59> <CoreInst = "Multiplier">   --->   Core 3 'Multiplier' <Latency = 4> <II = 1> <Delay = 1.59> <FuncUnit> <Opcode : 'mul'> <InPorts = 2> <OutPorts = 1>
ST_2 : Operation 36 [5/5] (1.59ns)   --->   "%r_20 = mul i32 %tmp_data_V, i32 380141568"   --->   Operation 36 'mul' 'r_20' <Predicate = (tmp_i)> <Delay = 1.59> <CoreInst = "Multiplier">   --->   Core 3 'Multiplier' <Latency = 4> <II = 1> <Delay = 1.59> <FuncUnit> <Opcode : 'mul'> <InPorts = 2> <OutPorts = 1>

State 3 <SV = 2> <Delay = 1.59>
ST_3 : Operation 37 [4/5] (1.59ns)   --->   "%k1_t_V_19 = mul i32 %tmp_data_V, i32 3432918353"   --->   Operation 37 'mul' 'k1_t_V_19' <Predicate = (tmp_i)> <Delay = 1.59> <CoreInst = "Multiplier">   --->   Core 3 'Multiplier' <Latency = 4> <II = 1> <Delay = 1.59> <FuncUnit> <Opcode : 'mul'> <InPorts = 2> <OutPorts = 1>
ST_3 : Operation 38 [4/5] (1.59ns)   --->   "%r_20 = mul i32 %tmp_data_V, i32 380141568"   --->   Operation 38 'mul' 'r_20' <Predicate = (tmp_i)> <Delay = 1.59> <CoreInst = "Multiplier">   --->   Core 3 'Multiplier' <Latency = 4> <II = 1> <Delay = 1.59> <FuncUnit> <Opcode : 'mul'> <InPorts = 2> <OutPorts = 1>

State 4 <SV = 3> <Delay = 1.59>
ST_4 : Operation 39 [3/5] (1.59ns)   --->   "%k1_t_V_19 = mul i32 %tmp_data_V, i32 3432918353"   --->   Operation 39 'mul' 'k1_t_V_19' <Predicate = (tmp_i)> <Delay = 1.59> <CoreInst = "Multiplier">   --->   Core 3 'Multiplier' <Latency = 4> <II = 1> <Delay = 1.59> <FuncUnit> <Opcode : 'mul'> <InPorts = 2> <OutPorts = 1>
ST_4 : Operation 40 [3/5] (1.59ns)   --->   "%r_20 = mul i32 %tmp_data_V, i32 380141568"   --->   Operation 40 'mul' 'r_20' <Predicate = (tmp_i)> <Delay = 1.59> <CoreInst = "Multiplier">   --->   Core 3 'Multiplier' <Latency = 4> <II = 1> <Delay = 1.59> <FuncUnit> <Opcode : 'mul'> <InPorts = 2> <OutPorts = 1>

State 5 <SV = 4> <Delay = 1.59>
ST_5 : Operation 41 [2/5] (1.59ns)   --->   "%k1_t_V_19 = mul i32 %tmp_data_V, i32 3432918353"   --->   Operation 41 'mul' 'k1_t_V_19' <Predicate = (tmp_i)> <Delay = 1.59> <CoreInst = "Multiplier">   --->   Core 3 'Multiplier' <Latency = 4> <II = 1> <Delay = 1.59> <FuncUnit> <Opcode : 'mul'> <InPorts = 2> <OutPorts = 1>
ST_5 : Operation 42 [2/5] (1.59ns)   --->   "%r_20 = mul i32 %tmp_data_V, i32 380141568"   --->   Operation 42 'mul' 'r_20' <Predicate = (tmp_i)> <Delay = 1.59> <CoreInst = "Multiplier">   --->   Core 3 'Multiplier' <Latency = 4> <II = 1> <Delay = 1.59> <FuncUnit> <Opcode : 'mul'> <InPorts = 2> <OutPorts = 1>

State 6 <SV = 5> <Delay = 1.59>
ST_6 : Operation 43 [1/5] (1.59ns)   --->   "%k1_t_V_19 = mul i32 %tmp_data_V, i32 3432918353"   --->   Operation 43 'mul' 'k1_t_V_19' <Predicate = (tmp_i)> <Delay = 1.59> <CoreInst = "Multiplier">   --->   Core 3 'Multiplier' <Latency = 4> <II = 1> <Delay = 1.59> <FuncUnit> <Opcode : 'mul'> <InPorts = 2> <OutPorts = 1>
ST_6 : Operation 44 [1/5] (1.59ns)   --->   "%r_20 = mul i32 %tmp_data_V, i32 380141568"   --->   Operation 44 'mul' 'r_20' <Predicate = (tmp_i)> <Delay = 1.59> <CoreInst = "Multiplier">   --->   Core 3 'Multiplier' <Latency = 4> <II = 1> <Delay = 1.59> <FuncUnit> <Opcode : 'mul'> <InPorts = 2> <OutPorts = 1>
ST_6 : Operation 45 [1/1] (0.00ns)   --->   "%r_s = partselect i15 @_ssdm_op_PartSelect.i15.i32.i32.i32, i32 %k1_t_V_19, i32 17, i32 31"   --->   Operation 45 'partselect' 'r_s' <Predicate = (tmp_i)> <Delay = 0.00>
ST_6 : Operation 46 [1/1] (0.00ns)   --->   "%tmp_s = partselect i17 @_ssdm_op_PartSelect.i17.i32.i32.i32, i32 %r_20, i32 15, i32 31"   --->   Operation 46 'partselect' 'tmp_s' <Predicate = (tmp_i)> <Delay = 0.00>

State 7 <SV = 6> <Delay = 1.59>
ST_7 : Operation 47 [1/1] (0.00ns)   --->   "%ret = bitconcatenate i32 @_ssdm_op_BitConcatenate.i32.i17.i15, i17 %tmp_s, i15 %r_s"   --->   Operation 47 'bitconcatenate' 'ret' <Predicate = (tmp_i)> <Delay = 0.00>
ST_7 : Operation 48 [5/5] (1.59ns)   --->   "%k1_t_V_21 = mul i32 %ret, i32 461845907"   --->   Operation 48 'mul' 'k1_t_V_21' <Predicate = (tmp_i)> <Delay = 1.59> <CoreInst = "Multiplier">   --->   Core 3 'Multiplier' <Latency = 4> <II = 1> <Delay = 1.59> <FuncUnit> <Opcode : 'mul'> <InPorts = 2> <OutPorts = 1>
ST_7 : Operation 49 [5/5] (1.59ns)   --->   "%mul_ln1497 = mul i32 %ret, i32 3870449664"   --->   Operation 49 'mul' 'mul_ln1497' <Predicate = (tmp_i)> <Delay = 1.59> <CoreInst = "Multiplier">   --->   Core 3 'Multiplier' <Latency = 4> <II = 1> <Delay = 1.59> <FuncUnit> <Opcode : 'mul'> <InPorts = 2> <OutPorts = 1>

State 8 <SV = 7> <Delay = 1.59>
ST_8 : Operation 50 [4/5] (1.59ns)   --->   "%k1_t_V_21 = mul i32 %ret, i32 461845907"   --->   Operation 50 'mul' 'k1_t_V_21' <Predicate = (tmp_i)> <Delay = 1.59> <CoreInst = "Multiplier">   --->   Core 3 'Multiplier' <Latency = 4> <II = 1> <Delay = 1.59> <FuncUnit> <Opcode : 'mul'> <InPorts = 2> <OutPorts = 1>
ST_8 : Operation 51 [4/5] (1.59ns)   --->   "%mul_ln1497 = mul i32 %ret, i32 3870449664"   --->   Operation 51 'mul' 'mul_ln1497' <Predicate = (tmp_i)> <Delay = 1.59> <CoreInst = "Multiplier">   --->   Core 3 'Multiplier' <Latency = 4> <II = 1> <Delay = 1.59> <FuncUnit> <Opcode : 'mul'> <InPorts = 2> <OutPorts = 1>

State 9 <SV = 8> <Delay = 1.59>
ST_9 : Operation 52 [3/5] (1.59ns)   --->   "%k1_t_V_21 = mul i32 %ret, i32 461845907"   --->   Operation 52 'mul' 'k1_t_V_21' <Predicate = (tmp_i)> <Delay = 1.59> <CoreInst = "Multiplier">   --->   Core 3 'Multiplier' <Latency = 4> <II = 1> <Delay = 1.59> <FuncUnit> <Opcode : 'mul'> <InPorts = 2> <OutPorts = 1>
ST_9 : Operation 53 [3/5] (1.59ns)   --->   "%mul_ln1497 = mul i32 %ret, i32 3870449664"   --->   Operation 53 'mul' 'mul_ln1497' <Predicate = (tmp_i)> <Delay = 1.59> <CoreInst = "Multiplier">   --->   Core 3 'Multiplier' <Latency = 4> <II = 1> <Delay = 1.59> <FuncUnit> <Opcode : 'mul'> <InPorts = 2> <OutPorts = 1>

State 10 <SV = 9> <Delay = 1.59>
ST_10 : Operation 54 [2/5] (1.59ns)   --->   "%k1_t_V_21 = mul i32 %ret, i32 461845907"   --->   Operation 54 'mul' 'k1_t_V_21' <Predicate = (tmp_i)> <Delay = 1.59> <CoreInst = "Multiplier">   --->   Core 3 'Multiplier' <Latency = 4> <II = 1> <Delay = 1.59> <FuncUnit> <Opcode : 'mul'> <InPorts = 2> <OutPorts = 1>
ST_10 : Operation 55 [2/5] (1.59ns)   --->   "%mul_ln1497 = mul i32 %ret, i32 3870449664"   --->   Operation 55 'mul' 'mul_ln1497' <Predicate = (tmp_i)> <Delay = 1.59> <CoreInst = "Multiplier">   --->   Core 3 'Multiplier' <Latency = 4> <II = 1> <Delay = 1.59> <FuncUnit> <Opcode : 'mul'> <InPorts = 2> <OutPorts = 1>

State 11 <SV = 10> <Delay = 1.59>
ST_11 : Operation 56 [1/5] (1.59ns)   --->   "%k1_t_V_21 = mul i32 %ret, i32 461845907"   --->   Operation 56 'mul' 'k1_t_V_21' <Predicate = (tmp_i)> <Delay = 1.59> <CoreInst = "Multiplier">   --->   Core 3 'Multiplier' <Latency = 4> <II = 1> <Delay = 1.59> <FuncUnit> <Opcode : 'mul'> <InPorts = 2> <OutPorts = 1>
ST_11 : Operation 57 [1/5] (1.59ns)   --->   "%mul_ln1497 = mul i32 %ret, i32 3870449664"   --->   Operation 57 'mul' 'mul_ln1497' <Predicate = (tmp_i)> <Delay = 1.59> <CoreInst = "Multiplier">   --->   Core 3 'Multiplier' <Latency = 4> <II = 1> <Delay = 1.59> <FuncUnit> <Opcode : 'mul'> <InPorts = 2> <OutPorts = 1>
ST_11 : Operation 58 [1/1] (0.00ns)   --->   "%r_7 = partselect i13 @_ssdm_op_PartSelect.i13.i32.i32.i32, i32 %k1_t_V_21, i32 19, i32 31"   --->   Operation 58 'partselect' 'r_7' <Predicate = (tmp_i)> <Delay = 0.00>
ST_11 : Operation 59 [1/1] (0.00ns)   --->   "%tmp_5 = partselect i19 @_ssdm_op_PartSelect.i19.i32.i32.i32, i32 %mul_ln1497, i32 13, i32 31"   --->   Operation 59 'partselect' 'tmp_5' <Predicate = (tmp_i)> <Delay = 0.00>

State 12 <SV = 11> <Delay = 1.36>
ST_12 : Operation 60 [1/1] (0.00ns)   --->   "%or_ln = bitconcatenate i32 @_ssdm_op_BitConcatenate.i32.i19.i13, i19 %tmp_5, i13 %r_7"   --->   Operation 60 'bitconcatenate' 'or_ln' <Predicate = (tmp_i)> <Delay = 0.00>
ST_12 : Operation 61 [1/1] (0.21ns)   --->   "%ret_7 = xor i32 %or_ln, i32 344064"   --->   Operation 61 'xor' 'ret_7' <Predicate = (tmp_i)> <Delay = 0.21> <CoreInst = "LogicGate">   --->   Core 74 'LogicGate' <Latency = 0> <II = 1> <Delay = 0.21> <FuncUnit> <Opcode : 'and' 'or' 'xor'> <InPorts = 2> <OutPorts = 1>
ST_12 : Operation 62 [1/1] (0.00ns)   --->   "%shl_ln213 = shl i32 %ret_7, i32 2"   --->   Operation 62 'shl' 'shl_ln213' <Predicate = (tmp_i)> <Delay = 0.00>
ST_12 : Operation 63 [1/1] (0.00ns) (grouped into TernaryAdder)   --->   "%add_ln213 = add i32 %ret_7, i32 3864292196"   --->   Operation 63 'add' 'add_ln213' <Predicate = (tmp_i)> <Delay = 0.00> <CoreInst = "TAddSub">   --->   Core 10 'TAddSub' <Latency = 0> <II = 1> <Delay = 0.36> <IPBlock> <Opcode : 'add' 'sub'> <InPorts = 3> <OutPorts = 1> <Sync>
ST_12 : Operation 64 [1/1] (0.73ns) (root node of TernaryAdder)   --->   "%h1_V_43 = add i32 %add_ln213, i32 %shl_ln213"   --->   Operation 64 'add' 'h1_V_43' <Predicate = (tmp_i)> <Delay = 0.73> <CoreInst = "TAddSub">   --->   Core 10 'TAddSub' <Latency = 0> <II = 1> <Delay = 0.36> <IPBlock> <Opcode : 'add' 'sub'> <InPorts = 3> <OutPorts = 1> <Sync>
ST_12 : Operation 65 [1/1] (0.21ns)   --->   "%h1_V_44 = xor i32 %h1_V_43, i32 4"   --->   Operation 65 'xor' 'h1_V_44' <Predicate = (tmp_i)> <Delay = 0.21> <CoreInst = "LogicGate">   --->   Core 74 'LogicGate' <Latency = 0> <II = 1> <Delay = 0.21> <FuncUnit> <Opcode : 'and' 'or' 'xor'> <InPorts = 2> <OutPorts = 1>
ST_12 : Operation 66 [1/1] (0.00ns)   --->   "%r = partselect i16 @_ssdm_op_PartSelect.i16.i32.i32.i32, i32 %h1_V_44, i32 16, i32 31"   --->   Operation 66 'partselect' 'r' <Predicate = (tmp_i)> <Delay = 0.00>
ST_12 : Operation 67 [1/1] (0.00ns)   --->   "%zext_ln1497 = zext i16 %r"   --->   Operation 67 'zext' 'zext_ln1497' <Predicate = (tmp_i)> <Delay = 0.00>
ST_12 : Operation 68 [1/1] (0.21ns)   --->   "%h1_V_45 = xor i32 %zext_ln1497, i32 %h1_V_44"   --->   Operation 68 'xor' 'h1_V_45' <Predicate = (tmp_i)> <Delay = 0.21> <CoreInst = "LogicGate">   --->   Core 74 'LogicGate' <Latency = 0> <II = 1> <Delay = 0.21> <FuncUnit> <Opcode : 'and' 'or' 'xor'> <InPorts = 2> <OutPorts = 1>

State 13 <SV = 12> <Delay = 1.59>
ST_13 : Operation 69 [5/5] (1.59ns)   --->   "%h1_V_46 = mul i32 %h1_V_45, i32 2246822507"   --->   Operation 69 'mul' 'h1_V_46' <Predicate = (tmp_i)> <Delay = 1.59> <CoreInst = "Multiplier">   --->   Core 3 'Multiplier' <Latency = 4> <II = 1> <Delay = 1.59> <FuncUnit> <Opcode : 'mul'> <InPorts = 2> <OutPorts = 1>

State 14 <SV = 13> <Delay = 1.59>
ST_14 : Operation 70 [4/5] (1.59ns)   --->   "%h1_V_46 = mul i32 %h1_V_45, i32 2246822507"   --->   Operation 70 'mul' 'h1_V_46' <Predicate = (tmp_i)> <Delay = 1.59> <CoreInst = "Multiplier">   --->   Core 3 'Multiplier' <Latency = 4> <II = 1> <Delay = 1.59> <FuncUnit> <Opcode : 'mul'> <InPorts = 2> <OutPorts = 1>

State 15 <SV = 14> <Delay = 1.59>
ST_15 : Operation 71 [3/5] (1.59ns)   --->   "%h1_V_46 = mul i32 %h1_V_45, i32 2246822507"   --->   Operation 71 'mul' 'h1_V_46' <Predicate = (tmp_i)> <Delay = 1.59> <CoreInst = "Multiplier">   --->   Core 3 'Multiplier' <Latency = 4> <II = 1> <Delay = 1.59> <FuncUnit> <Opcode : 'mul'> <InPorts = 2> <OutPorts = 1>

State 16 <SV = 15> <Delay = 1.59>
ST_16 : Operation 72 [2/5] (1.59ns)   --->   "%h1_V_46 = mul i32 %h1_V_45, i32 2246822507"   --->   Operation 72 'mul' 'h1_V_46' <Predicate = (tmp_i)> <Delay = 1.59> <CoreInst = "Multiplier">   --->   Core 3 'Multiplier' <Latency = 4> <II = 1> <Delay = 1.59> <FuncUnit> <Opcode : 'mul'> <InPorts = 2> <OutPorts = 1>

State 17 <SV = 16> <Delay = 1.80>
ST_17 : Operation 73 [1/5] (1.59ns)   --->   "%h1_V_46 = mul i32 %h1_V_45, i32 2246822507"   --->   Operation 73 'mul' 'h1_V_46' <Predicate = (tmp_i)> <Delay = 1.59> <CoreInst = "Multiplier">   --->   Core 3 'Multiplier' <Latency = 4> <II = 1> <Delay = 1.59> <FuncUnit> <Opcode : 'mul'> <InPorts = 2> <OutPorts = 1>
ST_17 : Operation 74 [1/1] (0.00ns)   --->   "%r_8 = partselect i19 @_ssdm_op_PartSelect.i19.i32.i32.i32, i32 %h1_V_46, i32 13, i32 31"   --->   Operation 74 'partselect' 'r_8' <Predicate = (tmp_i)> <Delay = 0.00>
ST_17 : Operation 75 [1/1] (0.00ns)   --->   "%zext_ln1497_13 = zext i19 %r_8"   --->   Operation 75 'zext' 'zext_ln1497_13' <Predicate = (tmp_i)> <Delay = 0.00>
ST_17 : Operation 76 [1/1] (0.21ns)   --->   "%h1_V_47 = xor i32 %zext_ln1497_13, i32 %h1_V_46"   --->   Operation 76 'xor' 'h1_V_47' <Predicate = (tmp_i)> <Delay = 0.21> <CoreInst = "LogicGate">   --->   Core 74 'LogicGate' <Latency = 0> <II = 1> <Delay = 0.21> <FuncUnit> <Opcode : 'and' 'or' 'xor'> <InPorts = 2> <OutPorts = 1>

State 18 <SV = 17> <Delay = 1.59>
ST_18 : Operation 77 [5/5] (1.59ns)   --->   "%h1_V_48 = mul i32 %h1_V_47, i32 3266489909"   --->   Operation 77 'mul' 'h1_V_48' <Predicate = (tmp_i)> <Delay = 1.59> <CoreInst = "Multiplier">   --->   Core 3 'Multiplier' <Latency = 4> <II = 1> <Delay = 1.59> <FuncUnit> <Opcode : 'mul'> <InPorts = 2> <OutPorts = 1>

State 19 <SV = 18> <Delay = 1.59>
ST_19 : Operation 78 [4/5] (1.59ns)   --->   "%h1_V_48 = mul i32 %h1_V_47, i32 3266489909"   --->   Operation 78 'mul' 'h1_V_48' <Predicate = (tmp_i)> <Delay = 1.59> <CoreInst = "Multiplier">   --->   Core 3 'Multiplier' <Latency = 4> <II = 1> <Delay = 1.59> <FuncUnit> <Opcode : 'mul'> <InPorts = 2> <OutPorts = 1>

State 20 <SV = 19> <Delay = 1.59>
ST_20 : Operation 79 [3/5] (1.59ns)   --->   "%h1_V_48 = mul i32 %h1_V_47, i32 3266489909"   --->   Operation 79 'mul' 'h1_V_48' <Predicate = (tmp_i)> <Delay = 1.59> <CoreInst = "Multiplier">   --->   Core 3 'Multiplier' <Latency = 4> <II = 1> <Delay = 1.59> <FuncUnit> <Opcode : 'mul'> <InPorts = 2> <OutPorts = 1>

State 21 <SV = 20> <Delay = 1.59>
ST_21 : Operation 80 [2/5] (1.59ns)   --->   "%h1_V_48 = mul i32 %h1_V_47, i32 3266489909"   --->   Operation 80 'mul' 'h1_V_48' <Predicate = (tmp_i)> <Delay = 1.59> <CoreInst = "Multiplier">   --->   Core 3 'Multiplier' <Latency = 4> <II = 1> <Delay = 1.59> <FuncUnit> <Opcode : 'mul'> <InPorts = 2> <OutPorts = 1>

State 22 <SV = 21> <Delay = 1.80>
ST_22 : Operation 81 [1/5] (1.59ns)   --->   "%h1_V_48 = mul i32 %h1_V_47, i32 3266489909"   --->   Operation 81 'mul' 'h1_V_48' <Predicate = (tmp_i)> <Delay = 1.59> <CoreInst = "Multiplier">   --->   Core 3 'Multiplier' <Latency = 4> <II = 1> <Delay = 1.59> <FuncUnit> <Opcode : 'mul'> <InPorts = 2> <OutPorts = 1>
ST_22 : Operation 82 [1/1] (0.00ns)   --->   "%r_9 = partselect i16 @_ssdm_op_PartSelect.i16.i32.i32.i32, i32 %h1_V_48, i32 16, i32 31"   --->   Operation 82 'partselect' 'r_9' <Predicate = (tmp_i)> <Delay = 0.00>
ST_22 : Operation 83 [1/1] (0.00ns)   --->   "%zext_ln1497_14 = zext i16 %r_9"   --->   Operation 83 'zext' 'zext_ln1497_14' <Predicate = (tmp_i)> <Delay = 0.00>
ST_22 : Operation 84 [1/1] (0.21ns)   --->   "%h1_V_49 = xor i32 %zext_ln1497_14, i32 %h1_V_48"   --->   Operation 84 'xor' 'h1_V_49' <Predicate = (tmp_i)> <Delay = 0.21> <CoreInst = "LogicGate">   --->   Core 74 'LogicGate' <Latency = 0> <II = 1> <Delay = 0.21> <FuncUnit> <Opcode : 'and' 'or' 'xor'> <InPorts = 2> <OutPorts = 1>

State 23 <SV = 22> <Delay = 0.91>
ST_23 : Operation 85 [1/1] (0.00ns)   --->   "%tmp = bitconcatenate i41 @_ssdm_op_BitConcatenate.i41.i1.i7.i1.i32, i1 %p_2_i, i7 0, i1 %p_1_i, i32 %h1_V_49" [/opt/Xilinx/Vitis_HLS/2020.2/common/technology/autopilot/hls_stream_39.h:174]   --->   Operation 85 'bitconcatenate' 'tmp' <Predicate = (tmp_i)> <Delay = 0.00>
ST_23 : Operation 86 [1/1] (0.00ns)   --->   "%zext_ln174 = zext i41 %tmp" [/opt/Xilinx/Vitis_HLS/2020.2/common/technology/autopilot/hls_stream_39.h:174]   --->   Operation 86 'zext' 'zext_ln174' <Predicate = (tmp_i)> <Delay = 0.00>
ST_23 : Operation 87 [1/1] (0.91ns)   --->   "%write_ln174 = write void @_ssdm_op_Write.ap_fifo.volatile.i64P0A, i64 %hashFifo, i64 %zext_ln174" [/opt/Xilinx/Vitis_HLS/2020.2/common/technology/autopilot/hls_stream_39.h:174]   --->   Operation 87 'write' 'write_ln174' <Predicate = (tmp_i)> <Delay = 0.91> <CoreInst = "FIFO">   --->   Core 78 'FIFO' <Latency = 0> <II = 1> <Delay = 1.19> <Storage> <Opcode : 'read' 'write' 'nbread' 'nbwrite'> <Ports = 0> <Width = 64> <Depth = 256> <FIFO>
ST_23 : Operation 88 [1/1] (0.00ns)   --->   "%br_ln159 = br void %murmur3<1>62.exit" [betterloglog/src/murmur3.hpp:159]   --->   Operation 88 'br' 'br_ln159' <Predicate = (tmp_i)> <Delay = 0.00>
ST_23 : Operation 89 [1/1] (0.00ns)   --->   "%ret_ln0 = ret"   --->   Operation 89 'ret' 'ret_ln0' <Predicate = true> <Delay = 0.00>


============================================================
+ Verbose Summary: Binding
============================================================
STG Binding: 
---------------- STG Properties BEGIN ----------------
- Is combinational: 0
- Is one-state seq: 0
- Is datapath-only: 0
- Is pipelined: 1
- Is top level: 0
Port [ Return ] is wired: 1; IO mode=ap_ctrl_hs:ce=0
Port [ dataFifo_V_data_V_9]:  wired=1; compound=1; hidden=0; nouse=0; global=1; static=1; extern=0; dir=0; type=3; pingpong=0; private_global=0; IO mode=ap_fifo:ce=0
Port [ dataFifo_V_valid_V_9]:  wired=1; compound=1; hidden=0; nouse=0; global=1; static=1; extern=0; dir=0; type=3; pingpong=0; private_global=0; IO mode=ap_fifo:ce=0
Port [ dataFifo_V_last_V_9]:  wired=1; compound=1; hidden=0; nouse=0; global=1; static=1; extern=0; dir=0; type=3; pingpong=0; private_global=0; IO mode=ap_fifo:ce=0
Port [ hashFifo]:  wired=1; compound=1; hidden=0; nouse=0; global=1; static=1; extern=0; dir=1; type=3; pingpong=0; private_global=0; IO mode=ap_fifo:ce=0
---------------- STG Properties END ------------------

---------------- Datapath Model BEGIN ----------------

<LifeTime>
<method=bitvector/>
specinterface_ln0  (specinterface ) [ 000000000000000000000000]
specinterface_ln0  (specinterface ) [ 000000000000000000000000]
specinterface_ln0  (specinterface ) [ 000000000000000000000000]
specinterface_ln0  (specinterface ) [ 000000000000000000000000]
specpipeline_ln121 (specpipeline  ) [ 000000000000000000000000]
tmp_i              (nbreadreq     ) [ 011111111111111111111111]
br_ln133           (br            ) [ 000000000000000000000000]
empty              (read          ) [ 000000000000000000000000]
tmp_data_V         (extractvalue  ) [ 011111100000000000000000]
p_1_i              (extractvalue  ) [ 011111111111111111111111]
p_2_i              (extractvalue  ) [ 011111111111111111111111]
k1_t_V_19          (mul           ) [ 000000000000000000000000]
r_20               (mul           ) [ 000000000000000000000000]
r_s                (partselect    ) [ 010000010000000000000000]
tmp_s              (partselect    ) [ 010000010000000000000000]
ret                (bitconcatenate) [ 010000001111000000000000]
k1_t_V_21          (mul           ) [ 000000000000000000000000]
mul_ln1497         (mul           ) [ 000000000000000000000000]
r_7                (partselect    ) [ 010000000000100000000000]
tmp_5              (partselect    ) [ 010000000000100000000000]
or_ln              (bitconcatenate) [ 000000000000000000000000]
ret_7              (xor           ) [ 000000000000000000000000]
shl_ln213          (shl           ) [ 000000000000000000000000]
add_ln213          (add           ) [ 000000000000000000000000]
h1_V_43            (add           ) [ 000000000000000000000000]
h1_V_44            (xor           ) [ 000000000000000000000000]
r                  (partselect    ) [ 000000000000000000000000]
zext_ln1497        (zext          ) [ 000000000000000000000000]
h1_V_45            (xor           ) [ 010000000000011111000000]
h1_V_46            (mul           ) [ 000000000000000000000000]
r_8                (partselect    ) [ 000000000000000000000000]
zext_ln1497_13     (zext          ) [ 000000000000000000000000]
h1_V_47            (xor           ) [ 010000000000000000111110]
h1_V_48            (mul           ) [ 000000000000000000000000]
r_9                (partselect    ) [ 000000000000000000000000]
zext_ln1497_14     (zext          ) [ 000000000000000000000000]
h1_V_49            (xor           ) [ 010000000000000000000001]
tmp                (bitconcatenate) [ 000000000000000000000000]
zext_ln174         (zext          ) [ 000000000000000000000000]
write_ln174        (write         ) [ 000000000000000000000000]
br_ln159           (br            ) [ 000000000000000000000000]
ret_ln0            (ret           ) [ 000000000000000000000000]
</LifeTime>

<model>

<comp_list>
<comp id="0" class="1000" name="dataFifo_V_data_V_9">
<pin_list>
<pin id="1" dir="1" index="0" bw="1" slack="0"/>
</pin_list>
<bind>
<StgValue><ssdm name="dataFifo_V_data_V_9"/></StgValue>
</bind>
</comp>

<comp id="2" class="1000" name="dataFifo_V_valid_V_9">
<pin_list>
<pin id="3" dir="1" index="0" bw="1" slack="0"/>
</pin_list>
<bind>
<StgValue><ssdm name="dataFifo_V_valid_V_9"/></StgValue>
</bind>
</comp>

<comp id="4" class="1000" name="dataFifo_V_last_V_9">
<pin_list>
<pin id="5" dir="1" index="0" bw="1" slack="0"/>
</pin_list>
<bind>
<StgValue><ssdm name="dataFifo_V_last_V_9"/></StgValue>
</bind>
</comp>

<comp id="6" class="1000" name="hashFifo">
<pin_list>
<pin id="7" dir="1" index="0" bw="1" slack="0"/>
</pin_list>
<bind>
<StgValue><ssdm name="hashFifo"/></StgValue>
</bind>
</comp>

<comp id="8" class="1001" name="const_8">
<pin_list>
<pin id="9" dir="1" index="0" bw="1" slack="2147483647"/>
</pin_list>
<bind>
<StgValue><ssdm name="_ssdm_op_SpecInterface"/></StgValue>
</bind>
</comp>

<comp id="10" class="1001" name="const_10">
<pin_list>
<pin id="11" dir="1" index="0" bw="1" slack="2147483647"/>
</pin_list>
<bind>
<StgValue><ssdm name="ap_fifo_str"/></StgValue>
</bind>
</comp>

<comp id="12" class="1001" name="const_12">
<pin_list>
<pin id="13" dir="1" index="0" bw="1" slack="2147483647"/>
</pin_list>
<bind>
<StgValue><ssdm name=""/></StgValue>
</bind>
</comp>

<comp id="14" class="1001" name="const_14">
<pin_list>
<pin id="15" dir="1" index="0" bw="1" slack="2147483647"/>
</pin_list>
<bind>
<StgValue><ssdm name="p_str"/></StgValue>
</bind>
</comp>

<comp id="16" class="1001" name="const_16">
<pin_list>
<pin id="17" dir="1" index="0" bw="1" slack="0"/>
</pin_list>
<bind>
<StgValue><ssdm name=""/></StgValue>
</bind>
</comp>

<comp id="18" class="1001" name="const_18">
<pin_list>
<pin id="19" dir="1" index="0" bw="1" slack="0"/>
</pin_list>
<bind>
<StgValue><ssdm name=""/></StgValue>
</bind>
</comp>

<comp id="20" class="1001" name="const_20">
<pin_list>
<pin id="21" dir="1" index="0" bw="1" slack="2147483647"/>
</pin_list>
<bind>
<StgValue><ssdm name="empty_4"/></StgValue>
</bind>
</comp>

<comp id="22" class="1001" name="const_22">
<pin_list>
<pin id="23" dir="1" index="0" bw="1" slack="2147483647"/>
</pin_list>
<bind>
<StgValue><ssdm name="empty_2"/></StgValue>
</bind>
</comp>

<comp id="24" class="1001" name="const_24">
<pin_list>
<pin id="25" dir="1" index="0" bw="1" slack="2147483647"/>
</pin_list>
<bind>
<StgValue><ssdm name="_ssdm_op_SpecPipeline"/></StgValue>
</bind>
</comp>

<comp id="26" class="1001" name="const_26">
<pin_list>
<pin id="27" dir="1" index="0" bw="1" slack="0"/>
</pin_list>
<bind>
<StgValue><ssdm name=""/></StgValue>
</bind>
</comp>

<comp id="28" class="1001" name="const_28">
<pin_list>
<pin id="29" dir="1" index="0" bw="1" slack="0"/>
</pin_list>
<bind>
<StgValue><ssdm name="_ssdm_op_NbReadReq.ap_fifo.i32P0A.i1P0A.i1P0A"/></StgValue>
</bind>
</comp>

<comp id="30" class="1001" name="const_30">
<pin_list>
<pin id="31" dir="1" index="0" bw="1" slack="0"/>
</pin_list>
<bind>
<StgValue><ssdm name="_ssdm_op_Read.ap_fifo.volatile.i32P0A.i1P0A.i1P0A"/></StgValue>
</bind>
</comp>

<comp id="32" class="1001" name="const_32">
<pin_list>
<pin id="33" dir="1" index="0" bw="1" slack="0"/>
</pin_list>
<bind>
<StgValue><ssdm name=""/></StgValue>
</bind>
</comp>

<comp id="34" class="1001" name="const_34">
<pin_list>
<pin id="35" dir="1" index="0" bw="1" slack="0"/>
</pin_list>
<bind>
<StgValue><ssdm name=""/></StgValue>
</bind>
</comp>

<comp id="36" class="1001" name="const_36">
<pin_list>
<pin id="37" dir="1" index="0" bw="1" slack="0"/>
</pin_list>
<bind>
<StgValue><ssdm name="_ssdm_op_PartSelect.i15.i32.i32.i32"/></StgValue>
</bind>
</comp>

<comp id="38" class="1001" name="const_38">
<pin_list>
<pin id="39" dir="1" index="0" bw="1" slack="0"/>
</pin_list>
<bind>
<StgValue><ssdm name=""/></StgValue>
</bind>
</comp>

<comp id="40" class="1001" name="const_40">
<pin_list>
<pin id="41" dir="1" index="0" bw="1" slack="0"/>
</pin_list>
<bind>
<StgValue><ssdm name=""/></StgValue>
</bind>
</comp>

<comp id="42" class="1001" name="const_42">
<pin_list>
<pin id="43" dir="1" index="0" bw="1" slack="0"/>
</pin_list>
<bind>
<StgValue><ssdm name="_ssdm_op_PartSelect.i17.i32.i32.i32"/></StgValue>
</bind>
</comp>

<comp id="44" class="1001" name="const_44">
<pin_list>
<pin id="45" dir="1" index="0" bw="1" slack="0"/>
</pin_list>
<bind>
<StgValue><ssdm name=""/></StgValue>
</bind>
</comp>

<comp id="46" class="1001" name="const_46">
<pin_list>
<pin id="47" dir="1" index="0" bw="1" slack="0"/>
</pin_list>
<bind>
<StgValue><ssdm name="_ssdm_op_BitConcatenate.i32.i17.i15"/></StgValue>
</bind>
</comp>

<comp id="48" class="1001" name="const_48">
<pin_list>
<pin id="49" dir="1" index="0" bw="1" slack="0"/>
</pin_list>
<bind>
<StgValue><ssdm name=""/></StgValue>
</bind>
</comp>

<comp id="50" class="1001" name="const_50">
<pin_list>
<pin id="51" dir="1" index="0" bw="1" slack="0"/>
</pin_list>
<bind>
<StgValue><ssdm name=""/></StgValue>
</bind>
</comp>

<comp id="52" class="1001" name="const_52">
<pin_list>
<pin id="53" dir="1" index="0" bw="1" slack="0"/>
</pin_list>
<bind>
<StgValue><ssdm name="_ssdm_op_PartSelect.i13.i32.i32.i32"/></StgValue>
</bind>
</comp>

<comp id="54" class="1001" name="const_54">
<pin_list>
<pin id="55" dir="1" index="0" bw="1" slack="0"/>
</pin_list>
<bind>
<StgValue><ssdm name=""/></StgValue>
</bind>
</comp>

<comp id="56" class="1001" name="const_56">
<pin_list>
<pin id="57" dir="1" index="0" bw="1" slack="0"/>
</pin_list>
<bind>
<StgValue><ssdm name="_ssdm_op_PartSelect.i19.i32.i32.i32"/></StgValue>
</bind>
</comp>

<comp id="58" class="1001" name="const_58">
<pin_list>
<pin id="59" dir="1" index="0" bw="1" slack="0"/>
</pin_list>
<bind>
<StgValue><ssdm name=""/></StgValue>
</bind>
</comp>

<comp id="60" class="1001" name="const_60">
<pin_list>
<pin id="61" dir="1" index="0" bw="1" slack="0"/>
</pin_list>
<bind>
<StgValue><ssdm name="_ssdm_op_BitConcatenate.i32.i19.i13"/></StgValue>
</bind>
</comp>

<comp id="62" class="1001" name="const_62">
<pin_list>
<pin id="63" dir="1" index="0" bw="1" slack="0"/>
</pin_list>
<bind>
<StgValue><ssdm name=""/></StgValue>
</bind>
</comp>

<comp id="64" class="1001" name="const_64">
<pin_list>
<pin id="65" dir="1" index="0" bw="1" slack="0"/>
</pin_list>
<bind>
<StgValue><ssdm name=""/></StgValue>
</bind>
</comp>

<comp id="66" class="1001" name="const_66">
<pin_list>
<pin id="67" dir="1" index="0" bw="1" slack="0"/>
</pin_list>
<bind>
<StgValue><ssdm name=""/></StgValue>
</bind>
</comp>

<comp id="68" class="1001" name="const_68">
<pin_list>
<pin id="69" dir="1" index="0" bw="1" slack="0"/>
</pin_list>
<bind>
<StgValue><ssdm name="_ssdm_op_PartSelect.i16.i32.i32.i32"/></StgValue>
</bind>
</comp>

<comp id="70" class="1001" name="const_70">
<pin_list>
<pin id="71" dir="1" index="0" bw="1" slack="0"/>
</pin_list>
<bind>
<StgValue><ssdm name=""/></StgValue>
</bind>
</comp>

<comp id="72" class="1001" name="const_72">
<pin_list>
<pin id="73" dir="1" index="0" bw="1" slack="0"/>
</pin_list>
<bind>
<StgValue><ssdm name=""/></StgValue>
</bind>
</comp>

<comp id="74" class="1001" name="const_74">
<pin_list>
<pin id="75" dir="1" index="0" bw="1" slack="0"/>
</pin_list>
<bind>
<StgValue><ssdm name="_ssdm_op_BitConcatenate.i41.i1.i7.i1.i32"/></StgValue>
</bind>
</comp>

<comp id="76" class="1001" name="const_76">
<pin_list>
<pin id="77" dir="1" index="0" bw="1" slack="0"/>
</pin_list>
<bind>
<StgValue><ssdm name=""/></StgValue>
</bind>
</comp>

<comp id="78" class="1001" name="const_78">
<pin_list>
<pin id="79" dir="1" index="0" bw="1" slack="0"/>
</pin_list>
<bind>
<StgValue><ssdm name="_ssdm_op_Write.ap_fifo.volatile.i64P0A"/></StgValue>
</bind>
</comp>

<comp id="80" class="1004" name="tmp_i_nbreadreq_fu_80">
<pin_list>
<pin id="81" dir="0" index="0" bw="1" slack="0"/>
<pin id="82" dir="0" index="1" bw="32" slack="0"/>
<pin id="83" dir="0" index="2" bw="1" slack="0"/>
<pin id="84" dir="0" index="3" bw="1" slack="0"/>
<pin id="85" dir="0" index="4" bw="1" slack="0"/>
<pin id="86" dir="1" index="5" bw="1" slack="1"/>
</pin_list>
<bind>
<opcode="nbreadreq(1156) " fcode="nbreadreq"/>
<opset="tmp_i/1 "/>
</bind>
</comp>

<comp id="92" class="1004" name="empty_read_fu_92">
<pin_list>
<pin id="93" dir="0" index="0" bw="34" slack="0"/>
<pin id="94" dir="0" index="1" bw="32" slack="0"/>
<pin id="95" dir="0" index="2" bw="1" slack="0"/>
<pin id="96" dir="0" index="3" bw="1" slack="0"/>
<pin id="97" dir="1" index="4" bw="34" slack="0"/>
</pin_list>
<bind>
<opcode="read(1150) " fcode="read"/>
<opset="empty/1 "/>
</bind>
</comp>

<comp id="102" class="1004" name="write_ln174_write_fu_102">
<pin_list>
<pin id="103" dir="0" index="0" bw="0" slack="0"/>
<pin id="104" dir="0" index="1" bw="64" slack="0"/>
<pin id="105" dir="0" index="2" bw="41" slack="0"/>
<pin id="106" dir="1" index="3" bw="0" slack="2147483647"/>
</pin_list>
<bind>
<opcode="write(1151) " fcode="write"/>
<opset="write_ln174/23 "/>
</bind>
</comp>

<comp id="109" class="1004" name="tmp_data_V_fu_109">
<pin_list>
<pin id="110" dir="0" index="0" bw="34" slack="0"/>
<pin id="111" dir="1" index="1" bw="32" slack="1"/>
</pin_list>
<bind>
<opcode="extractvalue(56) " fcode="extractvalue"/>
<opset="tmp_data_V/1 "/>
</bind>
</comp>

<comp id="113" class="1004" name="p_1_i_fu_113">
<pin_list>
<pin id="114" dir="0" index="0" bw="34" slack="0"/>
<pin id="115" dir="1" index="1" bw="1" slack="22"/>
</pin_list>
<bind>
<opcode="extractvalue(56) " fcode="extractvalue"/>
<opset="p_1_i/1 "/>
</bind>
</comp>

<comp id="117" class="1004" name="p_2_i_fu_117">
<pin_list>
<pin id="118" dir="0" index="0" bw="34" slack="0"/>
<pin id="119" dir="1" index="1" bw="1" slack="22"/>
</pin_list>
<bind>
<opcode="extractvalue(56) " fcode="extractvalue"/>
<opset="p_2_i/1 "/>
</bind>
</comp>

<comp id="121" class="1004" name="grp_fu_121">
<pin_list>
<pin id="122" dir="0" index="0" bw="32" slack="1"/>
<pin id="123" dir="0" index="1" bw="31" slack="0"/>
<pin id="124" dir="1" index="2" bw="32" slack="0"/>
</pin_list>
<bind>
<opcode="mul(12) " fcode="mul"/>
<opset="k1_t_V_19/2 "/>
</bind>
</comp>

<comp id="126" class="1004" name="grp_fu_126">
<pin_list>
<pin id="127" dir="0" index="0" bw="32" slack="1"/>
<pin id="128" dir="0" index="1" bw="30" slack="0"/>
<pin id="129" dir="1" index="2" bw="32" slack="0"/>
</pin_list>
<bind>
<opcode="mul(12) " fcode="mul"/>
<opset="r_20/2 "/>
</bind>
</comp>

<comp id="131" class="1004" name="r_s_fu_131">
<pin_list>
<pin id="132" dir="0" index="0" bw="15" slack="0"/>
<pin id="133" dir="0" index="1" bw="32" slack="0"/>
<pin id="134" dir="0" index="2" bw="6" slack="0"/>
<pin id="135" dir="0" index="3" bw="6" slack="0"/>
<pin id="136" dir="1" index="4" bw="15" slack="1"/>
</pin_list>
<bind>
<opcode="partselect(1002) " fcode="partselect"/>
<opset="r_s/6 "/>
</bind>
</comp>

<comp id="141" class="1004" name="tmp_s_fu_141">
<pin_list>
<pin id="142" dir="0" index="0" bw="17" slack="0"/>
<pin id="143" dir="0" index="1" bw="32" slack="0"/>
<pin id="144" dir="0" index="2" bw="5" slack="0"/>
<pin id="145" dir="0" index="3" bw="6" slack="0"/>
<pin id="146" dir="1" index="4" bw="17" slack="1"/>
</pin_list>
<bind>
<opcode="partselect(1002) " fcode="partselect"/>
<opset="tmp_s/6 "/>
</bind>
</comp>

<comp id="151" class="1004" name="ret_fu_151">
<pin_list>
<pin id="152" dir="0" index="0" bw="32" slack="0"/>
<pin id="153" dir="0" index="1" bw="17" slack="1"/>
<pin id="154" dir="0" index="2" bw="15" slack="1"/>
<pin id="155" dir="1" index="3" bw="32" slack="0"/>
</pin_list>
<bind>
<opcode="bitconcatenate(1004) " fcode="bitconcatenate"/>
<opset="ret/7 "/>
</bind>
</comp>

<comp id="157" class="1004" name="grp_fu_157">
<pin_list>
<pin id="158" dir="0" index="0" bw="32" slack="0"/>
<pin id="159" dir="0" index="1" bw="30" slack="0"/>
<pin id="160" dir="1" index="2" bw="32" slack="0"/>
</pin_list>
<bind>
<opcode="mul(12) " fcode="mul"/>
<opset="k1_t_V_21/7 "/>
</bind>
</comp>

<comp id="163" class="1004" name="grp_fu_163">
<pin_list>
<pin id="164" dir="0" index="0" bw="32" slack="0"/>
<pin id="165" dir="0" index="1" bw="30" slack="0"/>
<pin id="166" dir="1" index="2" bw="32" slack="0"/>
</pin_list>
<bind>
<opcode="mul(12) " fcode="mul"/>
<opset="mul_ln1497/7 "/>
</bind>
</comp>

<comp id="169" class="1004" name="r_7_fu_169">
<pin_list>
<pin id="170" dir="0" index="0" bw="13" slack="0"/>
<pin id="171" dir="0" index="1" bw="32" slack="0"/>
<pin id="172" dir="0" index="2" bw="6" slack="0"/>
<pin id="173" dir="0" index="3" bw="6" slack="0"/>
<pin id="174" dir="1" index="4" bw="13" slack="1"/>
</pin_list>
<bind>
<opcode="partselect(1002) " fcode="partselect"/>
<opset="r_7/11 "/>
</bind>
</comp>

<comp id="179" class="1004" name="tmp_5_fu_179">
<pin_list>
<pin id="180" dir="0" index="0" bw="19" slack="0"/>
<pin id="181" dir="0" index="1" bw="32" slack="0"/>
<pin id="182" dir="0" index="2" bw="5" slack="0"/>
<pin id="183" dir="0" index="3" bw="6" slack="0"/>
<pin id="184" dir="1" index="4" bw="19" slack="1"/>
</pin_list>
<bind>
<opcode="partselect(1002) " fcode="partselect"/>
<opset="tmp_5/11 "/>
</bind>
</comp>

<comp id="189" class="1004" name="or_ln_fu_189">
<pin_list>
<pin id="190" dir="0" index="0" bw="32" slack="0"/>
<pin id="191" dir="0" index="1" bw="19" slack="1"/>
<pin id="192" dir="0" index="2" bw="13" slack="1"/>
<pin id="193" dir="1" index="3" bw="32" slack="0"/>
</pin_list>
<bind>
<opcode="bitconcatenate(1004) " fcode="bitconcatenate"/>
<opset="or_ln/12 "/>
</bind>
</comp>

<comp id="195" class="1004" name="ret_7_fu_195">
<pin_list>
<pin id="196" dir="0" index="0" bw="32" slack="0"/>
<pin id="197" dir="0" index="1" bw="20" slack="0"/>
<pin id="198" dir="1" index="2" bw="32" slack="0"/>
</pin_list>
<bind>
<opcode="xor(25) " fcode="xor"/>
<opset="ret_7/12 "/>
</bind>
</comp>

<comp id="201" class="1004" name="shl_ln213_fu_201">
<pin_list>
<pin id="202" dir="0" index="0" bw="32" slack="0"/>
<pin id="203" dir="0" index="1" bw="3" slack="0"/>
<pin id="204" dir="1" index="2" bw="32" slack="0"/>
</pin_list>
<bind>
<opcode="shl(20) " fcode="shl"/>
<opset="shl_ln213/12 "/>
</bind>
</comp>

<comp id="207" class="1004" name="add_ln213_fu_207">
<pin_list>
<pin id="208" dir="0" index="0" bw="32" slack="0"/>
<pin id="209" dir="0" index="1" bw="30" slack="0"/>
<pin id="210" dir="1" index="2" bw="32" slack="0"/>
</pin_list>
<bind>
<opcode="add(8) " fcode="add"/>
<opset="add_ln213/12 "/>
</bind>
</comp>

<comp id="213" class="1004" name="h1_V_43_fu_213">
<pin_list>
<pin id="214" dir="0" index="0" bw="32" slack="0"/>
<pin id="215" dir="0" index="1" bw="32" slack="0"/>
<pin id="216" dir="1" index="2" bw="32" slack="0"/>
</pin_list>
<bind>
<opcode="add(8) " fcode="add"/>
<opset="h1_V_43/12 "/>
</bind>
</comp>

<comp id="219" class="1004" name="h1_V_44_fu_219">
<pin_list>
<pin id="220" dir="0" index="0" bw="32" slack="0"/>
<pin id="221" dir="0" index="1" bw="4" slack="0"/>
<pin id="222" dir="1" index="2" bw="32" slack="0"/>
</pin_list>
<bind>
<opcode="xor(25) " fcode="xor"/>
<opset="h1_V_44/12 "/>
</bind>
</comp>

<comp id="225" class="1004" name="r_fu_225">
<pin_list>
<pin id="226" dir="0" index="0" bw="16" slack="0"/>
<pin id="227" dir="0" index="1" bw="32" slack="0"/>
<pin id="228" dir="0" index="2" bw="6" slack="0"/>
<pin id="229" dir="0" index="3" bw="6" slack="0"/>
<pin id="230" dir="1" index="4" bw="16" slack="0"/>
</pin_list>
<bind>
<opcode="partselect(1002) " fcode="partselect"/>
<opset="r/12 "/>
</bind>
</comp>

<comp id="235" class="1004" name="zext_ln1497_fu_235">
<pin_list>
<pin id="236" dir="0" index="0" bw="16" slack="0"/>
<pin id="237" dir="1" index="1" bw="32" slack="0"/>
</pin_list>
<bind>
<opcode="zext(34) " fcode="zext"/>
<opset="zext_ln1497/12 "/>
</bind>
</comp>

<comp id="239" class="1004" name="h1_V_45_fu_239">
<pin_list>
<pin id="240" dir="0" index="0" bw="16" slack="0"/>
<pin id="241" dir="0" index="1" bw="32" slack="0"/>
<pin id="242" dir="1" index="2" bw="32" slack="1"/>
</pin_list>
<bind>
<opcode="xor(25) " fcode="xor"/>
<opset="h1_V_45/12 "/>
</bind>
</comp>

<comp id="245" class="1004" name="grp_fu_245">
<pin_list>
<pin id="246" dir="0" index="0" bw="32" slack="1"/>
<pin id="247" dir="0" index="1" bw="32" slack="0"/>
<pin id="248" dir="1" index="2" bw="32" slack="0"/>
</pin_list>
<bind>
<opcode="mul(12) " fcode="mul"/>
<opset="h1_V_46/13 "/>
</bind>
</comp>

<comp id="250" class="1004" name="r_8_fu_250">
<pin_list>
<pin id="251" dir="0" index="0" bw="19" slack="0"/>
<pin id="252" dir="0" index="1" bw="32" slack="0"/>
<pin id="253" dir="0" index="2" bw="5" slack="0"/>
<pin id="254" dir="0" index="3" bw="6" slack="0"/>
<pin id="255" dir="1" index="4" bw="19" slack="0"/>
</pin_list>
<bind>
<opcode="partselect(1002) " fcode="partselect"/>
<opset="r_8/17 "/>
</bind>
</comp>

<comp id="260" class="1004" name="zext_ln1497_13_fu_260">
<pin_list>
<pin id="261" dir="0" index="0" bw="19" slack="0"/>
<pin id="262" dir="1" index="1" bw="32" slack="0"/>
</pin_list>
<bind>
<opcode="zext(34) " fcode="zext"/>
<opset="zext_ln1497_13/17 "/>
</bind>
</comp>

<comp id="264" class="1004" name="h1_V_47_fu_264">
<pin_list>
<pin id="265" dir="0" index="0" bw="19" slack="0"/>
<pin id="266" dir="0" index="1" bw="32" slack="0"/>
<pin id="267" dir="1" index="2" bw="32" slack="1"/>
</pin_list>
<bind>
<opcode="xor(25) " fcode="xor"/>
<opset="h1_V_47/17 "/>
</bind>
</comp>

<comp id="270" class="1004" name="grp_fu_270">
<pin_list>
<pin id="271" dir="0" index="0" bw="32" slack="1"/>
<pin id="272" dir="0" index="1" bw="31" slack="0"/>
<pin id="273" dir="1" index="2" bw="32" slack="0"/>
</pin_list>
<bind>
<opcode="mul(12) " fcode="mul"/>
<opset="h1_V_48/18 "/>
</bind>
</comp>

<comp id="275" class="1004" name="r_9_fu_275">
<pin_list>
<pin id="276" dir="0" index="0" bw="16" slack="0"/>
<pin id="277" dir="0" index="1" bw="32" slack="0"/>
<pin id="278" dir="0" index="2" bw="6" slack="0"/>
<pin id="279" dir="0" index="3" bw="6" slack="0"/>
<pin id="280" dir="1" index="4" bw="16" slack="0"/>
</pin_list>
<bind>
<opcode="partselect(1002) " fcode="partselect"/>
<opset="r_9/22 "/>
</bind>
</comp>

<comp id="285" class="1004" name="zext_ln1497_14_fu_285">
<pin_list>
<pin id="286" dir="0" index="0" bw="16" slack="0"/>
<pin id="287" dir="1" index="1" bw="32" slack="0"/>
</pin_list>
<bind>
<opcode="zext(34) " fcode="zext"/>
<opset="zext_ln1497_14/22 "/>
</bind>
</comp>

<comp id="289" class="1004" name="h1_V_49_fu_289">
<pin_list>
<pin id="290" dir="0" index="0" bw="16" slack="0"/>
<pin id="291" dir="0" index="1" bw="32" slack="0"/>
<pin id="292" dir="1" index="2" bw="32" slack="1"/>
</pin_list>
<bind>
<opcode="xor(25) " fcode="xor"/>
<opset="h1_V_49/22 "/>
</bind>
</comp>

<comp id="295" class="1004" name="tmp_fu_295">
<pin_list>
<pin id="296" dir="0" index="0" bw="41" slack="0"/>
<pin id="297" dir="0" index="1" bw="1" slack="22"/>
<pin id="298" dir="0" index="2" bw="1" slack="0"/>
<pin id="299" dir="0" index="3" bw="1" slack="22"/>
<pin id="300" dir="0" index="4" bw="32" slack="1"/>
<pin id="301" dir="1" index="5" bw="41" slack="0"/>
</pin_list>
<bind>
<opcode="bitconcatenate(1004) " fcode="bitconcatenate"/>
<opset="tmp/23 "/>
</bind>
</comp>

<comp id="304" class="1004" name="zext_ln174_fu_304">
<pin_list>
<pin id="305" dir="0" index="0" bw="41" slack="0"/>
<pin id="306" dir="1" index="1" bw="64" slack="0"/>
</pin_list>
<bind>
<opcode="zext(34) " fcode="zext"/>
<opset="zext_ln174/23 "/>
</bind>
</comp>

<comp id="309" class="1005" name="tmp_i_reg_309">
<pin_list>
<pin id="310" dir="0" index="0" bw="1" slack="1"/>
<pin id="311" dir="1" index="1" bw="1" slack="2147483647"/>
</pin_list>
<bind>
<opset="tmp_i "/>
</bind>
</comp>

<comp id="313" class="1005" name="tmp_data_V_reg_313">
<pin_list>
<pin id="314" dir="0" index="0" bw="32" slack="1"/>
<pin id="315" dir="1" index="1" bw="32" slack="1"/>
</pin_list>
<bind>
<opset="tmp_data_V "/>
</bind>
</comp>

<comp id="319" class="1005" name="p_1_i_reg_319">
<pin_list>
<pin id="320" dir="0" index="0" bw="1" slack="22"/>
<pin id="321" dir="1" index="1" bw="1" slack="22"/>
</pin_list>
<bind>
<opset="p_1_i "/>
</bind>
</comp>

<comp id="324" class="1005" name="p_2_i_reg_324">
<pin_list>
<pin id="325" dir="0" index="0" bw="1" slack="22"/>
<pin id="326" dir="1" index="1" bw="1" slack="22"/>
</pin_list>
<bind>
<opset="p_2_i "/>
</bind>
</comp>

<comp id="329" class="1005" name="r_s_reg_329">
<pin_list>
<pin id="330" dir="0" index="0" bw="15" slack="1"/>
<pin id="331" dir="1" index="1" bw="15" slack="1"/>
</pin_list>
<bind>
<opset="r_s "/>
</bind>
</comp>

<comp id="334" class="1005" name="tmp_s_reg_334">
<pin_list>
<pin id="335" dir="0" index="0" bw="17" slack="1"/>
<pin id="336" dir="1" index="1" bw="17" slack="1"/>
</pin_list>
<bind>
<opset="tmp_s "/>
</bind>
</comp>

<comp id="339" class="1005" name="ret_reg_339">
<pin_list>
<pin id="340" dir="0" index="0" bw="32" slack="1"/>
<pin id="341" dir="1" index="1" bw="32" slack="1"/>
</pin_list>
<bind>
<opset="ret "/>
</bind>
</comp>

<comp id="345" class="1005" name="r_7_reg_345">
<pin_list>
<pin id="346" dir="0" index="0" bw="13" slack="1"/>
<pin id="347" dir="1" index="1" bw="13" slack="1"/>
</pin_list>
<bind>
<opset="r_7 "/>
</bind>
</comp>

<comp id="350" class="1005" name="tmp_5_reg_350">
<pin_list>
<pin id="351" dir="0" index="0" bw="19" slack="1"/>
<pin id="352" dir="1" index="1" bw="19" slack="1"/>
</pin_list>
<bind>
<opset="tmp_5 "/>
</bind>
</comp>

<comp id="355" class="1005" name="h1_V_45_reg_355">
<pin_list>
<pin id="356" dir="0" index="0" bw="32" slack="1"/>
<pin id="357" dir="1" index="1" bw="32" slack="1"/>
</pin_list>
<bind>
<opset="h1_V_45 "/>
</bind>
</comp>

<comp id="360" class="1005" name="h1_V_47_reg_360">
<pin_list>
<pin id="361" dir="0" index="0" bw="32" slack="1"/>
<pin id="362" dir="1" index="1" bw="32" slack="1"/>
</pin_list>
<bind>
<opset="h1_V_47 "/>
</bind>
</comp>

<comp id="365" class="1005" name="h1_V_49_reg_365">
<pin_list>
<pin id="366" dir="0" index="0" bw="32" slack="1"/>
<pin id="367" dir="1" index="1" bw="32" slack="1"/>
</pin_list>
<bind>
<opset="h1_V_49 "/>
</bind>
</comp>

</comp_list>

<net_list>
<net id="87"><net_src comp="28" pin="0"/><net_sink comp="80" pin=0"/></net>

<net id="88"><net_src comp="0" pin="0"/><net_sink comp="80" pin=1"/></net>

<net id="89"><net_src comp="2" pin="0"/><net_sink comp="80" pin=2"/></net>

<net id="90"><net_src comp="4" pin="0"/><net_sink comp="80" pin=3"/></net>

<net id="91"><net_src comp="26" pin="0"/><net_sink comp="80" pin=4"/></net>

<net id="98"><net_src comp="30" pin="0"/><net_sink comp="92" pin=0"/></net>

<net id="99"><net_src comp="0" pin="0"/><net_sink comp="92" pin=1"/></net>

<net id="100"><net_src comp="2" pin="0"/><net_sink comp="92" pin=2"/></net>

<net id="101"><net_src comp="4" pin="0"/><net_sink comp="92" pin=3"/></net>

<net id="107"><net_src comp="78" pin="0"/><net_sink comp="102" pin=0"/></net>

<net id="108"><net_src comp="6" pin="0"/><net_sink comp="102" pin=1"/></net>

<net id="112"><net_src comp="92" pin="4"/><net_sink comp="109" pin=0"/></net>

<net id="116"><net_src comp="92" pin="4"/><net_sink comp="113" pin=0"/></net>

<net id="120"><net_src comp="92" pin="4"/><net_sink comp="117" pin=0"/></net>

<net id="125"><net_src comp="32" pin="0"/><net_sink comp="121" pin=1"/></net>

<net id="130"><net_src comp="34" pin="0"/><net_sink comp="126" pin=1"/></net>

<net id="137"><net_src comp="36" pin="0"/><net_sink comp="131" pin=0"/></net>

<net id="138"><net_src comp="121" pin="2"/><net_sink comp="131" pin=1"/></net>

<net id="139"><net_src comp="38" pin="0"/><net_sink comp="131" pin=2"/></net>

<net id="140"><net_src comp="40" pin="0"/><net_sink comp="131" pin=3"/></net>

<net id="147"><net_src comp="42" pin="0"/><net_sink comp="141" pin=0"/></net>

<net id="148"><net_src comp="126" pin="2"/><net_sink comp="141" pin=1"/></net>

<net id="149"><net_src comp="44" pin="0"/><net_sink comp="141" pin=2"/></net>

<net id="150"><net_src comp="40" pin="0"/><net_sink comp="141" pin=3"/></net>

<net id="156"><net_src comp="46" pin="0"/><net_sink comp="151" pin=0"/></net>

<net id="161"><net_src comp="151" pin="3"/><net_sink comp="157" pin=0"/></net>

<net id="162"><net_src comp="48" pin="0"/><net_sink comp="157" pin=1"/></net>

<net id="167"><net_src comp="151" pin="3"/><net_sink comp="163" pin=0"/></net>

<net id="168"><net_src comp="50" pin="0"/><net_sink comp="163" pin=1"/></net>

<net id="175"><net_src comp="52" pin="0"/><net_sink comp="169" pin=0"/></net>

<net id="176"><net_src comp="157" pin="2"/><net_sink comp="169" pin=1"/></net>

<net id="177"><net_src comp="54" pin="0"/><net_sink comp="169" pin=2"/></net>

<net id="178"><net_src comp="40" pin="0"/><net_sink comp="169" pin=3"/></net>

<net id="185"><net_src comp="56" pin="0"/><net_sink comp="179" pin=0"/></net>

<net id="186"><net_src comp="163" pin="2"/><net_sink comp="179" pin=1"/></net>

<net id="187"><net_src comp="58" pin="0"/><net_sink comp="179" pin=2"/></net>

<net id="188"><net_src comp="40" pin="0"/><net_sink comp="179" pin=3"/></net>

<net id="194"><net_src comp="60" pin="0"/><net_sink comp="189" pin=0"/></net>

<net id="199"><net_src comp="189" pin="3"/><net_sink comp="195" pin=0"/></net>

<net id="200"><net_src comp="62" pin="0"/><net_sink comp="195" pin=1"/></net>

<net id="205"><net_src comp="195" pin="2"/><net_sink comp="201" pin=0"/></net>

<net id="206"><net_src comp="16" pin="0"/><net_sink comp="201" pin=1"/></net>

<net id="211"><net_src comp="195" pin="2"/><net_sink comp="207" pin=0"/></net>

<net id="212"><net_src comp="64" pin="0"/><net_sink comp="207" pin=1"/></net>

<net id="217"><net_src comp="207" pin="2"/><net_sink comp="213" pin=0"/></net>

<net id="218"><net_src comp="201" pin="2"/><net_sink comp="213" pin=1"/></net>

<net id="223"><net_src comp="213" pin="2"/><net_sink comp="219" pin=0"/></net>

<net id="224"><net_src comp="66" pin="0"/><net_sink comp="219" pin=1"/></net>

<net id="231"><net_src comp="68" pin="0"/><net_sink comp="225" pin=0"/></net>

<net id="232"><net_src comp="219" pin="2"/><net_sink comp="225" pin=1"/></net>

<net id="233"><net_src comp="18" pin="0"/><net_sink comp="225" pin=2"/></net>

<net id="234"><net_src comp="40" pin="0"/><net_sink comp="225" pin=3"/></net>

<net id="238"><net_src comp="225" pin="4"/><net_sink comp="235" pin=0"/></net>

<net id="243"><net_src comp="235" pin="1"/><net_sink comp="239" pin=0"/></net>

<net id="244"><net_src comp="219" pin="2"/><net_sink comp="239" pin=1"/></net>

<net id="249"><net_src comp="70" pin="0"/><net_sink comp="245" pin=1"/></net>

<net id="256"><net_src comp="56" pin="0"/><net_sink comp="250" pin=0"/></net>

<net id="257"><net_src comp="245" pin="2"/><net_sink comp="250" pin=1"/></net>

<net id="258"><net_src comp="58" pin="0"/><net_sink comp="250" pin=2"/></net>

<net id="259"><net_src comp="40" pin="0"/><net_sink comp="250" pin=3"/></net>

<net id="263"><net_src comp="250" pin="4"/><net_sink comp="260" pin=0"/></net>

<net id="268"><net_src comp="260" pin="1"/><net_sink comp="264" pin=0"/></net>

<net id="269"><net_src comp="245" pin="2"/><net_sink comp="264" pin=1"/></net>

<net id="274"><net_src comp="72" pin="0"/><net_sink comp="270" pin=1"/></net>

<net id="281"><net_src comp="68" pin="0"/><net_sink comp="275" pin=0"/></net>

<net id="282"><net_src comp="270" pin="2"/><net_sink comp="275" pin=1"/></net>

<net id="283"><net_src comp="18" pin="0"/><net_sink comp="275" pin=2"/></net>

<net id="284"><net_src comp="40" pin="0"/><net_sink comp="275" pin=3"/></net>

<net id="288"><net_src comp="275" pin="4"/><net_sink comp="285" pin=0"/></net>

<net id="293"><net_src comp="285" pin="1"/><net_sink comp="289" pin=0"/></net>

<net id="294"><net_src comp="270" pin="2"/><net_sink comp="289" pin=1"/></net>

<net id="302"><net_src comp="74" pin="0"/><net_sink comp="295" pin=0"/></net>

<net id="303"><net_src comp="76" pin="0"/><net_sink comp="295" pin=2"/></net>

<net id="307"><net_src comp="295" pin="5"/><net_sink comp="304" pin=0"/></net>

<net id="308"><net_src comp="304" pin="1"/><net_sink comp="102" pin=2"/></net>

<net id="312"><net_src comp="80" pin="5"/><net_sink comp="309" pin=0"/></net>

<net id="316"><net_src comp="109" pin="1"/><net_sink comp="313" pin=0"/></net>

<net id="317"><net_src comp="313" pin="1"/><net_sink comp="121" pin=0"/></net>

<net id="318"><net_src comp="313" pin="1"/><net_sink comp="126" pin=0"/></net>

<net id="322"><net_src comp="113" pin="1"/><net_sink comp="319" pin=0"/></net>

<net id="323"><net_src comp="319" pin="1"/><net_sink comp="295" pin=3"/></net>

<net id="327"><net_src comp="117" pin="1"/><net_sink comp="324" pin=0"/></net>

<net id="328"><net_src comp="324" pin="1"/><net_sink comp="295" pin=1"/></net>

<net id="332"><net_src comp="131" pin="4"/><net_sink comp="329" pin=0"/></net>

<net id="333"><net_src comp="329" pin="1"/><net_sink comp="151" pin=2"/></net>

<net id="337"><net_src comp="141" pin="4"/><net_sink comp="334" pin=0"/></net>

<net id="338"><net_src comp="334" pin="1"/><net_sink comp="151" pin=1"/></net>

<net id="342"><net_src comp="151" pin="3"/><net_sink comp="339" pin=0"/></net>

<net id="343"><net_src comp="339" pin="1"/><net_sink comp="157" pin=0"/></net>

<net id="344"><net_src comp="339" pin="1"/><net_sink comp="163" pin=0"/></net>

<net id="348"><net_src comp="169" pin="4"/><net_sink comp="345" pin=0"/></net>

<net id="349"><net_src comp="345" pin="1"/><net_sink comp="189" pin=2"/></net>

<net id="353"><net_src comp="179" pin="4"/><net_sink comp="350" pin=0"/></net>

<net id="354"><net_src comp="350" pin="1"/><net_sink comp="189" pin=1"/></net>

<net id="358"><net_src comp="239" pin="2"/><net_sink comp="355" pin=0"/></net>

<net id="359"><net_src comp="355" pin="1"/><net_sink comp="245" pin=0"/></net>

<net id="363"><net_src comp="264" pin="2"/><net_sink comp="360" pin=0"/></net>

<net id="364"><net_src comp="360" pin="1"/><net_sink comp="270" pin=0"/></net>

<net id="368"><net_src comp="289" pin="2"/><net_sink comp="365" pin=0"/></net>

<net id="369"><net_src comp="365" pin="1"/><net_sink comp="295" pin=4"/></net>

</net_list>

</model> 
---------------- Datapath Model END ------------------

* FSMD analyzer results:
  - Output states:
	Port: hashFifo | {23 }
 - Input state : 
	Port: murmur3<1>62 : dataFifo_V_data_V_9 | {1 }
	Port: murmur3<1>62 : dataFifo_V_valid_V_9 | {1 }
	Port: murmur3<1>62 : dataFifo_V_last_V_9 | {1 }
  - Chain level:
	State 1
	State 2
	State 3
	State 4
	State 5
	State 6
		r_s : 1
		tmp_s : 1
	State 7
		k1_t_V_21 : 1
		mul_ln1497 : 1
	State 8
	State 9
	State 10
	State 11
		r_7 : 1
		tmp_5 : 1
	State 12
		ret_7 : 1
		shl_ln213 : 1
		add_ln213 : 1
		h1_V_43 : 2
		h1_V_44 : 3
		r : 3
		zext_ln1497 : 4
		h1_V_45 : 5
	State 13
	State 14
	State 15
	State 16
	State 17
		r_8 : 1
		zext_ln1497_13 : 2
		h1_V_47 : 3
	State 18
	State 19
	State 20
	State 21
	State 22
		r_9 : 1
		zext_ln1497_14 : 2
		h1_V_49 : 3
	State 23
		zext_ln174 : 1
		write_ln174 : 2


============================================================
+ Verbose Summary: Datapath Resource usage 
============================================================

* Functional unit list:
|----------|--------------------------|---------|---------|---------|
| Operation|      Functional Unit     |   DSP   |    FF   |   LUT   |
|----------|--------------------------|---------|---------|---------|
|          |        grp_fu_121        |    0    |   215   |    1    |
|          |        grp_fu_126        |    0    |   215   |    1    |
|    mul   |        grp_fu_157        |    0    |   215   |    1    |
|          |        grp_fu_163        |    0    |   215   |    1    |
|          |        grp_fu_245        |    0    |   215   |    1    |
|          |        grp_fu_270        |    0    |   215   |    1    |
|----------|--------------------------|---------|---------|---------|
|          |       ret_7_fu_195       |    0    |    0    |    32   |
|          |      h1_V_44_fu_219      |    0    |    0    |    32   |
|    xor   |      h1_V_45_fu_239      |    0    |    0    |    32   |
|          |      h1_V_47_fu_264      |    0    |    0    |    32   |
|          |      h1_V_49_fu_289      |    0    |    0    |    32   |
|----------|--------------------------|---------|---------|---------|
|    add   |     add_ln213_fu_207     |    0    |    0    |    32   |
|          |      h1_V_43_fu_213      |    0    |    0    |    32   |
|----------|--------------------------|---------|---------|---------|
| nbreadreq|   tmp_i_nbreadreq_fu_80  |    0    |    0    |    0    |
|----------|--------------------------|---------|---------|---------|
|   read   |     empty_read_fu_92     |    0    |    0    |    0    |
|----------|--------------------------|---------|---------|---------|
|   write  | write_ln174_write_fu_102 |    0    |    0    |    0    |
|----------|--------------------------|---------|---------|---------|
|          |     tmp_data_V_fu_109    |    0    |    0    |    0    |
|extractvalue|       p_1_i_fu_113       |    0    |    0    |    0    |
|          |       p_2_i_fu_117       |    0    |    0    |    0    |
|----------|--------------------------|---------|---------|---------|
|          |        r_s_fu_131        |    0    |    0    |    0    |
|          |       tmp_s_fu_141       |    0    |    0    |    0    |
|          |        r_7_fu_169        |    0    |    0    |    0    |
|partselect|       tmp_5_fu_179       |    0    |    0    |    0    |
|          |         r_fu_225         |    0    |    0    |    0    |
|          |        r_8_fu_250        |    0    |    0    |    0    |
|          |        r_9_fu_275        |    0    |    0    |    0    |
|----------|--------------------------|---------|---------|---------|
|          |        ret_fu_151        |    0    |    0    |    0    |
|bitconcatenate|       or_ln_fu_189       |    0    |    0    |    0    |
|          |        tmp_fu_295        |    0    |    0    |    0    |
|----------|--------------------------|---------|---------|---------|
|    shl   |     shl_ln213_fu_201     |    0    |    0    |    0    |
|----------|--------------------------|---------|---------|---------|
|          |    zext_ln1497_fu_235    |    0    |    0    |    0    |
|   zext   |   zext_ln1497_13_fu_260  |    0    |    0    |    0    |
|          |   zext_ln1497_14_fu_285  |    0    |    0    |    0    |
|          |     zext_ln174_fu_304    |    0    |    0    |    0    |
|----------|--------------------------|---------|---------|---------|
|   Total  |                          |    0    |   1290  |   230   |
|----------|--------------------------|---------|---------|---------|

Memories:
N/A

* Register list:
+------------------+--------+
|                  |   FF   |
+------------------+--------+
|  h1_V_45_reg_355 |   32   |
|  h1_V_47_reg_360 |   32   |
|  h1_V_49_reg_365 |   32   |
|   p_1_i_reg_319  |    1   |
|   p_2_i_reg_324  |    1   |
|    r_7_reg_345   |   13   |
|    r_s_reg_329   |   15   |
|    ret_reg_339   |   32   |
|   tmp_5_reg_350  |   19   |
|tmp_data_V_reg_313|   32   |
|   tmp_i_reg_309  |    1   |
|   tmp_s_reg_334  |   17   |
+------------------+--------+
|       Total      |   227  |
+------------------+--------+

* Multiplexer (MUX) list: 
|------------|------|------|------|--------||---------||---------|
|    Comp    |  Pin | Size |  BW  | S x BW ||  Delay  ||   LUT   |
|------------|------|------|------|--------||---------||---------|
| grp_fu_157 |  p0  |   2  |  32  |   64   ||    9    |
| grp_fu_163 |  p0  |   2  |  32  |   64   ||    9    |
|------------|------|------|------|--------||---------||---------|
|    Total   |      |      |      |   128  ||  0.774  ||    18   |
|------------|------|------|------|--------||---------||---------|



* Summary:
+-----------+--------+--------+--------+--------+
|           |   DSP  |  Delay |   FF   |   LUT  |
+-----------+--------+--------+--------+--------+
|  Function |    0   |    -   |  1290  |   230  |
|   Memory  |    -   |    -   |    -   |    -   |
|Multiplexer|    -   |    0   |    -   |   18   |
|  Register |    -   |    -   |   227  |    -   |
+-----------+--------+--------+--------+--------+
|   Total   |    0   |    0   |  1517  |   248  |
+-----------+--------+--------+--------+--------+
